^C:\PROJECTS\UNI\ACGD\ASSIGNMENT\ENGINE\PCH.CPP
/c /Zi /nologo /W3 /WX- /diagnostics:column /Od /D WIN32 /D _DEBUG /D _WINDOWS /D _WIN32_WINNT=0x0600 /D _UNICODE /D UNICODE /Gm- /EHsc /RTC1 /MDd /GS /fp:precise /Zc:wchar_t /Zc:forScope /Zc:inline /std:c++20 /Yc"pch.h" /Fp"X64\DEBUG\ASSIGNMENT.PCH" /Fo"X64\DEBUG\\" /Fd"X64\DEBUG\VC143.PDB" /external:W3 /Gd /TP /FC C:\PROJECTS\UNI\ACGD\ASSIGNMENT\ENGINE\PCH.CPP
^C:\PROJECTS\UNI\ACGD\ASSIGNMENT\ENGINE\SOURCE\ASPENRENDERER\CAMERA.CPP
/c /Zi /nologo /W3 /WX- /diagnostics:column /Od /D WIN32 /D _DEBUG /D _WINDOWS /D _WIN32_WINNT=0x0600 /D _UNICODE /D UNICODE /Gm- /EHsc /RTC1 /MDd /GS /fp:precise /Zc:wchar_t /Zc:forScope /Zc:inline /std:c++20 /Yu"pch.h" /Fp"X64\DEBUG\ASSIGNMENT.PCH" /Fo"X64\DEBUG\\" /Fd"X64\DEBUG\VC143.PDB" /external:W3 /Gd /TP /FC C:\PROJECTS\UNI\ACGD\ASSIGNMENT\ENGINE\SOURCE\ASPENRENDERER\CAMERA.CPP
^C:\PROJECTS\UNI\ACGD\ASSIGNMENT\ENGINE\SOURCE\ASPENRENDERER\CONTROLLER.CPP
/c /Zi /nologo /W3 /WX- /diagnostics:column /Od /D WIN32 /D _DEBUG /D _WINDOWS /D _WIN32_WINNT=0x0600 /D _UNICODE /D UNICODE /Gm- /EHsc /RTC1 /MDd /GS /fp:precise /Zc:wchar_t /Zc:forScope /Zc:inline /std:c++20 /Yu"pch.h" /Fp"X64\DEBUG\ASSIGNMENT.PCH" /Fo"X64\DEBUG\\" /Fd"X64\DEBUG\VC143.PDB" /external:W3 /Gd /TP /FC C:\PROJECTS\UNI\ACGD\ASSIGNMENT\ENGINE\SOURCE\ASPENRENDERER\CONTROLLER.CPP
^C:\PROJECTS\UNI\ACGD\ASSIGNMENT\ENGINE\SOURCE\ASPENRENDERER\DEFERREDBUFFERS.CPP
/c /Zi /nologo /W3 /WX- /diagnostics:column /Od /D WIN32 /D _DEBUG /D _WINDOWS /D _WIN32_WINNT=0x0600 /D _UNICODE /D UNICODE /Gm- /EHsc /RTC1 /MDd /GS /fp:precise /Zc:wchar_t /Zc:forScope /Zc:inline /std:c++20 /Yu"pch.h" /Fp"X64\DEBUG\ASSIGNMENT.PCH" /Fo"X64\DEBUG\\" /Fd"X64\DEBUG\VC143.PDB" /external:W3 /Gd /TP /FC C:\PROJECTS\UNI\ACGD\ASSIGNMENT\ENGINE\SOURCE\ASPENRENDERER\DEFERREDBUFFERS.CPP
^C:\PROJECTS\UNI\ACGD\ASSIGNMENT\ENGINE\SOURCE\ASPENRENDERER\GAME.CPP
/c /Zi /nologo /W3 /WX- /diagnostics:column /Od /D WIN32 /D _DEBUG /D _WINDOWS /D _WIN32_WINNT=0x0600 /D _UNICODE /D UNICODE /Gm- /EHsc /RTC1 /MDd /GS /fp:precise /Zc:wchar_t /Zc:forScope /Zc:inline /std:c++20 /Yu"pch.h" /Fp"X64\DEBUG\ASSIGNMENT.PCH" /Fo"X64\DEBUG\\" /Fd"X64\DEBUG\VC143.PDB" /external:W3 /Gd /TP /FC C:\PROJECTS\UNI\ACGD\ASSIGNMENT\ENGINE\SOURCE\ASPENRENDERER\GAME.CPP
^C:\PROJECTS\UNI\ACGD\ASSIGNMENT\ENGINE\SOURCE\ASPENRENDERER\GAMEOBJECTS\GAMEOBJECT.CPP
/c /Zi /nologo /W3 /WX- /diagnostics:column /Od /D WIN32 /D _DEBUG /D _WINDOWS /D _WIN32_WINNT=0x0600 /D _UNICODE /D UNICODE /Gm- /EHsc /RTC1 /MDd /GS /fp:precise /Zc:wchar_t /Zc:forScope /Zc:inline /std:c++20 /Yu"pch.h" /Fp"X64\DEBUG\ASSIGNMENT.PCH" /Fo"X64\DEBUG\\" /Fd"X64\DEBUG\VC143.PDB" /external:W3 /Gd /TP /FC C:\PROJECTS\UNI\ACGD\ASSIGNMENT\ENGINE\SOURCE\ASPENRENDERER\GAMEOBJECTS\GAMEOBJECT.CPP
^C:\PROJECTS\UNI\ACGD\ASSIGNMENT\ENGINE\SOURCE\ASPENRENDERER\GAMEOBJECTS\GAMEOBJECTS.CPP
/c /Zi /nologo /W3 /WX- /diagnostics:column /Od /D WIN32 /D _DEBUG /D _WINDOWS /D _WIN32_WINNT=0x0600 /D _UNICODE /D UNICODE /Gm- /EHsc /RTC1 /MDd /GS /fp:precise /Zc:wchar_t /Zc:forScope /Zc:inline /std:c++20 /Yu"pch.h" /Fp"X64\DEBUG\ASSIGNMENT.PCH" /Fo"X64\DEBUG\\" /Fd"X64\DEBUG\VC143.PDB" /external:W3 /Gd /TP /FC C:\PROJECTS\UNI\ACGD\ASSIGNMENT\ENGINE\SOURCE\ASPENRENDERER\GAMEOBJECTS\GAMEOBJECTS.CPP
^C:\PROJECTS\UNI\ACGD\ASSIGNMENT\ENGINE\SOURCE\ASPENRENDERER\GAMEOBJECTS\MIRRORGAMEOBJECT.CPP
/c /Zi /nologo /W3 /WX- /diagnostics:column /Od /D WIN32 /D _DEBUG /D _WINDOWS /D _WIN32_WINNT=0x0600 /D _UNICODE /D UNICODE /Gm- /EHsc /RTC1 /MDd /GS /fp:precise /Zc:wchar_t /Zc:forScope /Zc:inline /std:c++20 /Yu"pch.h" /Fp"X64\DEBUG\ASSIGNMENT.PCH" /Fo"X64\DEBUG\\" /Fd"X64\DEBUG\VC143.PDB" /external:W3 /Gd /TP /FC C:\PROJECTS\UNI\ACGD\ASSIGNMENT\ENGINE\SOURCE\ASPENRENDERER\GAMEOBJECTS\MIRRORGAMEOBJECT.CPP
^C:\PROJECTS\UNI\ACGD\ASSIGNMENT\ENGINE\SOURCE\ASPENRENDERER\GAMEOBJECTS\MODELGAMEOBJECT.CPP
/c /Zi /nologo /W3 /WX- /diagnostics:column /Od /D WIN32 /D _DEBUG /D _WINDOWS /D _WIN32_WINNT=0x0600 /D _UNICODE /D UNICODE /Gm- /EHsc /RTC1 /MDd /GS /fp:precise /Zc:wchar_t /Zc:forScope /Zc:inline /std:c++20 /Yu"pch.h" /Fp"X64\DEBUG\ASSIGNMENT.PCH" /Fo"X64\DEBUG\\" /Fd"X64\DEBUG\VC143.PDB" /external:W3 /Gd /TP /FC C:\PROJECTS\UNI\ACGD\ASSIGNMENT\ENGINE\SOURCE\ASPENRENDERER\GAMEOBJECTS\MODELGAMEOBJECT.CPP
^C:\PROJECTS\UNI\ACGD\ASSIGNMENT\ENGINE\SOURCE\ASPENRENDERER\GAMEOBJECTS\ROOTGAMEOBJECT.CPP
/c /Zi /nologo /W3 /WX- /diagnostics:column /Od /D WIN32 /D _DEBUG /D _WINDOWS /D _WIN32_WINNT=0x0600 /D _UNICODE /D UNICODE /Gm- /EHsc /RTC1 /MDd /GS /fp:precise /Zc:wchar_t /Zc:forScope /Zc:inline /std:c++20 /Yu"pch.h" /Fp"X64\DEBUG\ASSIGNMENT.PCH" /Fo"X64\DEBUG\\" /Fd"X64\DEBUG\VC143.PDB" /external:W3 /Gd /TP /FC C:\PROJECTS\UNI\ACGD\ASSIGNMENT\ENGINE\SOURCE\ASPENRENDERER\GAMEOBJECTS\ROOTGAMEOBJECT.CPP
^C:\PROJECTS\UNI\ACGD\ASSIGNMENT\ENGINE\SOURCE\ASPENRENDERER\MODELS\FIREMODEL.CPP
/c /Zi /nologo /W3 /WX- /diagnostics:column /Od /D WIN32 /D _DEBUG /D _WINDOWS /D _WIN32_WINNT=0x0600 /D _UNICODE /D UNICODE /Gm- /EHsc /RTC1 /MDd /GS /fp:precise /Zc:wchar_t /Zc:forScope /Zc:inline /std:c++20 /Yu"pch.h" /Fp"X64\DEBUG\ASSIGNMENT.PCH" /Fo"X64\DEBUG\\" /Fd"X64\DEBUG\VC143.PDB" /external:W3 /Gd /TP /FC C:\PROJECTS\UNI\ACGD\ASSIGNMENT\ENGINE\SOURCE\ASPENRENDERER\MODELS\FIREMODEL.CPP
^C:\PROJECTS\UNI\ACGD\ASSIGNMENT\ENGINE\SOURCE\ASPENRENDERER\MODELS\MODEL.CPP
/c /Zi /nologo /W3 /WX- /diagnostics:column /Od /D WIN32 /D _DEBUG /D _WINDOWS /D _WIN32_WINNT=0x0600 /D _UNICODE /D UNICODE /Gm- /EHsc /RTC1 /MDd /GS /fp:precise /Zc:wchar_t /Zc:forScope /Zc:inline /std:c++20 /Yu"pch.h" /Fp"X64\DEBUG\ASSIGNMENT.PCH" /Fo"X64\DEBUG\\" /Fd"X64\DEBUG\VC143.PDB" /external:W3 /Gd /TP /FC C:\PROJECTS\UNI\ACGD\ASSIGNMENT\ENGINE\SOURCE\ASPENRENDERER\MODELS\MODEL.CPP
^C:\PROJECTS\UNI\ACGD\ASSIGNMENT\ENGINE\SOURCE\ASPENRENDERER\MODELS\WINDOWMODEL.CPP
/c /Zi /nologo /W3 /WX- /diagnostics:column /Od /D WIN32 /D _DEBUG /D _WINDOWS /D _WIN32_WINNT=0x0600 /D _UNICODE /D UNICODE /Gm- /EHsc /RTC1 /MDd /GS /fp:precise /Zc:wchar_t /Zc:forScope /Zc:inline /std:c++20 /Yu"pch.h" /Fp"X64\DEBUG\ASSIGNMENT.PCH" /Fo"X64\DEBUG\\" /Fd"X64\DEBUG\VC143.PDB" /external:W3 /Gd /TP /FC C:\PROJECTS\UNI\ACGD\ASSIGNMENT\ENGINE\SOURCE\ASPENRENDERER\MODELS\WINDOWMODEL.CPP
^C:\PROJECTS\UNI\ACGD\ASSIGNMENT\ENGINE\SOURCE\ASPENRENDERER\POINTLIGHT.CPP
/c /Zi /nologo /W3 /WX- /diagnostics:column /Od /D WIN32 /D _DEBUG /D _WINDOWS /D _WIN32_WINNT=0x0600 /D _UNICODE /D UNICODE /Gm- /EHsc /RTC1 /MDd /GS /fp:precise /Zc:wchar_t /Zc:forScope /Zc:inline /std:c++20 /Yu"pch.h" /Fp"X64\DEBUG\ASSIGNMENT.PCH" /Fo"X64\DEBUG\\" /Fd"X64\DEBUG\VC143.PDB" /external:W3 /Gd /TP /FC C:\PROJECTS\UNI\ACGD\ASSIGNMENT\ENGINE\SOURCE\ASPENRENDERER\POINTLIGHT.CPP
^C:\PROJECTS\UNI\ACGD\ASSIGNMENT\ENGINE\SOURCE\ASPENRENDERER\RENDERMANAGER.CPP
/c /Zi /nologo /W3 /WX- /diagnostics:column /Od /D WIN32 /D _DEBUG /D _WINDOWS /D _WIN32_WINNT=0x0600 /D _UNICODE /D UNICODE /Gm- /EHsc /RTC1 /MDd /GS /fp:precise /Zc:wchar_t /Zc:forScope /Zc:inline /std:c++20 /Yu"pch.h" /Fp"X64\DEBUG\ASSIGNMENT.PCH" /Fo"X64\DEBUG\\" /Fd"X64\DEBUG\VC143.PDB" /external:W3 /Gd /TP /FC C:\PROJECTS\UNI\ACGD\ASSIGNMENT\ENGINE\SOURCE\ASPENRENDERER\RENDERMANAGER.CPP
^C:\PROJECTS\UNI\ACGD\ASSIGNMENT\ENGINE\SOURCE\ASPENRENDERER\SHADERS\DEFERREDLIGHTSHADER.CPP
/c /Zi /nologo /W3 /WX- /diagnostics:column /Od /D WIN32 /D _DEBUG /D _WINDOWS /D _WIN32_WINNT=0x0600 /D _UNICODE /D UNICODE /Gm- /EHsc /RTC1 /MDd /GS /fp:precise /Zc:wchar_t /Zc:forScope /Zc:inline /std:c++20 /Yu"pch.h" /Fp"X64\DEBUG\ASSIGNMENT.PCH" /Fo"X64\DEBUG\\" /Fd"X64\DEBUG\VC143.PDB" /external:W3 /Gd /TP /FC C:\PROJECTS\UNI\ACGD\ASSIGNMENT\ENGINE\SOURCE\ASPENRENDERER\SHADERS\DEFERREDLIGHTSHADER.CPP
^C:\PROJECTS\UNI\ACGD\ASSIGNMENT\ENGINE\SOURCE\ASPENRENDERER\SHADERS\FIRESHADER.CPP
/c /Zi /nologo /W3 /WX- /diagnostics:column /Od /D WIN32 /D _DEBUG /D _WINDOWS /D _WIN32_WINNT=0x0600 /D _UNICODE /D UNICODE /Gm- /EHsc /RTC1 /MDd /GS /fp:precise /Zc:wchar_t /Zc:forScope /Zc:inline /std:c++20 /Yu"pch.h" /Fp"X64\DEBUG\ASSIGNMENT.PCH" /Fo"X64\DEBUG\\" /Fd"X64\DEBUG\VC143.PDB" /external:W3 /Gd /TP /FC C:\PROJECTS\UNI\ACGD\ASSIGNMENT\ENGINE\SOURCE\ASPENRENDERER\SHADERS\FIRESHADER.CPP
^C:\PROJECTS\UNI\ACGD\ASSIGNMENT\ENGINE\SOURCE\ASPENRENDERER\SHADERS\MIRRORSHADER.CPP
/c /Zi /nologo /W3 /WX- /diagnostics:column /Od /D WIN32 /D _DEBUG /D _WINDOWS /D _WIN32_WINNT=0x0600 /D _UNICODE /D UNICODE /Gm- /EHsc /RTC1 /MDd /GS /fp:precise /Zc:wchar_t /Zc:forScope /Zc:inline /std:c++20 /Yu"pch.h" /Fp"X64\DEBUG\ASSIGNMENT.PCH" /Fo"X64\DEBUG\\" /Fd"X64\DEBUG\VC143.PDB" /external:W3 /Gd /TP /FC C:\PROJECTS\UNI\ACGD\ASSIGNMENT\ENGINE\SOURCE\ASPENRENDERER\SHADERS\MIRRORSHADER.CPP
^C:\PROJECTS\UNI\ACGD\ASSIGNMENT\ENGINE\SOURCE\ASPENRENDERER\SHADERS\SHADER.CPP
/c /Zi /nologo /W3 /WX- /diagnostics:column /Od /D WIN32 /D _DEBUG /D _WINDOWS /D _WIN32_WINNT=0x0600 /D _UNICODE /D UNICODE /Gm- /EHsc /RTC1 /MDd /GS /fp:precise /Zc:wchar_t /Zc:forScope /Zc:inline /std:c++20 /Yu"pch.h" /Fp"X64\DEBUG\ASSIGNMENT.PCH" /Fo"X64\DEBUG\\" /Fd"X64\DEBUG\VC143.PDB" /external:W3 /Gd /TP /FC C:\PROJECTS\UNI\ACGD\ASSIGNMENT\ENGINE\SOURCE\ASPENRENDERER\SHADERS\SHADER.CPP
^C:\PROJECTS\UNI\ACGD\ASSIGNMENT\ENGINE\SOURCE\INPUTCLASS.CPP
/c /Zi /nologo /W3 /WX- /diagnostics:column /Od /D WIN32 /D _DEBUG /D _WINDOWS /D _WIN32_WINNT=0x0600 /D _UNICODE /D UNICODE /Gm- /EHsc /RTC1 /MDd /GS /fp:precise /Zc:wchar_t /Zc:forScope /Zc:inline /std:c++20 /Yu"pch.h" /Fp"X64\DEBUG\ASSIGNMENT.PCH" /Fo"X64\DEBUG\\" /Fd"X64\DEBUG\VC143.PDB" /external:W3 /Gd /TP /FC C:\PROJECTS\UNI\ACGD\ASSIGNMENT\ENGINE\SOURCE\INPUTCLASS.CPP
^C:\PROJECTS\UNI\ACGD\ASSIGNMENT\ENGINE\SOURCE\TIMERCLASS.CPP
/c /Zi /nologo /W3 /WX- /diagnostics:column /Od /D WIN32 /D _DEBUG /D _WINDOWS /D _WIN32_WINNT=0x0600 /D _UNICODE /D UNICODE /Gm- /EHsc /RTC1 /MDd /GS /fp:precise /Zc:wchar_t /Zc:forScope /Zc:inline /std:c++20 /Yu"pch.h" /Fp"X64\DEBUG\ASSIGNMENT.PCH" /Fo"X64\DEBUG\\" /Fd"X64\DEBUG\VC143.PDB" /external:W3 /Gd /TP /FC C:\PROJECTS\UNI\ACGD\ASSIGNMENT\ENGINE\SOURCE\TIMERCLASS.CPP
^C:\PROJECTS\UNI\ACGD\ASSIGNMENT\ENGINE\SOURCE\ASPENRENDERER\AABB.CPP
/c /Zi /nologo /W3 /WX- /diagnostics:column /Od /D WIN32 /D _DEBUG /D _WINDOWS /D _WIN32_WINNT=0x0600 /D _UNICODE /D UNICODE /Gm- /EHsc /RTC1 /MDd /GS /fp:precise /Zc:wchar_t /Zc:forScope /Zc:inline /std:c++20 /Yu"pch.h" /Fp"X64\DEBUG\ASSIGNMENT.PCH" /Fo"X64\DEBUG\\" /Fd"X64\DEBUG\VC143.PDB" /external:W3 /Gd /TP /FC C:\PROJECTS\UNI\ACGD\ASSIGNMENT\ENGINE\SOURCE\ASPENRENDERER\AABB.CPP
^C:\PROJECTS\UNI\ACGD\ASSIGNMENT\ENGINE\SOURCE\D3DCLASS.CPP
/c /Zi /nologo /W3 /WX- /diagnostics:column /Od /D WIN32 /D _DEBUG /D _WINDOWS /D _WIN32_WINNT=0x0600 /D _UNICODE /D UNICODE /Gm- /EHsc /RTC1 /MDd /GS /fp:precise /Zc:wchar_t /Zc:forScope /Zc:inline /std:c++20 /Yu"pch.h" /Fp"X64\DEBUG\ASSIGNMENT.PCH" /Fo"X64\DEBUG\\" /Fd"X64\DEBUG\VC143.PDB" /external:W3 /Gd /TP /FC C:\PROJECTS\UNI\ACGD\ASSIGNMENT\ENGINE\SOURCE\D3DCLASS.CPP
^C:\PROJECTS\UNI\ACGD\ASSIGNMENT\ENGINE\SOURCE\DDSTEXTURELOADER.CPP
/c /Zi /nologo /W3 /WX- /diagnostics:column /Od /D WIN32 /D _DEBUG /D _WINDOWS /D _WIN32_WINNT=0x0600 /D _UNICODE /D UNICODE /Gm- /EHsc /RTC1 /MDd /GS /fp:precise /Zc:wchar_t /Zc:forScope /Zc:inline /std:c++20 /Fo"X64\DEBUG\\" /Fd"X64\DEBUG\VC143.PDB" /external:W3 /Gd /TP /FC C:\PROJECTS\UNI\ACGD\ASSIGNMENT\ENGINE\SOURCE\DDSTEXTURELOADER.CPP
^C:\PROJECTS\UNI\ACGD\ASSIGNMENT\ENGINE\SOURCE\MAIN.CPP
/c /Zi /nologo /W3 /WX- /diagnostics:column /Od /D WIN32 /D _DEBUG /D _WINDOWS /D _WIN32_WINNT=0x0600 /D _UNICODE /D UNICODE /Gm- /EHsc /RTC1 /MDd /GS /fp:precise /Zc:wchar_t /Zc:forScope /Zc:inline /std:c++20 /Yu"pch.h" /Fp"X64\DEBUG\ASSIGNMENT.PCH" /Fo"X64\DEBUG\\" /Fd"X64\DEBUG\VC143.PDB" /external:W3 /Gd /TP /FC C:\PROJECTS\UNI\ACGD\ASSIGNMENT\ENGINE\SOURCE\MAIN.CPP
^C:\PROJECTS\UNI\ACGD\ASSIGNMENT\ENGINE\SOURCE\SYSTEMCLASS.CPP
/c /Zi /nologo /W3 /WX- /diagnostics:column /Od /D WIN32 /D _DEBUG /D _WINDOWS /D _WIN32_WINNT=0x0600 /D _UNICODE /D UNICODE /Gm- /EHsc /RTC1 /MDd /GS /fp:precise /Zc:wchar_t /Zc:forScope /Zc:inline /std:c++20 /Yu"pch.h" /Fp"X64\DEBUG\ASSIGNMENT.PCH" /Fo"X64\DEBUG\\" /Fd"X64\DEBUG\VC143.PDB" /external:W3 /Gd /TP /FC C:\PROJECTS\UNI\ACGD\ASSIGNMENT\ENGINE\SOURCE\SYSTEMCLASS.CPP
^C:\PROJECTS\UNI\ACGD\ASSIGNMENT\ENGINE\SOURCE\WEBCAMINPUT.CPP
/c /Zi /nologo /W3 /WX- /diagnostics:column /Od /D WIN32 /D _DEBUG /D _WINDOWS /D _WIN32_WINNT=0x0600 /D _UNICODE /D UNICODE /Gm- /EHsc /RTC1 /MDd /GS /fp:precise /Zc:wchar_t /Zc:forScope /Zc:inline /std:c++20 /Yu"pch.h" /Fp"X64\DEBUG\ASSIGNMENT.PCH" /Fo"X64\DEBUG\\" /Fd"X64\DEBUG\VC143.PDB" /external:W3 /Gd /TP /FC C:\PROJECTS\UNI\ACGD\ASSIGNMENT\ENGINE\SOURCE\WEBCAMINPUT.CPP
^C:\USERS\U1862679\ACGD\ASSIGNMENT\ENGINE\PCH.CPP
/c /Zi /nologo /W3 /WX- /diagnostics:column /Od /D WIN32 /D _DEBUG /D _WINDOWS /D _WIN32_WINNT=0x0600 /D _UNICODE /D UNICODE /Gm- /EHsc /RTC1 /MDd /GS /fp:precise /Zc:wchar_t /Zc:forScope /Zc:inline /std:c++17 /Yc"pch.h" /Fp"X64\DEBUG\ASSIGNMENT.PCH" /Fo"X64\DEBUG\\" /Fd"X64\DEBUG\VC142.PDB" /external:env:EXTERNAL_INCLUDE /external:W3 /Gd /TP /FC C:\USERS\U1862679\ACGD\ASSIGNMENT\ENGINE\PCH.CPP
^C:\USERS\U1862679\ACGD\ASSIGNMENT\ENGINE\SOURCE\ASPENRENDERER\AABB.CPP
/c /Zi /nologo /W3 /WX- /diagnostics:column /Od /D WIN32 /D _DEBUG /D _WINDOWS /D _WIN32_WINNT=0x0600 /D _UNICODE /D UNICODE /Gm- /EHsc /RTC1 /MDd /GS /fp:precise /Zc:wchar_t /Zc:forScope /Zc:inline /std:c++17 /Yu"pch.h" /Fp"X64\DEBUG\ASSIGNMENT.PCH" /Fo"X64\DEBUG\\" /Fd"X64\DEBUG\VC142.PDB" /external:env:EXTERNAL_INCLUDE /external:W3 /Gd /TP /FC C:\USERS\U1862679\ACGD\ASSIGNMENT\ENGINE\SOURCE\ASPENRENDERER\AABB.CPP
^C:\USERS\U1862679\ACGD\ASSIGNMENT\ENGINE\SOURCE\ASPENRENDERER\DEFERREDBUFFERS.CPP
/c /Zi /nologo /W3 /WX- /diagnostics:column /Od /D WIN32 /D _DEBUG /D _WINDOWS /D _WIN32_WINNT=0x0600 /D _UNICODE /D UNICODE /Gm- /EHsc /RTC1 /MDd /GS /fp:precise /Zc:wchar_t /Zc:forScope /Zc:inline /std:c++17 /Yu"pch.h" /Fp"X64\DEBUG\ASSIGNMENT.PCH" /Fo"X64\DEBUG\\" /Fd"X64\DEBUG\VC142.PDB" /external:env:EXTERNAL_INCLUDE /external:W3 /Gd /TP /FC C:\USERS\U1862679\ACGD\ASSIGNMENT\ENGINE\SOURCE\ASPENRENDERER\DEFERREDBUFFERS.CPP
^C:\USERS\U1862679\ACGD\ASSIGNMENT\ENGINE\SOURCE\ASPENRENDERER\GAMEOBJECTS\GAMEOBJECT.CPP
/c /Zi /nologo /W3 /WX- /diagnostics:column /Od /D WIN32 /D _DEBUG /D _WINDOWS /D _WIN32_WINNT=0x0600 /D _UNICODE /D UNICODE /Gm- /EHsc /RTC1 /MDd /GS /fp:precise /Zc:wchar_t /Zc:forScope /Zc:inline /std:c++17 /Yu"pch.h" /Fp"X64\DEBUG\ASSIGNMENT.PCH" /Fo"X64\DEBUG\\" /Fd"X64\DEBUG\VC142.PDB" /external:env:EXTERNAL_INCLUDE /external:W3 /Gd /TP /FC C:\USERS\U1862679\ACGD\ASSIGNMENT\ENGINE\SOURCE\ASPENRENDERER\GAMEOBJECTS\GAMEOBJECT.CPP
^C:\USERS\U1862679\ACGD\ASSIGNMENT\ENGINE\SOURCE\ASPENRENDERER\MODELS\FIREMODEL.CPP
/c /Zi /nologo /W3 /WX- /diagnostics:column /Od /D WIN32 /D _DEBUG /D _WINDOWS /D _WIN32_WINNT=0x0600 /D _UNICODE /D UNICODE /Gm- /EHsc /RTC1 /MDd /GS /fp:precise /Zc:wchar_t /Zc:forScope /Zc:inline /std:c++17 /Yu"pch.h" /Fp"X64\DEBUG\ASSIGNMENT.PCH" /Fo"X64\DEBUG\\" /Fd"X64\DEBUG\VC142.PDB" /external:env:EXTERNAL_INCLUDE /external:W3 /Gd /TP /FC C:\USERS\U1862679\ACGD\ASSIGNMENT\ENGINE\SOURCE\ASPENRENDERER\MODELS\FIREMODEL.CPP
^C:\USERS\U1862679\ACGD\ASSIGNMENT\ENGINE\SOURCE\ASPENRENDERER\MODELS\MODEL.CPP
/c /Zi /nologo /W3 /WX- /diagnostics:column /Od /D WIN32 /D _DEBUG /D _WINDOWS /D _WIN32_WINNT=0x0600 /D _UNICODE /D UNICODE /Gm- /EHsc /RTC1 /MDd /GS /fp:precise /Zc:wchar_t /Zc:forScope /Zc:inline /std:c++17 /Yu"pch.h" /Fp"X64\DEBUG\ASSIGNMENT.PCH" /Fo"X64\DEBUG\\" /Fd"X64\DEBUG\VC142.PDB" /external:env:EXTERNAL_INCLUDE /external:W3 /Gd /TP /FC C:\USERS\U1862679\ACGD\ASSIGNMENT\ENGINE\SOURCE\ASPENRENDERER\MODELS\MODEL.CPP
^C:\USERS\U1862679\ACGD\ASSIGNMENT\ENGINE\SOURCE\ASPENRENDERER\MODELS\WINDOWMODEL.CPP
/c /Zi /nologo /W3 /WX- /diagnostics:column /Od /D WIN32 /D _DEBUG /D _WINDOWS /D _WIN32_WINNT=0x0600 /D _UNICODE /D UNICODE /Gm- /EHsc /RTC1 /MDd /GS /fp:precise /Zc:wchar_t /Zc:forScope /Zc:inline /std:c++17 /Yu"pch.h" /Fp"X64\DEBUG\ASSIGNMENT.PCH" /Fo"X64\DEBUG\\" /Fd"X64\DEBUG\VC142.PDB" /external:env:EXTERNAL_INCLUDE /external:W3 /Gd /TP /FC C:\USERS\U1862679\ACGD\ASSIGNMENT\ENGINE\SOURCE\ASPENRENDERER\MODELS\WINDOWMODEL.CPP
^C:\USERS\U1862679\ACGD\ASSIGNMENT\ENGINE\SOURCE\ASPENRENDERER\POINTLIGHT.CPP
/c /Zi /nologo /W3 /WX- /diagnostics:column /Od /D WIN32 /D _DEBUG /D _WINDOWS /D _WIN32_WINNT=0x0600 /D _UNICODE /D UNICODE /Gm- /EHsc /RTC1 /MDd /GS /fp:precise /Zc:wchar_t /Zc:forScope /Zc:inline /std:c++17 /Yu"pch.h" /Fp"X64\DEBUG\ASSIGNMENT.PCH" /Fo"X64\DEBUG\\" /Fd"X64\DEBUG\VC142.PDB" /external:env:EXTERNAL_INCLUDE /external:W3 /Gd /TP /FC C:\USERS\U1862679\ACGD\ASSIGNMENT\ENGINE\SOURCE\ASPENRENDERER\POINTLIGHT.CPP
^C:\USERS\U1862679\ACGD\ASSIGNMENT\ENGINE\SOURCE\ASPENRENDERER\SHADERS\DEFERREDLIGHTSHADER.CPP
/c /Zi /nologo /W3 /WX- /diagnostics:column /Od /D WIN32 /D _DEBUG /D _WINDOWS /D _WIN32_WINNT=0x0600 /D _UNICODE /D UNICODE /Gm- /EHsc /RTC1 /MDd /GS /fp:precise /Zc:wchar_t /Zc:forScope /Zc:inline /std:c++17 /Yu"pch.h" /Fp"X64\DEBUG\ASSIGNMENT.PCH" /Fo"X64\DEBUG\\" /Fd"X64\DEBUG\VC142.PDB" /external:env:EXTERNAL_INCLUDE /external:W3 /Gd /TP /FC C:\USERS\U1862679\ACGD\ASSIGNMENT\ENGINE\SOURCE\ASPENRENDERER\SHADERS\DEFERREDLIGHTSHADER.CPP
^C:\USERS\U1862679\ACGD\ASSIGNMENT\ENGINE\SOURCE\ASPENRENDERER\SHADERS\FIRESHADER.CPP
/c /Zi /nologo /W3 /WX- /diagnostics:column /Od /D WIN32 /D _DEBUG /D _WINDOWS /D _WIN32_WINNT=0x0600 /D _UNICODE /D UNICODE /Gm- /EHsc /RTC1 /MDd /GS /fp:precise /Zc:wchar_t /Zc:forScope /Zc:inline /std:c++17 /Yu"pch.h" /Fp"X64\DEBUG\ASSIGNMENT.PCH" /Fo"X64\DEBUG\\" /Fd"X64\DEBUG\VC142.PDB" /external:env:EXTERNAL_INCLUDE /external:W3 /Gd /TP /FC C:\USERS\U1862679\ACGD\ASSIGNMENT\ENGINE\SOURCE\ASPENRENDERER\SHADERS\FIRESHADER.CPP
^C:\USERS\U1862679\ACGD\ASSIGNMENT\ENGINE\SOURCE\ASPENRENDERER\SHADERS\MIRRORSHADER.CPP
/c /Zi /nologo /W3 /WX- /diagnostics:column /Od /D WIN32 /D _DEBUG /D _WINDOWS /D _WIN32_WINNT=0x0600 /D _UNICODE /D UNICODE /Gm- /EHsc /RTC1 /MDd /GS /fp:precise /Zc:wchar_t /Zc:forScope /Zc:inline /std:c++17 /Yu"pch.h" /Fp"X64\DEBUG\ASSIGNMENT.PCH" /Fo"X64\DEBUG\\" /Fd"X64\DEBUG\VC142.PDB" /external:env:EXTERNAL_INCLUDE /external:W3 /Gd /TP /FC C:\USERS\U1862679\ACGD\ASSIGNMENT\ENGINE\SOURCE\ASPENRENDERER\SHADERS\MIRRORSHADER.CPP
^C:\USERS\U1862679\ACGD\ASSIGNMENT\ENGINE\SOURCE\ASPENRENDERER\SHADERS\SHADER.CPP
/c /Zi /nologo /W3 /WX- /diagnostics:column /Od /D WIN32 /D _DEBUG /D _WINDOWS /D _WIN32_WINNT=0x0600 /D _UNICODE /D UNICODE /Gm- /EHsc /RTC1 /MDd /GS /fp:precise /Zc:wchar_t /Zc:forScope /Zc:inline /std:c++17 /Yu"pch.h" /Fp"X64\DEBUG\ASSIGNMENT.PCH" /Fo"X64\DEBUG\\" /Fd"X64\DEBUG\VC142.PDB" /external:env:EXTERNAL_INCLUDE /external:W3 /Gd /TP /FC C:\USERS\U1862679\ACGD\ASSIGNMENT\ENGINE\SOURCE\ASPENRENDERER\SHADERS\SHADER.CPP
^C:\USERS\U1862679\ACGD\ASSIGNMENT\ENGINE\SOURCE\INPUTCLASS.CPP
/c /Zi /nologo /W3 /WX- /diagnostics:column /Od /D WIN32 /D _DEBUG /D _WINDOWS /D _WIN32_WINNT=0x0600 /D _UNICODE /D UNICODE /Gm- /EHsc /RTC1 /MDd /GS /fp:precise /Zc:wchar_t /Zc:forScope /Zc:inline /std:c++17 /Yu"pch.h" /Fp"X64\DEBUG\ASSIGNMENT.PCH" /Fo"X64\DEBUG\\" /Fd"X64\DEBUG\VC142.PDB" /external:env:EXTERNAL_INCLUDE /external:W3 /Gd /TP /FC C:\USERS\U1862679\ACGD\ASSIGNMENT\ENGINE\SOURCE\INPUTCLASS.CPP
^C:\USERS\U1862679\ACGD\ASSIGNMENT\ENGINE\SOURCE\TIMERCLASS.CPP
/c /Zi /nologo /W3 /WX- /diagnostics:column /Od /D WIN32 /D _DEBUG /D _WINDOWS /D _WIN32_WINNT=0x0600 /D _UNICODE /D UNICODE /Gm- /EHsc /RTC1 /MDd /GS /fp:precise /Zc:wchar_t /Zc:forScope /Zc:inline /std:c++17 /Yu"pch.h" /Fp"X64\DEBUG\ASSIGNMENT.PCH" /Fo"X64\DEBUG\\" /Fd"X64\DEBUG\VC142.PDB" /external:env:EXTERNAL_INCLUDE /external:W3 /Gd /TP /FC C:\USERS\U1862679\ACGD\ASSIGNMENT\ENGINE\SOURCE\TIMERCLASS.CPP
^C:\USERS\U1862679\ACGD\ASSIGNMENT\ENGINE\SOURCE\DDSTEXTURELOADER.CPP
/c /Zi /nologo /W3 /WX- /diagnostics:column /Od /D WIN32 /D _DEBUG /D _WINDOWS /D _WIN32_WINNT=0x0600 /D _UNICODE /D UNICODE /Gm- /EHsc /RTC1 /MDd /GS /fp:precise /Zc:wchar_t /Zc:forScope /Zc:inline /std:c++17 /Fo"X64\DEBUG\\" /Fd"X64\DEBUG\VC142.PDB" /external:env:EXTERNAL_INCLUDE /external:W3 /Gd /TP /FC C:\USERS\U1862679\ACGD\ASSIGNMENT\ENGINE\SOURCE\DDSTEXTURELOADER.CPP
^C:\USERS\U1862679\ACGD\ASSIGNMENT\ENGINE\SOURCE\D3DCLASS.CPP
/c /Zi /nologo /W3 /WX- /diagnostics:column /Od /D WIN32 /D _DEBUG /D _WINDOWS /D _WIN32_WINNT=0x0600 /D _UNICODE /D UNICODE /Gm- /EHsc /RTC1 /MDd /GS /fp:precise /Zc:wchar_t /Zc:forScope /Zc:inline /std:c++17 /Yu"pch.h" /Fp"X64\DEBUG\ASSIGNMENT.PCH" /Fo"X64\DEBUG\\" /Fd"X64\DEBUG\VC142.PDB" /external:env:EXTERNAL_INCLUDE /external:W3 /Gd /TP /FC C:\USERS\U1862679\ACGD\ASSIGNMENT\ENGINE\SOURCE\D3DCLASS.CPP
^C:\USERS\U1862679\ACGD\ASSIGNMENT\ENGINE\SOURCE\ASPENRENDERER\CAMERA.CPP
/c /Zi /nologo /W3 /WX- /diagnostics:column /Od /D WIN32 /D _DEBUG /D _WINDOWS /D _WIN32_WINNT=0x0600 /D _UNICODE /D UNICODE /Gm- /EHsc /RTC1 /MDd /GS /fp:precise /Zc:wchar_t /Zc:forScope /Zc:inline /std:c++17 /Yu"pch.h" /Fp"X64\DEBUG\ASSIGNMENT.PCH" /Fo"X64\DEBUG\\" /Fd"X64\DEBUG\VC142.PDB" /external:env:EXTERNAL_INCLUDE /external:W3 /Gd /TP /FC C:\USERS\U1862679\ACGD\ASSIGNMENT\ENGINE\SOURCE\ASPENRENDERER\CAMERA.CPP
^C:\USERS\U1862679\ACGD\ASSIGNMENT\ENGINE\SOURCE\ASPENRENDERER\GAMEOBJECTS\GAMEOBJECTS.CPP
/c /Zi /nologo /W3 /WX- /diagnostics:column /Od /D WIN32 /D _DEBUG /D _WINDOWS /D _WIN32_WINNT=0x0600 /D _UNICODE /D UNICODE /Gm- /EHsc /RTC1 /MDd /GS /fp:precise /Zc:wchar_t /Zc:forScope /Zc:inline /std:c++17 /Yu"pch.h" /Fp"X64\DEBUG\ASSIGNMENT.PCH" /Fo"X64\DEBUG\\" /Fd"X64\DEBUG\VC142.PDB" /external:env:EXTERNAL_INCLUDE /external:W3 /Gd /TP /FC C:\USERS\U1862679\ACGD\ASSIGNMENT\ENGINE\SOURCE\ASPENRENDERER\GAMEOBJECTS\GAMEOBJECTS.CPP
^C:\USERS\U1862679\ACGD\ASSIGNMENT\ENGINE\SOURCE\ASPENRENDERER\GAMEOBJECTS\MIRRORGAMEOBJECT.CPP
/c /Zi /nologo /W3 /WX- /diagnostics:column /Od /D WIN32 /D _DEBUG /D _WINDOWS /D _WIN32_WINNT=0x0600 /D _UNICODE /D UNICODE /Gm- /EHsc /RTC1 /MDd /GS /fp:precise /Zc:wchar_t /Zc:forScope /Zc:inline /std:c++17 /Yu"pch.h" /Fp"X64\DEBUG\ASSIGNMENT.PCH" /Fo"X64\DEBUG\\" /Fd"X64\DEBUG\VC142.PDB" /external:env:EXTERNAL_INCLUDE /external:W3 /Gd /TP /FC C:\USERS\U1862679\ACGD\ASSIGNMENT\ENGINE\SOURCE\ASPENRENDERER\GAMEOBJECTS\MIRRORGAMEOBJECT.CPP
^C:\USERS\U1862679\ACGD\ASSIGNMENT\ENGINE\SOURCE\ASPENRENDERER\GAMEOBJECTS\MODELGAMEOBJECT.CPP
/c /Zi /nologo /W3 /WX- /diagnostics:column /Od /D WIN32 /D _DEBUG /D _WINDOWS /D _WIN32_WINNT=0x0600 /D _UNICODE /D UNICODE /Gm- /EHsc /RTC1 /MDd /GS /fp:precise /Zc:wchar_t /Zc:forScope /Zc:inline /std:c++17 /Yu"pch.h" /Fp"X64\DEBUG\ASSIGNMENT.PCH" /Fo"X64\DEBUG\\" /Fd"X64\DEBUG\VC142.PDB" /external:env:EXTERNAL_INCLUDE /external:W3 /Gd /TP /FC C:\USERS\U1862679\ACGD\ASSIGNMENT\ENGINE\SOURCE\ASPENRENDERER\GAMEOBJECTS\MODELGAMEOBJECT.CPP
^C:\USERS\U1862679\ACGD\ASSIGNMENT\ENGINE\SOURCE\ASPENRENDERER\GAMEOBJECTS\ROOTGAMEOBJECT.CPP
/c /Zi /nologo /W3 /WX- /diagnostics:column /Od /D WIN32 /D _DEBUG /D _WINDOWS /D _WIN32_WINNT=0x0600 /D _UNICODE /D UNICODE /Gm- /EHsc /RTC1 /MDd /GS /fp:precise /Zc:wchar_t /Zc:forScope /Zc:inline /std:c++17 /Yu"pch.h" /Fp"X64\DEBUG\ASSIGNMENT.PCH" /Fo"X64\DEBUG\\" /Fd"X64\DEBUG\VC142.PDB" /external:env:EXTERNAL_INCLUDE /external:W3 /Gd /TP /FC C:\USERS\U1862679\ACGD\ASSIGNMENT\ENGINE\SOURCE\ASPENRENDERER\GAMEOBJECTS\ROOTGAMEOBJECT.CPP
^C:\USERS\U1862679\ACGD\ASSIGNMENT\ENGINE\SOURCE\ASPENRENDERER\RENDERMANAGER.CPP
/c /Zi /nologo /W3 /WX- /diagnostics:column /Od /D WIN32 /D _DEBUG /D _WINDOWS /D _WIN32_WINNT=0x0600 /D _UNICODE /D UNICODE /Gm- /EHsc /RTC1 /MDd /GS /fp:precise /Zc:wchar_t /Zc:forScope /Zc:inline /std:c++17 /Yu"pch.h" /Fp"X64\DEBUG\ASSIGNMENT.PCH" /Fo"X64\DEBUG\\" /Fd"X64\DEBUG\VC142.PDB" /external:env:EXTERNAL_INCLUDE /external:W3 /Gd /TP /FC C:\USERS\U1862679\ACGD\ASSIGNMENT\ENGINE\SOURCE\ASPENRENDERER\RENDERMANAGER.CPP
^C:\USERS\U1862679\ACGD\ASSIGNMENT\ENGINE\SOURCE\CONTROLLERINTERFACE.CPP
/c /Zi /nologo /W3 /WX- /diagnostics:column /Od /D WIN32 /D _DEBUG /D _WINDOWS /D _WIN32_WINNT=0x0600 /D _UNICODE /D UNICODE /Gm- /EHsc /RTC1 /MDd /GS /fp:precise /Zc:wchar_t /Zc:forScope /Zc:inline /std:c++17 /Yu"pch.h" /Fp"X64\DEBUG\ASSIGNMENT.PCH" /Fo"X64\DEBUG\\" /Fd"X64\DEBUG\VC142.PDB" /external:env:EXTERNAL_INCLUDE /external:W3 /Gd /TP /FC C:\USERS\U1862679\ACGD\ASSIGNMENT\ENGINE\SOURCE\CONTROLLERINTERFACE.CPP
^C:\USERS\U1862679\ACGD\ASSIGNMENT\ENGINE\SOURCE\MAIN.CPP
/c /Zi /nologo /W3 /WX- /diagnostics:column /Od /D WIN32 /D _DEBUG /D _WINDOWS /D _WIN32_WINNT=0x0600 /D _UNICODE /D UNICODE /Gm- /EHsc /RTC1 /MDd /GS /fp:precise /Zc:wchar_t /Zc:forScope /Zc:inline /std:c++17 /Yu"pch.h" /Fp"X64\DEBUG\ASSIGNMENT.PCH" /Fo"X64\DEBUG\\" /Fd"X64\DEBUG\VC142.PDB" /external:env:EXTERNAL_INCLUDE /external:W3 /Gd /TP /FC C:\USERS\U1862679\ACGD\ASSIGNMENT\ENGINE\SOURCE\MAIN.CPP
^C:\USERS\U1862679\ACGD\ASSIGNMENT\ENGINE\SOURCE\SYSTEMCLASS.CPP
/c /Zi /nologo /W3 /WX- /diagnostics:column /Od /D WIN32 /D _DEBUG /D _WINDOWS /D _WIN32_WINNT=0x0600 /D _UNICODE /D UNICODE /Gm- /EHsc /RTC1 /MDd /GS /fp:precise /Zc:wchar_t /Zc:forScope /Zc:inline /std:c++17 /Yu"pch.h" /Fp"X64\DEBUG\ASSIGNMENT.PCH" /Fo"X64\DEBUG\\" /Fd"X64\DEBUG\VC142.PDB" /external:env:EXTERNAL_INCLUDE /external:W3 /Gd /TP /FC C:\USERS\U1862679\ACGD\ASSIGNMENT\ENGINE\SOURCE\SYSTEMCLASS.CPP
^C:\USERS\U1862679\ACGD\ASSIGNMENT\ENGINE\SOURCE\ASPENRENDERER\GAME.CPP
/c /Zi /nologo /W3 /WX- /diagnostics:column /Od /D WIN32 /D _DEBUG /D _WINDOWS /D _WIN32_WINNT=0x0600 /D _UNICODE /D UNICODE /Gm- /EHsc /RTC1 /MDd /GS /fp:precise /Zc:wchar_t /Zc:forScope /Zc:inline /std:c++17 /Yu"pch.h" /Fp"X64\DEBUG\ASSIGNMENT.PCH" /Fo"X64\DEBUG\\" /Fd"X64\DEBUG\VC142.PDB" /external:env:EXTERNAL_INCLUDE /external:W3 /Gd /TP /FC C:\USERS\U1862679\ACGD\ASSIGNMENT\ENGINE\SOURCE\ASPENRENDERER\GAME.CPP
^C:\USERS\U1862679\ACGD\ASSIGNMENT\ENGINE\SOURCE\WEBCAMINPUT.CPP
/c /Zi /nologo /W3 /WX- /diagnostics:column /Od /D WIN32 /D _DEBUG /D _WINDOWS /D _WIN32_WINNT=0x0600 /D _UNICODE /D UNICODE /Gm- /EHsc /RTC1 /MDd /GS /fp:precise /Zc:wchar_t /Zc:forScope /Zc:inline /std:c++17 /Yu"pch.h" /Fp"X64\DEBUG\ASSIGNMENT.PCH" /Fo"X64\DEBUG\\" /Fd"X64\DEBUG\VC142.PDB" /external:env:EXTERNAL_INCLUDE /external:W3 /Gd /TP /FC C:\USERS\U1862679\ACGD\ASSIGNMENT\ENGINE\SOURCE\WEBCAMINPUT.CPP
^C:\USERS\U1862679\ACGD\ASSIGNMENT\ENGINE\SOURCE\ASPENRENDERER\CONTROLLER.CPP
/c /Zi /nologo /W3 /WX- /diagnostics:column /Od /D WIN32 /D _DEBUG /D _WINDOWS /D _WIN32_WINNT=0x0600 /D _UNICODE /D UNICODE /Gm- /EHsc /RTC1 /MDd /GS /fp:precise /Zc:wchar_t /Zc:forScope /Zc:inline /std:c++17 /Yu"pch.h" /Fp"X64\DEBUG\ASSIGNMENT.PCH" /Fo"X64\DEBUG\\" /Fd"X64\DEBUG\VC142.PDB" /external:env:EXTERNAL_INCLUDE /external:W3 /Gd /TP /FC C:\USERS\U1862679\ACGD\ASSIGNMENT\ENGINE\SOURCE\ASPENRENDERER\CONTROLLER.CPP
