^C:\USERS\U1862679\ACGD\ASSIGNMENT\ENGINE\PCH.CPP
C:\WINDOWS\GLOBALIZATION\SORTING\SORTDEFAULT.NLS
C:\PROGRAM FILES (X86)\MICROSOFT VISUAL STUDIO\2019\ENTERPRISE\VC\TOOLS\MSVC\14.29.30037\BIN\HOSTX86\X64\1033\CLUI.DLL
C:\WINDOWS\SYSTEM32\TZRES.DLL
C:\USERS\U1862679\ACGD\ASSIGNMENT\ENGINE\PCH.H
C:\PROGRAM FILES (X86)\MICROSOFT VISUAL STUDIO\2019\ENTERPRISE\VC\TOOLS\MSVC\14.29.30037\INCLUDE\ALGORITHM
C:\PROGRAM FILES (X86)\MICROSOFT VISUAL STUDIO\2019\ENTERPRISE\VC\TOOLS\MSVC\14.29.30037\INCLUDE\YVALS_CORE.H
C:\PROGRAM FILES (X86)\MICROSOFT VISUAL STUDIO\2019\ENTERPRISE\VC\TOOLS\MSVC\14.29.30037\INCLUDE\VCRUNTIME.H
C:\PROGRAM FILES (X86)\MICROSOFT VISUAL STUDIO\2019\ENTERPRISE\VC\TOOLS\MSVC\14.29.30037\INCLUDE\SAL.H
C:\PROGRAM FILES (X86)\MICROSOFT VISUAL STUDIO\2019\ENTERPRISE\VC\TOOLS\MSVC\14.29.30037\INCLUDE\CONCURRENCYSAL.H
C:\PROGRAM FILES (X86)\MICROSOFT VISUAL STUDIO\2019\ENTERPRISE\VC\TOOLS\MSVC\14.29.30037\INCLUDE\VADEFS.H
C:\PROGRAM FILES (X86)\MICROSOFT VISUAL STUDIO\2019\ENTERPRISE\VC\TOOLS\MSVC\14.29.30037\INCLUDE\XKEYCHECK.H
C:\PROGRAM FILES (X86)\MICROSOFT VISUAL STUDIO\2019\ENTERPRISE\VC\TOOLS\MSVC\14.29.30037\INCLUDE\XMEMORY
C:\PROGRAM FILES (X86)\MICROSOFT VISUAL STUDIO\2019\ENTERPRISE\VC\TOOLS\MSVC\14.29.30037\INCLUDE\CSTDINT
C:\PROGRAM FILES (X86)\MICROSOFT VISUAL STUDIO\2019\ENTERPRISE\VC\TOOLS\MSVC\14.29.30037\INCLUDE\STDINT.H
C:\PROGRAM FILES (X86)\MICROSOFT VISUAL STUDIO\2019\ENTERPRISE\VC\TOOLS\MSVC\14.29.30037\INCLUDE\CSTDLIB
C:\PROGRAM FILES (X86)\WINDOWS KITS\10\INCLUDE\10.0.19041.0\UCRT\MATH.H
C:\PROGRAM FILES (X86)\WINDOWS KITS\10\INCLUDE\10.0.19041.0\UCRT\CORECRT_MATH.H
C:\PROGRAM FILES (X86)\WINDOWS KITS\10\INCLUDE\10.0.19041.0\UCRT\CORECRT.H
C:\PROGRAM FILES (X86)\WINDOWS KITS\10\INCLUDE\10.0.19041.0\UCRT\STDLIB.H
C:\PROGRAM FILES (X86)\WINDOWS KITS\10\INCLUDE\10.0.19041.0\UCRT\CORECRT_MALLOC.H
C:\PROGRAM FILES (X86)\WINDOWS KITS\10\INCLUDE\10.0.19041.0\UCRT\CORECRT_SEARCH.H
C:\PROGRAM FILES (X86)\WINDOWS KITS\10\INCLUDE\10.0.19041.0\UCRT\STDDEF.H
C:\PROGRAM FILES (X86)\WINDOWS KITS\10\INCLUDE\10.0.19041.0\UCRT\CORECRT_WSTDLIB.H
C:\PROGRAM FILES (X86)\MICROSOFT VISUAL STUDIO\2019\ENTERPRISE\VC\TOOLS\MSVC\14.29.30037\INCLUDE\LIMITS.H
C:\PROGRAM FILES (X86)\MICROSOFT VISUAL STUDIO\2019\ENTERPRISE\VC\TOOLS\MSVC\14.29.30037\INCLUDE\LIMITS
C:\PROGRAM FILES (X86)\MICROSOFT VISUAL STUDIO\2019\ENTERPRISE\VC\TOOLS\MSVC\14.29.30037\INCLUDE\CFLOAT
C:\PROGRAM FILES (X86)\WINDOWS KITS\10\INCLUDE\10.0.19041.0\UCRT\FLOAT.H
C:\PROGRAM FILES (X86)\MICROSOFT VISUAL STUDIO\2019\ENTERPRISE\VC\TOOLS\MSVC\14.29.30037\INCLUDE\CLIMITS
C:\PROGRAM FILES (X86)\MICROSOFT VISUAL STUDIO\2019\ENTERPRISE\VC\TOOLS\MSVC\14.29.30037\INCLUDE\CWCHAR
C:\PROGRAM FILES (X86)\MICROSOFT VISUAL STUDIO\2019\ENTERPRISE\VC\TOOLS\MSVC\14.29.30037\INCLUDE\CSTDIO
C:\PROGRAM FILES (X86)\WINDOWS KITS\10\INCLUDE\10.0.19041.0\UCRT\STDIO.H
C:\PROGRAM FILES (X86)\WINDOWS KITS\10\INCLUDE\10.0.19041.0\UCRT\CORECRT_WSTDIO.H
C:\PROGRAM FILES (X86)\WINDOWS KITS\10\INCLUDE\10.0.19041.0\UCRT\CORECRT_STDIO_CONFIG.H
C:\PROGRAM FILES (X86)\WINDOWS KITS\10\INCLUDE\10.0.19041.0\UCRT\WCHAR.H
C:\PROGRAM FILES (X86)\WINDOWS KITS\10\INCLUDE\10.0.19041.0\UCRT\CORECRT_MEMCPY_S.H
C:\PROGRAM FILES (X86)\WINDOWS KITS\10\INCLUDE\10.0.19041.0\UCRT\ERRNO.H
C:\PROGRAM FILES (X86)\MICROSOFT VISUAL STUDIO\2019\ENTERPRISE\VC\TOOLS\MSVC\14.29.30037\INCLUDE\VCRUNTIME_STRING.H
C:\PROGRAM FILES (X86)\WINDOWS KITS\10\INCLUDE\10.0.19041.0\UCRT\CORECRT_WCONIO.H
C:\PROGRAM FILES (X86)\WINDOWS KITS\10\INCLUDE\10.0.19041.0\UCRT\CORECRT_WCTYPE.H
C:\PROGRAM FILES (X86)\WINDOWS KITS\10\INCLUDE\10.0.19041.0\UCRT\CORECRT_WDIRECT.H
C:\PROGRAM FILES (X86)\WINDOWS KITS\10\INCLUDE\10.0.19041.0\UCRT\CORECRT_WIO.H
C:\PROGRAM FILES (X86)\WINDOWS KITS\10\INCLUDE\10.0.19041.0\UCRT\CORECRT_SHARE.H
C:\PROGRAM FILES (X86)\WINDOWS KITS\10\INCLUDE\10.0.19041.0\UCRT\CORECRT_WPROCESS.H
C:\PROGRAM FILES (X86)\WINDOWS KITS\10\INCLUDE\10.0.19041.0\UCRT\CORECRT_WSTRING.H
C:\PROGRAM FILES (X86)\WINDOWS KITS\10\INCLUDE\10.0.19041.0\UCRT\CORECRT_WTIME.H
C:\PROGRAM FILES (X86)\WINDOWS KITS\10\INCLUDE\10.0.19041.0\UCRT\SYS\STAT.H
C:\PROGRAM FILES (X86)\WINDOWS KITS\10\INCLUDE\10.0.19041.0\UCRT\SYS\TYPES.H
C:\PROGRAM FILES (X86)\MICROSOFT VISUAL STUDIO\2019\ENTERPRISE\VC\TOOLS\MSVC\14.29.30037\INCLUDE\INTRIN0.H
C:\PROGRAM FILES (X86)\MICROSOFT VISUAL STUDIO\2019\ENTERPRISE\VC\TOOLS\MSVC\14.29.30037\INCLUDE\ISA_AVAILABILITY.H
C:\PROGRAM FILES (X86)\MICROSOFT VISUAL STUDIO\2019\ENTERPRISE\VC\TOOLS\MSVC\14.29.30037\INCLUDE\XSTDDEF
C:\PROGRAM FILES (X86)\MICROSOFT VISUAL STUDIO\2019\ENTERPRISE\VC\TOOLS\MSVC\14.29.30037\INCLUDE\CSTDDEF
C:\PROGRAM FILES (X86)\MICROSOFT VISUAL STUDIO\2019\ENTERPRISE\VC\TOOLS\MSVC\14.29.30037\INCLUDE\XTR1COMMON
C:\PROGRAM FILES (X86)\MICROSOFT VISUAL STUDIO\2019\ENTERPRISE\VC\TOOLS\MSVC\14.29.30037\INCLUDE\INITIALIZER_LIST
C:\PROGRAM FILES (X86)\MICROSOFT VISUAL STUDIO\2019\ENTERPRISE\VC\TOOLS\MSVC\14.29.30037\INCLUDE\NEW
C:\PROGRAM FILES (X86)\MICROSOFT VISUAL STUDIO\2019\ENTERPRISE\VC\TOOLS\MSVC\14.29.30037\INCLUDE\EXCEPTION
C:\PROGRAM FILES (X86)\MICROSOFT VISUAL STUDIO\2019\ENTERPRISE\VC\TOOLS\MSVC\14.29.30037\INCLUDE\YVALS.H
C:\PROGRAM FILES (X86)\WINDOWS KITS\10\INCLUDE\10.0.19041.0\UCRT\CRTDBG.H
C:\PROGRAM FILES (X86)\MICROSOFT VISUAL STUDIO\2019\ENTERPRISE\VC\TOOLS\MSVC\14.29.30037\INCLUDE\VCRUNTIME_NEW_DEBUG.H
C:\PROGRAM FILES (X86)\MICROSOFT VISUAL STUDIO\2019\ENTERPRISE\VC\TOOLS\MSVC\14.29.30037\INCLUDE\VCRUNTIME_NEW.H
C:\PROGRAM FILES (X86)\MICROSOFT VISUAL STUDIO\2019\ENTERPRISE\VC\TOOLS\MSVC\14.29.30037\INCLUDE\CRTDEFS.H
C:\PROGRAM FILES (X86)\MICROSOFT VISUAL STUDIO\2019\ENTERPRISE\VC\TOOLS\MSVC\14.29.30037\INCLUDE\USE_ANSI.H
C:\PROGRAM FILES (X86)\MICROSOFT VISUAL STUDIO\2019\ENTERPRISE\VC\TOOLS\MSVC\14.29.30037\INCLUDE\TYPE_TRAITS
C:\PROGRAM FILES (X86)\WINDOWS KITS\10\INCLUDE\10.0.19041.0\UCRT\MALLOC.H
C:\PROGRAM FILES (X86)\MICROSOFT VISUAL STUDIO\2019\ENTERPRISE\VC\TOOLS\MSVC\14.29.30037\INCLUDE\VCRUNTIME_EXCEPTION.H
C:\PROGRAM FILES (X86)\MICROSOFT VISUAL STUDIO\2019\ENTERPRISE\VC\TOOLS\MSVC\14.29.30037\INCLUDE\EH.H
C:\PROGRAM FILES (X86)\WINDOWS KITS\10\INCLUDE\10.0.19041.0\UCRT\CORECRT_TERMINATE.H
C:\PROGRAM FILES (X86)\MICROSOFT VISUAL STUDIO\2019\ENTERPRISE\VC\TOOLS\MSVC\14.29.30037\INCLUDE\XATOMIC.H
C:\PROGRAM FILES (X86)\MICROSOFT VISUAL STUDIO\2019\ENTERPRISE\VC\TOOLS\MSVC\14.29.30037\INCLUDE\XUTILITY
C:\PROGRAM FILES (X86)\MICROSOFT VISUAL STUDIO\2019\ENTERPRISE\VC\TOOLS\MSVC\14.29.30037\INCLUDE\CSTRING
C:\PROGRAM FILES (X86)\WINDOWS KITS\10\INCLUDE\10.0.19041.0\UCRT\STRING.H
C:\PROGRAM FILES (X86)\WINDOWS KITS\10\INCLUDE\10.0.19041.0\UCRT\CORECRT_MEMORY.H
C:\PROGRAM FILES (X86)\MICROSOFT VISUAL STUDIO\2019\ENTERPRISE\VC\TOOLS\MSVC\14.29.30037\INCLUDE\UTILITY
C:\PROGRAM FILES (X86)\MICROSOFT VISUAL STUDIO\2019\ENTERPRISE\VC\TOOLS\MSVC\14.29.30037\INCLUDE\FSTREAM
C:\PROGRAM FILES (X86)\MICROSOFT VISUAL STUDIO\2019\ENTERPRISE\VC\TOOLS\MSVC\14.29.30037\INCLUDE\ISTREAM
C:\PROGRAM FILES (X86)\MICROSOFT VISUAL STUDIO\2019\ENTERPRISE\VC\TOOLS\MSVC\14.29.30037\INCLUDE\OSTREAM
C:\PROGRAM FILES (X86)\MICROSOFT VISUAL STUDIO\2019\ENTERPRISE\VC\TOOLS\MSVC\14.29.30037\INCLUDE\IOS
C:\PROGRAM FILES (X86)\MICROSOFT VISUAL STUDIO\2019\ENTERPRISE\VC\TOOLS\MSVC\14.29.30037\INCLUDE\XLOCNUM
C:\PROGRAM FILES (X86)\MICROSOFT VISUAL STUDIO\2019\ENTERPRISE\VC\TOOLS\MSVC\14.29.30037\INCLUDE\CMATH
C:\PROGRAM FILES (X86)\MICROSOFT VISUAL STUDIO\2019\ENTERPRISE\VC\TOOLS\MSVC\14.29.30037\INCLUDE\ITERATOR
C:\PROGRAM FILES (X86)\MICROSOFT VISUAL STUDIO\2019\ENTERPRISE\VC\TOOLS\MSVC\14.29.30037\INCLUDE\IOSFWD
C:\PROGRAM FILES (X86)\MICROSOFT VISUAL STUDIO\2019\ENTERPRISE\VC\TOOLS\MSVC\14.29.30037\INCLUDE\STREAMBUF
C:\PROGRAM FILES (X86)\MICROSOFT VISUAL STUDIO\2019\ENTERPRISE\VC\TOOLS\MSVC\14.29.30037\INCLUDE\XIOSBASE
C:\PROGRAM FILES (X86)\WINDOWS KITS\10\INCLUDE\10.0.19041.0\UCRT\SHARE.H
C:\PROGRAM FILES (X86)\MICROSOFT VISUAL STUDIO\2019\ENTERPRISE\VC\TOOLS\MSVC\14.29.30037\INCLUDE\SYSTEM_ERROR
C:\PROGRAM FILES (X86)\MICROSOFT VISUAL STUDIO\2019\ENTERPRISE\VC\TOOLS\MSVC\14.29.30037\INCLUDE\__MSVC_SYSTEM_ERROR_ABI.HPP
C:\PROGRAM FILES (X86)\MICROSOFT VISUAL STUDIO\2019\ENTERPRISE\VC\TOOLS\MSVC\14.29.30037\INCLUDE\CERRNO
C:\PROGRAM FILES (X86)\MICROSOFT VISUAL STUDIO\2019\ENTERPRISE\VC\TOOLS\MSVC\14.29.30037\INCLUDE\STDEXCEPT
C:\PROGRAM FILES (X86)\MICROSOFT VISUAL STUDIO\2019\ENTERPRISE\VC\TOOLS\MSVC\14.29.30037\INCLUDE\XSTRING
C:\PROGRAM FILES (X86)\MICROSOFT VISUAL STUDIO\2019\ENTERPRISE\VC\TOOLS\MSVC\14.29.30037\INCLUDE\XPOLYMORPHIC_ALLOCATOR.H
C:\PROGRAM FILES (X86)\MICROSOFT VISUAL STUDIO\2019\ENTERPRISE\VC\TOOLS\MSVC\14.29.30037\INCLUDE\TUPLE
C:\PROGRAM FILES (X86)\MICROSOFT VISUAL STUDIO\2019\ENTERPRISE\VC\TOOLS\MSVC\14.29.30037\INCLUDE\XCALL_ONCE.H
C:\PROGRAM FILES (X86)\MICROSOFT VISUAL STUDIO\2019\ENTERPRISE\VC\TOOLS\MSVC\14.29.30037\INCLUDE\XERRC.H
C:\PROGRAM FILES (X86)\MICROSOFT VISUAL STUDIO\2019\ENTERPRISE\VC\TOOLS\MSVC\14.29.30037\INCLUDE\ATOMIC
C:\PROGRAM FILES (X86)\MICROSOFT VISUAL STUDIO\2019\ENTERPRISE\VC\TOOLS\MSVC\14.29.30037\INCLUDE\XTHREADS.H
C:\PROGRAM FILES (X86)\MICROSOFT VISUAL STUDIO\2019\ENTERPRISE\VC\TOOLS\MSVC\14.29.30037\INCLUDE\XTIMEC.H
C:\PROGRAM FILES (X86)\MICROSOFT VISUAL STUDIO\2019\ENTERPRISE\VC\TOOLS\MSVC\14.29.30037\INCLUDE\CTIME
C:\PROGRAM FILES (X86)\WINDOWS KITS\10\INCLUDE\10.0.19041.0\UCRT\TIME.H
C:\PROGRAM FILES (X86)\MICROSOFT VISUAL STUDIO\2019\ENTERPRISE\VC\TOOLS\MSVC\14.29.30037\INCLUDE\XLOCALE
C:\PROGRAM FILES (X86)\MICROSOFT VISUAL STUDIO\2019\ENTERPRISE\VC\TOOLS\MSVC\14.29.30037\INCLUDE\MEMORY
C:\PROGRAM FILES (X86)\MICROSOFT VISUAL STUDIO\2019\ENTERPRISE\VC\TOOLS\MSVC\14.29.30037\INCLUDE\TYPEINFO
C:\PROGRAM FILES (X86)\MICROSOFT VISUAL STUDIO\2019\ENTERPRISE\VC\TOOLS\MSVC\14.29.30037\INCLUDE\VCRUNTIME_TYPEINFO.H
C:\PROGRAM FILES (X86)\MICROSOFT VISUAL STUDIO\2019\ENTERPRISE\VC\TOOLS\MSVC\14.29.30037\INCLUDE\XFACET
C:\PROGRAM FILES (X86)\MICROSOFT VISUAL STUDIO\2019\ENTERPRISE\VC\TOOLS\MSVC\14.29.30037\INCLUDE\XLOCINFO
C:\PROGRAM FILES (X86)\MICROSOFT VISUAL STUDIO\2019\ENTERPRISE\VC\TOOLS\MSVC\14.29.30037\INCLUDE\XLOCINFO.H
C:\PROGRAM FILES (X86)\MICROSOFT VISUAL STUDIO\2019\ENTERPRISE\VC\TOOLS\MSVC\14.29.30037\INCLUDE\CCTYPE
C:\PROGRAM FILES (X86)\WINDOWS KITS\10\INCLUDE\10.0.19041.0\UCRT\CTYPE.H
C:\PROGRAM FILES (X86)\MICROSOFT VISUAL STUDIO\2019\ENTERPRISE\VC\TOOLS\MSVC\14.29.30037\INCLUDE\CLOCALE
C:\PROGRAM FILES (X86)\WINDOWS KITS\10\INCLUDE\10.0.19041.0\UCRT\LOCALE.H
C:\PROGRAM FILES (X86)\MICROSOFT VISUAL STUDIO\2019\ENTERPRISE\VC\TOOLS\MSVC\14.29.30037\INCLUDE\LIST
C:\PROGRAM FILES (X86)\MICROSOFT VISUAL STUDIO\2019\ENTERPRISE\VC\TOOLS\MSVC\14.29.30037\INCLUDE\MUTEX
C:\PROGRAM FILES (X86)\MICROSOFT VISUAL STUDIO\2019\ENTERPRISE\VC\TOOLS\MSVC\14.29.30037\INCLUDE\CHRONO
C:\PROGRAM FILES (X86)\MICROSOFT VISUAL STUDIO\2019\ENTERPRISE\VC\TOOLS\MSVC\14.29.30037\INCLUDE\RATIO
C:\PROGRAM FILES (X86)\MICROSOFT VISUAL STUDIO\2019\ENTERPRISE\VC\TOOLS\MSVC\14.29.30037\INCLUDE\THREAD
C:\PROGRAM FILES (X86)\WINDOWS KITS\10\INCLUDE\10.0.19041.0\UCRT\PROCESS.H
C:\PROGRAM FILES (X86)\WINDOWS KITS\10\INCLUDE\10.0.19041.0\UCRT\CORECRT_STARTUP.H
C:\PROGRAM FILES (X86)\MICROSOFT VISUAL STUDIO\2019\ENTERPRISE\VC\TOOLS\MSVC\14.29.30037\INCLUDE\VCRUNTIME_STARTUP.H
C:\PROGRAM FILES (X86)\MICROSOFT VISUAL STUDIO\2019\ENTERPRISE\VC\TOOLS\MSVC\14.29.30037\INCLUDE\STRING
C:\PROGRAM FILES (X86)\MICROSOFT VISUAL STUDIO\2019\ENTERPRISE\VC\TOOLS\MSVC\14.29.30037\INCLUDE\VECTOR
C:\PROGRAM FILES (X86)\WINDOWS KITS\10\INCLUDE\10.0.19041.0\UM\D3D11.H
C:\PROGRAM FILES (X86)\WINDOWS KITS\10\INCLUDE\10.0.19041.0\SHARED\RPC.H
C:\PROGRAM FILES (X86)\WINDOWS KITS\10\INCLUDE\10.0.19041.0\UM\WINDOWS.H
C:\PROGRAM FILES (X86)\WINDOWS KITS\10\INCLUDE\10.0.19041.0\SHARED\WINAPIFAMILY.H
C:\PROGRAM FILES (X86)\WINDOWS KITS\10\INCLUDE\10.0.19041.0\SHARED\WINPACKAGEFAMILY.H
C:\PROGRAM FILES (X86)\WINDOWS KITS\10\INCLUDE\10.0.19041.0\SHARED\SDKDDKVER.H
C:\PROGRAM FILES (X86)\MICROSOFT VISUAL STUDIO\2019\ENTERPRISE\VC\TOOLS\MSVC\14.29.30037\INCLUDE\EXCPT.H
C:\PROGRAM FILES (X86)\MICROSOFT VISUAL STUDIO\2019\ENTERPRISE\VC\TOOLS\MSVC\14.29.30037\INCLUDE\STDARG.H
C:\PROGRAM FILES (X86)\WINDOWS KITS\10\INCLUDE\10.0.19041.0\SHARED\WINDEF.H
C:\PROGRAM FILES (X86)\WINDOWS KITS\10\INCLUDE\10.0.19041.0\SHARED\MINWINDEF.H
C:\PROGRAM FILES (X86)\WINDOWS KITS\10\INCLUDE\10.0.19041.0\SHARED\SPECSTRINGS.H
C:\PROGRAM FILES (X86)\WINDOWS KITS\10\INCLUDE\10.0.19041.0\SHARED\SPECSTRINGS_STRICT.H
C:\PROGRAM FILES (X86)\WINDOWS KITS\10\INCLUDE\10.0.19041.0\SHARED\SPECSTRINGS_UNDEF.H
C:\PROGRAM FILES (X86)\WINDOWS KITS\10\INCLUDE\10.0.19041.0\SHARED\DRIVERSPECS.H
C:\PROGRAM FILES (X86)\WINDOWS KITS\10\INCLUDE\10.0.19041.0\SHARED\SDV_DRIVERSPECS.H
C:\PROGRAM FILES (X86)\WINDOWS KITS\10\INCLUDE\10.0.19041.0\UM\WINNT.H
C:\PROGRAM FILES (X86)\WINDOWS KITS\10\INCLUDE\10.0.19041.0\SHARED\KERNELSPECS.H
C:\PROGRAM FILES (X86)\WINDOWS KITS\10\INCLUDE\10.0.19041.0\SHARED\BASETSD.H
C:\PROGRAM FILES (X86)\WINDOWS KITS\10\INCLUDE\10.0.19041.0\SHARED\GUIDDEF.H
C:\PROGRAM FILES (X86)\WINDOWS KITS\10\INCLUDE\10.0.19041.0\SHARED\PSHPACK4.H
C:\PROGRAM FILES (X86)\WINDOWS KITS\10\INCLUDE\10.0.19041.0\SHARED\POPPACK.H
C:\PROGRAM FILES (X86)\WINDOWS KITS\10\INCLUDE\10.0.19041.0\SHARED\PSHPACK2.H
C:\PROGRAM FILES (X86)\WINDOWS KITS\10\INCLUDE\10.0.19041.0\SHARED\PSHPACK8.H
C:\PROGRAM FILES (X86)\WINDOWS KITS\10\INCLUDE\10.0.19041.0\SHARED\PSHPACK1.H
C:\PROGRAM FILES (X86)\WINDOWS KITS\10\INCLUDE\10.0.19041.0\SHARED\APISET.H
C:\PROGRAM FILES (X86)\WINDOWS KITS\10\INCLUDE\10.0.19041.0\SHARED\KTMTYPES.H
C:\PROGRAM FILES (X86)\WINDOWS KITS\10\INCLUDE\10.0.19041.0\UM\WINBASE.H
C:\PROGRAM FILES (X86)\WINDOWS KITS\10\INCLUDE\10.0.19041.0\SHARED\APISETCCONV.H
C:\PROGRAM FILES (X86)\WINDOWS KITS\10\INCLUDE\10.0.19041.0\UM\MINWINBASE.H
C:\PROGRAM FILES (X86)\WINDOWS KITS\10\INCLUDE\10.0.19041.0\UM\APIQUERY2.H
C:\PROGRAM FILES (X86)\WINDOWS KITS\10\INCLUDE\10.0.19041.0\UM\PROCESSENV.H
C:\PROGRAM FILES (X86)\WINDOWS KITS\10\INCLUDE\10.0.19041.0\UM\FILEAPIFROMAPP.H
C:\PROGRAM FILES (X86)\WINDOWS KITS\10\INCLUDE\10.0.19041.0\UM\FILEAPI.H
C:\PROGRAM FILES (X86)\WINDOWS KITS\10\INCLUDE\10.0.19041.0\UM\DEBUGAPI.H
C:\PROGRAM FILES (X86)\WINDOWS KITS\10\INCLUDE\10.0.19041.0\UM\UTILAPISET.H
C:\PROGRAM FILES (X86)\WINDOWS KITS\10\INCLUDE\10.0.19041.0\UM\HANDLEAPI.H
C:\PROGRAM FILES (X86)\WINDOWS KITS\10\INCLUDE\10.0.19041.0\UM\ERRHANDLINGAPI.H
C:\PROGRAM FILES (X86)\WINDOWS KITS\10\INCLUDE\10.0.19041.0\UM\FIBERSAPI.H
C:\PROGRAM FILES (X86)\WINDOWS KITS\10\INCLUDE\10.0.19041.0\UM\NAMEDPIPEAPI.H
C:\PROGRAM FILES (X86)\WINDOWS KITS\10\INCLUDE\10.0.19041.0\UM\PROFILEAPI.H
C:\PROGRAM FILES (X86)\WINDOWS KITS\10\INCLUDE\10.0.19041.0\UM\HEAPAPI.H
C:\PROGRAM FILES (X86)\WINDOWS KITS\10\INCLUDE\10.0.19041.0\UM\IOAPISET.H
C:\PROGRAM FILES (X86)\WINDOWS KITS\10\INCLUDE\10.0.19041.0\UM\SYNCHAPI.H
C:\PROGRAM FILES (X86)\WINDOWS KITS\10\INCLUDE\10.0.19041.0\UM\INTERLOCKEDAPI.H
C:\PROGRAM FILES (X86)\WINDOWS KITS\10\INCLUDE\10.0.19041.0\UM\PROCESSTHREADSAPI.H
C:\PROGRAM FILES (X86)\WINDOWS KITS\10\INCLUDE\10.0.19041.0\UM\SYSINFOAPI.H
C:\PROGRAM FILES (X86)\WINDOWS KITS\10\INCLUDE\10.0.19041.0\UM\MEMORYAPI.H
C:\PROGRAM FILES (X86)\WINDOWS KITS\10\INCLUDE\10.0.19041.0\UM\ENCLAVEAPI.H
C:\PROGRAM FILES (X86)\WINDOWS KITS\10\INCLUDE\10.0.19041.0\UM\THREADPOOLLEGACYAPISET.H
C:\PROGRAM FILES (X86)\WINDOWS KITS\10\INCLUDE\10.0.19041.0\UM\THREADPOOLAPISET.H
C:\PROGRAM FILES (X86)\WINDOWS KITS\10\INCLUDE\10.0.19041.0\UM\JOBAPI.H
C:\PROGRAM FILES (X86)\WINDOWS KITS\10\INCLUDE\10.0.19041.0\UM\JOBAPI2.H
C:\PROGRAM FILES (X86)\WINDOWS KITS\10\INCLUDE\10.0.19041.0\UM\WOW64APISET.H
C:\PROGRAM FILES (X86)\WINDOWS KITS\10\INCLUDE\10.0.19041.0\UM\LIBLOADERAPI.H
C:\PROGRAM FILES (X86)\WINDOWS KITS\10\INCLUDE\10.0.19041.0\UM\SECURITYBASEAPI.H
C:\PROGRAM FILES (X86)\WINDOWS KITS\10\INCLUDE\10.0.19041.0\UM\NAMESPACEAPI.H
C:\PROGRAM FILES (X86)\WINDOWS KITS\10\INCLUDE\10.0.19041.0\UM\SYSTEMTOPOLOGYAPI.H
C:\PROGRAM FILES (X86)\WINDOWS KITS\10\INCLUDE\10.0.19041.0\UM\PROCESSTOPOLOGYAPI.H
C:\PROGRAM FILES (X86)\WINDOWS KITS\10\INCLUDE\10.0.19041.0\UM\SECURITYAPPCONTAINER.H
C:\PROGRAM FILES (X86)\WINDOWS KITS\10\INCLUDE\10.0.19041.0\UM\REALTIMEAPISET.H
C:\PROGRAM FILES (X86)\WINDOWS KITS\10\INCLUDE\10.0.19041.0\SHARED\WINERROR.H
C:\PROGRAM FILES (X86)\WINDOWS KITS\10\INCLUDE\10.0.19041.0\UM\TIMEZONEAPI.H
C:\PROGRAM FILES (X86)\WINDOWS KITS\10\INCLUDE\10.0.19041.0\UM\WINGDI.H
C:\PROGRAM FILES (X86)\WINDOWS KITS\10\INCLUDE\10.0.19041.0\UM\WINUSER.H
C:\PROGRAM FILES (X86)\WINDOWS KITS\10\INCLUDE\10.0.19041.0\SHARED\TVOUT.H
C:\PROGRAM FILES (X86)\WINDOWS KITS\10\INCLUDE\10.0.19041.0\UM\WINNLS.H
C:\PROGRAM FILES (X86)\WINDOWS KITS\10\INCLUDE\10.0.19041.0\UM\DATETIMEAPI.H
C:\PROGRAM FILES (X86)\WINDOWS KITS\10\INCLUDE\10.0.19041.0\UM\STRINGAPISET.H
C:\PROGRAM FILES (X86)\WINDOWS KITS\10\INCLUDE\10.0.19041.0\UM\WINCON.H
C:\PROGRAM FILES (X86)\WINDOWS KITS\10\INCLUDE\10.0.19041.0\UM\WINCONTYPES.H
C:\PROGRAM FILES (X86)\WINDOWS KITS\10\INCLUDE\10.0.19041.0\UM\CONSOLEAPI.H
C:\PROGRAM FILES (X86)\WINDOWS KITS\10\INCLUDE\10.0.19041.0\UM\CONSOLEAPI2.H
C:\PROGRAM FILES (X86)\WINDOWS KITS\10\INCLUDE\10.0.19041.0\UM\CONSOLEAPI3.H
C:\PROGRAM FILES (X86)\WINDOWS KITS\10\INCLUDE\10.0.19041.0\UM\WINVER.H
C:\PROGRAM FILES (X86)\WINDOWS KITS\10\INCLUDE\10.0.19041.0\UM\VERRSRC.H
C:\PROGRAM FILES (X86)\WINDOWS KITS\10\INCLUDE\10.0.19041.0\UM\WINREG.H
C:\PROGRAM FILES (X86)\WINDOWS KITS\10\INCLUDE\10.0.19041.0\UM\REASON.H
C:\PROGRAM FILES (X86)\WINDOWS KITS\10\INCLUDE\10.0.19041.0\UM\WINNETWK.H
C:\PROGRAM FILES (X86)\WINDOWS KITS\10\INCLUDE\10.0.19041.0\SHARED\WNNC.H
C:\PROGRAM FILES (X86)\WINDOWS KITS\10\INCLUDE\10.0.19041.0\SHARED\CDERR.H
C:\PROGRAM FILES (X86)\WINDOWS KITS\10\INCLUDE\10.0.19041.0\UM\DDE.H
C:\PROGRAM FILES (X86)\WINDOWS KITS\10\INCLUDE\10.0.19041.0\UM\DDEML.H
C:\PROGRAM FILES (X86)\WINDOWS KITS\10\INCLUDE\10.0.19041.0\UM\DLGS.H
C:\PROGRAM FILES (X86)\WINDOWS KITS\10\INCLUDE\10.0.19041.0\UM\LZEXPAND.H
C:\PROGRAM FILES (X86)\WINDOWS KITS\10\INCLUDE\10.0.19041.0\UM\MMSYSTEM.H
C:\PROGRAM FILES (X86)\WINDOWS KITS\10\INCLUDE\10.0.19041.0\UM\MMSYSCOM.H
C:\PROGRAM FILES (X86)\WINDOWS KITS\10\INCLUDE\10.0.19041.0\UM\MCIAPI.H
C:\PROGRAM FILES (X86)\WINDOWS KITS\10\INCLUDE\10.0.19041.0\UM\MMISCAPI.H
C:\PROGRAM FILES (X86)\WINDOWS KITS\10\INCLUDE\10.0.19041.0\UM\MMISCAPI2.H
C:\PROGRAM FILES (X86)\WINDOWS KITS\10\INCLUDE\10.0.19041.0\UM\PLAYSOUNDAPI.H
C:\PROGRAM FILES (X86)\WINDOWS KITS\10\INCLUDE\10.0.19041.0\UM\MMEAPI.H
C:\PROGRAM FILES (X86)\WINDOWS KITS\10\INCLUDE\10.0.19041.0\UM\TIMEAPI.H
C:\PROGRAM FILES (X86)\WINDOWS KITS\10\INCLUDE\10.0.19041.0\UM\JOYSTICKAPI.H
C:\PROGRAM FILES (X86)\WINDOWS KITS\10\INCLUDE\10.0.19041.0\UM\NB30.H
C:\PROGRAM FILES (X86)\WINDOWS KITS\10\INCLUDE\10.0.19041.0\SHARED\RPCDCE.H
C:\PROGRAM FILES (X86)\WINDOWS KITS\10\INCLUDE\10.0.19041.0\SHARED\RPCDCEP.H
C:\PROGRAM FILES (X86)\WINDOWS KITS\10\INCLUDE\10.0.19041.0\UM\RPCNSI.H
C:\PROGRAM FILES (X86)\WINDOWS KITS\10\INCLUDE\10.0.19041.0\SHARED\RPCNTERR.H
C:\PROGRAM FILES (X86)\WINDOWS KITS\10\INCLUDE\10.0.19041.0\SHARED\RPCASYNC.H
C:\PROGRAM FILES (X86)\WINDOWS KITS\10\INCLUDE\10.0.19041.0\UM\SHELLAPI.H
C:\PROGRAM FILES (X86)\WINDOWS KITS\10\INCLUDE\10.0.19041.0\UM\WINPERF.H
C:\PROGRAM FILES (X86)\WINDOWS KITS\10\INCLUDE\10.0.19041.0\UM\WINSOCK.H
C:\PROGRAM FILES (X86)\WINDOWS KITS\10\INCLUDE\10.0.19041.0\SHARED\INADDR.H
C:\PROGRAM FILES (X86)\WINDOWS KITS\10\INCLUDE\10.0.19041.0\UM\WINCRYPT.H
C:\PROGRAM FILES (X86)\WINDOWS KITS\10\INCLUDE\10.0.19041.0\SHARED\BCRYPT.H
C:\PROGRAM FILES (X86)\WINDOWS KITS\10\INCLUDE\10.0.19041.0\UM\NCRYPT.H
C:\PROGRAM FILES (X86)\WINDOWS KITS\10\INCLUDE\10.0.19041.0\UM\DPAPI.H
C:\PROGRAM FILES (X86)\WINDOWS KITS\10\INCLUDE\10.0.19041.0\UM\WINEFS.H
C:\PROGRAM FILES (X86)\WINDOWS KITS\10\INCLUDE\10.0.19041.0\UM\WINSCARD.H
C:\PROGRAM FILES (X86)\WINDOWS KITS\10\INCLUDE\10.0.19041.0\SHARED\WTYPES.H
C:\PROGRAM FILES (X86)\WINDOWS KITS\10\INCLUDE\10.0.19041.0\SHARED\RPCNDR.H
C:\PROGRAM FILES (X86)\WINDOWS KITS\10\INCLUDE\10.0.19041.0\UM\RPCNSIP.H
C:\PROGRAM FILES (X86)\WINDOWS KITS\10\INCLUDE\10.0.19041.0\SHARED\RPCSAL.H
C:\PROGRAM FILES (X86)\WINDOWS KITS\10\INCLUDE\10.0.19041.0\SHARED\WTYPESBASE.H
C:\PROGRAM FILES (X86)\WINDOWS KITS\10\INCLUDE\10.0.19041.0\UM\WINIOCTL.H
C:\PROGRAM FILES (X86)\WINDOWS KITS\10\INCLUDE\10.0.19041.0\SHARED\WINSMCRD.H
C:\PROGRAM FILES (X86)\WINDOWS KITS\10\INCLUDE\10.0.19041.0\UM\WINSPOOL.H
C:\PROGRAM FILES (X86)\WINDOWS KITS\10\INCLUDE\10.0.19041.0\UM\PRSHT.H
C:\PROGRAM FILES (X86)\WINDOWS KITS\10\INCLUDE\10.0.19041.0\UM\OLE2.H
C:\PROGRAM FILES (X86)\WINDOWS KITS\10\INCLUDE\10.0.19041.0\UM\OBJBASE.H
C:\PROGRAM FILES (X86)\WINDOWS KITS\10\INCLUDE\10.0.19041.0\UM\COMBASEAPI.H
C:\PROGRAM FILES (X86)\WINDOWS KITS\10\INCLUDE\10.0.19041.0\UM\UNKNWNBASE.H
C:\PROGRAM FILES (X86)\WINDOWS KITS\10\INCLUDE\10.0.19041.0\UM\OBJIDLBASE.H
C:\PROGRAM FILES (X86)\WINDOWS KITS\10\INCLUDE\10.0.19041.0\UM\CGUID.H
C:\PROGRAM FILES (X86)\WINDOWS KITS\10\INCLUDE\10.0.19041.0\UM\COML2API.H
C:\PROGRAM FILES (X86)\WINDOWS KITS\10\INCLUDE\10.0.19041.0\UM\OBJIDL.H
C:\PROGRAM FILES (X86)\WINDOWS KITS\10\INCLUDE\10.0.19041.0\UM\UNKNWN.H
C:\PROGRAM FILES (X86)\WINDOWS KITS\10\INCLUDE\10.0.19041.0\UM\PROPIDLBASE.H
C:\PROGRAM FILES (X86)\WINDOWS KITS\10\INCLUDE\10.0.19041.0\UM\OAIDL.H
C:\PROGRAM FILES (X86)\WINDOWS KITS\10\INCLUDE\10.0.19041.0\UM\URLMON.H
C:\PROGRAM FILES (X86)\WINDOWS KITS\10\INCLUDE\10.0.19041.0\UM\OLEIDL.H
C:\PROGRAM FILES (X86)\WINDOWS KITS\10\INCLUDE\10.0.19041.0\UM\SERVPROV.H
C:\PROGRAM FILES (X86)\WINDOWS KITS\10\INCLUDE\10.0.19041.0\UM\MSXML.H
C:\PROGRAM FILES (X86)\WINDOWS KITS\10\INCLUDE\10.0.19041.0\UM\PROPIDL.H
C:\PROGRAM FILES (X86)\WINDOWS KITS\10\INCLUDE\10.0.19041.0\UM\OLEAUTO.H
C:\PROGRAM FILES (X86)\WINDOWS KITS\10\INCLUDE\10.0.19041.0\UM\COMMDLG.H
C:\PROGRAM FILES (X86)\WINDOWS KITS\10\INCLUDE\10.0.19041.0\SHARED\STRALIGN.H
C:\PROGRAM FILES (X86)\WINDOWS KITS\10\INCLUDE\10.0.19041.0\UM\WINSVC.H
C:\PROGRAM FILES (X86)\WINDOWS KITS\10\INCLUDE\10.0.19041.0\UM\MCX.H
C:\PROGRAM FILES (X86)\WINDOWS KITS\10\INCLUDE\10.0.19041.0\UM\IMM.H
C:\PROGRAM FILES (X86)\WINDOWS KITS\10\INCLUDE\10.0.19041.0\UM\IME_CMODES.H
C:\PROGRAM FILES (X86)\WINDOWS KITS\10\INCLUDE\10.0.19041.0\UM\OCIDL.H
C:\PROGRAM FILES (X86)\WINDOWS KITS\10\INCLUDE\10.0.19041.0\SHARED\DXGI.H
C:\PROGRAM FILES (X86)\WINDOWS KITS\10\INCLUDE\10.0.19041.0\SHARED\DXGICOMMON.H
C:\PROGRAM FILES (X86)\WINDOWS KITS\10\INCLUDE\10.0.19041.0\SHARED\DXGITYPE.H
C:\PROGRAM FILES (X86)\WINDOWS KITS\10\INCLUDE\10.0.19041.0\SHARED\DXGIFORMAT.H
C:\PROGRAM FILES (X86)\WINDOWS KITS\10\INCLUDE\10.0.19041.0\UM\D3DCOMMON.H
C:\PROGRAM FILES (X86)\WINDOWS KITS\10\INCLUDE\10.0.19041.0\UM\D3D11SDKLAYERS.H
C:\PROGRAM FILES (X86)\WINDOWS KITS\10\INCLUDE\10.0.19041.0\UM\D3D10_1.H
C:\PROGRAM FILES (X86)\WINDOWS KITS\10\INCLUDE\10.0.19041.0\UM\D3D10.H
C:\PROGRAM FILES (X86)\WINDOWS KITS\10\INCLUDE\10.0.19041.0\UM\D3D10SDKLAYERS.H
C:\PROGRAM FILES (X86)\WINDOWS KITS\10\INCLUDE\10.0.19041.0\UM\D3D10MISC.H
C:\PROGRAM FILES (X86)\WINDOWS KITS\10\INCLUDE\10.0.19041.0\UM\D3D10SHADER.H
C:\PROGRAM FILES (X86)\WINDOWS KITS\10\INCLUDE\10.0.19041.0\UM\D3D10EFFECT.H
C:\PROGRAM FILES (X86)\WINDOWS KITS\10\INCLUDE\10.0.19041.0\UM\D3D10_1SHADER.H
C:\PROGRAM FILES (X86)\WINDOWS KITS\10\INCLUDE\10.0.19041.0\UM\DIRECTXMATH.H
C:\PROGRAM FILES (X86)\MICROSOFT VISUAL STUDIO\2019\ENTERPRISE\VC\TOOLS\MSVC\14.29.30037\INCLUDE\INTRIN.H
C:\PROGRAM FILES (X86)\MICROSOFT VISUAL STUDIO\2019\ENTERPRISE\VC\TOOLS\MSVC\14.29.30037\INCLUDE\SETJMP.H
C:\PROGRAM FILES (X86)\MICROSOFT VISUAL STUDIO\2019\ENTERPRISE\VC\TOOLS\MSVC\14.29.30037\INCLUDE\IMMINTRIN.H
C:\PROGRAM FILES (X86)\MICROSOFT VISUAL STUDIO\2019\ENTERPRISE\VC\TOOLS\MSVC\14.29.30037\INCLUDE\WMMINTRIN.H
C:\PROGRAM FILES (X86)\MICROSOFT VISUAL STUDIO\2019\ENTERPRISE\VC\TOOLS\MSVC\14.29.30037\INCLUDE\NMMINTRIN.H
C:\PROGRAM FILES (X86)\MICROSOFT VISUAL STUDIO\2019\ENTERPRISE\VC\TOOLS\MSVC\14.29.30037\INCLUDE\SMMINTRIN.H
C:\PROGRAM FILES (X86)\MICROSOFT VISUAL STUDIO\2019\ENTERPRISE\VC\TOOLS\MSVC\14.29.30037\INCLUDE\TMMINTRIN.H
C:\PROGRAM FILES (X86)\MICROSOFT VISUAL STUDIO\2019\ENTERPRISE\VC\TOOLS\MSVC\14.29.30037\INCLUDE\PMMINTRIN.H
C:\PROGRAM FILES (X86)\MICROSOFT VISUAL STUDIO\2019\ENTERPRISE\VC\TOOLS\MSVC\14.29.30037\INCLUDE\EMMINTRIN.H
C:\PROGRAM FILES (X86)\MICROSOFT VISUAL STUDIO\2019\ENTERPRISE\VC\TOOLS\MSVC\14.29.30037\INCLUDE\XMMINTRIN.H
C:\PROGRAM FILES (X86)\MICROSOFT VISUAL STUDIO\2019\ENTERPRISE\VC\TOOLS\MSVC\14.29.30037\INCLUDE\MMINTRIN.H
C:\PROGRAM FILES (X86)\MICROSOFT VISUAL STUDIO\2019\ENTERPRISE\VC\TOOLS\MSVC\14.29.30037\INCLUDE\ZMMINTRIN.H
C:\PROGRAM FILES (X86)\MICROSOFT VISUAL STUDIO\2019\ENTERPRISE\VC\TOOLS\MSVC\14.29.30037\INCLUDE\AMMINTRIN.H
C:\PROGRAM FILES (X86)\WINDOWS KITS\10\INCLUDE\10.0.19041.0\UCRT\ASSERT.H
C:\PROGRAM FILES (X86)\WINDOWS KITS\10\INCLUDE\10.0.19041.0\UM\DIRECTXMATHCONVERT.INL
C:\PROGRAM FILES (X86)\WINDOWS KITS\10\INCLUDE\10.0.19041.0\UM\DIRECTXMATHVECTOR.INL
C:\PROGRAM FILES (X86)\WINDOWS KITS\10\INCLUDE\10.0.19041.0\UM\DIRECTXMATHMATRIX.INL
C:\PROGRAM FILES (X86)\WINDOWS KITS\10\INCLUDE\10.0.19041.0\UM\DIRECTXMATHMISC.INL
C:\OPENCV\BUILD\INCLUDE\OPENCV2\CORE.HPP
C:\OPENCV\BUILD\INCLUDE\OPENCV2\CORE\CVDEF.H
C:\OPENCV\BUILD\INCLUDE\OPENCV2\CORE\VERSION.HPP
C:\OPENCV\BUILD\INCLUDE\OPENCV2\CORE\HAL\INTERFACE.H
C:\OPENCV\BUILD\INCLUDE\OPENCV2\CORE\CV_CPU_DISPATCH.H
C:\PROGRAM FILES (X86)\MICROSOFT VISUAL STUDIO\2019\ENTERPRISE\VC\TOOLS\MSVC\14.29.30037\INCLUDE\ARRAY
C:\OPENCV\BUILD\INCLUDE\OPENCV2\CORE\BASE.HPP
C:\OPENCV\BUILD\INCLUDE\OPENCV2\OPENCV_MODULES.HPP
C:\OPENCV\BUILD\INCLUDE\OPENCV2\CORE\CVSTD.HPP
C:\OPENCV\BUILD\INCLUDE\OPENCV2\CORE\CVSTD_WRAPPER.HPP
C:\OPENCV\BUILD\INCLUDE\OPENCV2\CORE\NEON_UTILS.HPP
C:\OPENCV\BUILD\INCLUDE\OPENCV2\CORE\VSX_UTILS.HPP
C:\OPENCV\BUILD\INCLUDE\OPENCV2\CORE\CHECK.HPP
C:\OPENCV\BUILD\INCLUDE\OPENCV2\CORE\TRAITS.HPP
C:\OPENCV\BUILD\INCLUDE\OPENCV2\CORE\MATX.HPP
C:\OPENCV\BUILD\INCLUDE\OPENCV2\CORE\SATURATE.HPP
C:\OPENCV\BUILD\INCLUDE\OPENCV2\CORE\FAST_MATH.HPP
C:\OPENCV\BUILD\INCLUDE\OPENCV2\CORE\TYPES.HPP
C:\OPENCV\BUILD\INCLUDE\OPENCV2\CORE\MAT.HPP
C:\OPENCV\BUILD\INCLUDE\OPENCV2\CORE\BUFFERPOOL.HPP
C:\OPENCV\BUILD\INCLUDE\OPENCV2\CORE\MAT.INL.HPP
C:\OPENCV\BUILD\INCLUDE\OPENCV2\CORE\PERSISTENCE.HPP
C:\OPENCV\BUILD\INCLUDE\OPENCV2\CORE\OPERATIONS.HPP
C:\OPENCV\BUILD\INCLUDE\OPENCV2\CORE\CVSTD.INL.HPP
C:\PROGRAM FILES (X86)\MICROSOFT VISUAL STUDIO\2019\ENTERPRISE\VC\TOOLS\MSVC\14.29.30037\INCLUDE\COMPLEX
C:\PROGRAM FILES (X86)\MICROSOFT VISUAL STUDIO\2019\ENTERPRISE\VC\TOOLS\MSVC\14.29.30037\INCLUDE\SSTREAM
C:\PROGRAM FILES (X86)\MICROSOFT VISUAL STUDIO\2019\ENTERPRISE\VC\TOOLS\MSVC\14.29.30037\INCLUDE\YMATH.H
C:\OPENCV\BUILD\INCLUDE\OPENCV2\CORE\UTILITY.HPP
C:\PROGRAM FILES (X86)\MICROSOFT VISUAL STUDIO\2019\ENTERPRISE\VC\TOOLS\MSVC\14.29.30037\INCLUDE\FUNCTIONAL
C:\PROGRAM FILES (X86)\MICROSOFT VISUAL STUDIO\2019\ENTERPRISE\VC\TOOLS\MSVC\14.29.30037\INCLUDE\UNORDERED_MAP
C:\PROGRAM FILES (X86)\MICROSOFT VISUAL STUDIO\2019\ENTERPRISE\VC\TOOLS\MSVC\14.29.30037\INCLUDE\XHASH
C:\PROGRAM FILES (X86)\MICROSOFT VISUAL STUDIO\2019\ENTERPRISE\VC\TOOLS\MSVC\14.29.30037\INCLUDE\XBIT_OPS.H
C:\PROGRAM FILES (X86)\MICROSOFT VISUAL STUDIO\2019\ENTERPRISE\VC\TOOLS\MSVC\14.29.30037\INCLUDE\XNODE_HANDLE.H
C:\OPENCV\BUILD\INCLUDE\OPENCV2\CORE\OPTIM.HPP
C:\OPENCV\BUILD\INCLUDE\OPENCV2\CORE\OVX.HPP
C:\OPENCV\BUILD\INCLUDE\OPENCV2\HIGHGUI.HPP
C:\OPENCV\BUILD\INCLUDE\OPENCV2\IMGCODECS.HPP
C:\OPENCV\BUILD\INCLUDE\OPENCV2\VIDEOIO.HPP
C:\OPENCV\BUILD\INCLUDE\OPENCV2\IMGPROC.HPP
C:\OPENCV\BUILD\INCLUDE\OPENCV2\IMGPROC\SEGMENTATION.HPP
C:\OPENCV\BUILD\INCLUDE\OPENCV2\VIDEO.HPP
C:\OPENCV\BUILD\INCLUDE\OPENCV2\VIDEO\TRACKING.HPP
C:\OPENCV\BUILD\INCLUDE\OPENCV2\VIDEO\BACKGROUND_SEGM.HPP
C:\PROGRAM FILES (X86)\WINDOWS KITS\10\INCLUDE\10.0.19041.0\WINRT\WRL\CLIENT.H
C:\PROGRAM FILES (X86)\WINDOWS KITS\10\INCLUDE\10.0.19041.0\WINRT\WEAKREFERENCE.H
C:\PROGRAM FILES (X86)\WINDOWS KITS\10\INCLUDE\10.0.19041.0\WINRT\INSPECTABLE.H
C:\PROGRAM FILES (X86)\WINDOWS KITS\10\INCLUDE\10.0.19041.0\WINRT\HSTRING.H
C:\PROGRAM FILES (X86)\WINDOWS KITS\10\INCLUDE\10.0.19041.0\WINRT\ROAPI.H
C:\PROGRAM FILES (X86)\WINDOWS KITS\10\INCLUDE\10.0.19041.0\WINRT\ACTIVATION.H
C:\PROGRAM FILES (X86)\WINDOWS KITS\10\INCLUDE\10.0.19041.0\WINRT\WRL\DEF.H
C:\PROGRAM FILES (X86)\WINDOWS KITS\10\INCLUDE\10.0.19041.0\WINRT\WRL\INTERNAL.H
C:\USERS\U1862679\ACGD\ASSIGNMENT\ENGINE\SOURCE\DDSTEXTURELOADER.H
C:\PROGRAM FILES (X86)\WINDOWS KITS\10\INCLUDE\10.0.19041.0\UM\D3D11_1.H
C:\PROGRAM FILES (X86)\WINDOWS KITS\10\INCLUDE\10.0.19041.0\SHARED\DXGI1_2.H
^C:\USERS\U1862679\ACGD\ASSIGNMENT\ENGINE\SOURCE\ASPENRENDERER\AABB.CPP
C:\USERS\U1862679\ACGD\ASSIGNMENT\ENGINE\X64\DEBUG\ASSIGNMENT.PCH
C:\USERS\U1862679\ACGD\ASSIGNMENT\ENGINE\SOURCE\ASPENRENDERER\AABB.H
^C:\USERS\U1862679\ACGD\ASSIGNMENT\ENGINE\SOURCE\ASPENRENDERER\DEFERREDBUFFERS.CPP
C:\USERS\U1862679\ACGD\ASSIGNMENT\ENGINE\X64\DEBUG\ASSIGNMENT.PCH
C:\USERS\U1862679\ACGD\ASSIGNMENT\ENGINE\SOURCE\ASPENRENDERER\DEFERREDBUFFERS.H
C:\USERS\U1862679\ACGD\ASSIGNMENT\ENGINE\SOURCE\D3DCLASS.H
^C:\USERS\U1862679\ACGD\ASSIGNMENT\ENGINE\SOURCE\ASPENRENDERER\GAMEOBJECTS\GAMEOBJECT.CPP
C:\USERS\U1862679\ACGD\ASSIGNMENT\ENGINE\X64\DEBUG\ASSIGNMENT.PCH
C:\USERS\U1862679\ACGD\ASSIGNMENT\ENGINE\SOURCE\ASPENRENDERER\GAMEOBJECTS\GAMEOBJECT.H
^C:\USERS\U1862679\ACGD\ASSIGNMENT\ENGINE\SOURCE\ASPENRENDERER\MODELS\FIREMODEL.CPP
C:\USERS\U1862679\ACGD\ASSIGNMENT\ENGINE\X64\DEBUG\ASSIGNMENT.PCH
C:\USERS\U1862679\ACGD\ASSIGNMENT\ENGINE\SOURCE\ASPENRENDERER\MODELS\FIREMODEL.H
C:\USERS\U1862679\ACGD\ASSIGNMENT\ENGINE\SOURCE\ASPENRENDERER\MODELS\MODEL.H
C:\USERS\U1862679\ACGD\ASSIGNMENT\ENGINE\SOURCE\ASPENRENDERER\AABB.H
^C:\USERS\U1862679\ACGD\ASSIGNMENT\ENGINE\SOURCE\ASPENRENDERER\MODELS\MODEL.CPP
C:\USERS\U1862679\ACGD\ASSIGNMENT\ENGINE\X64\DEBUG\ASSIGNMENT.PCH
C:\USERS\U1862679\ACGD\ASSIGNMENT\ENGINE\SOURCE\ASPENRENDERER\MODELS\MODEL.H
C:\USERS\U1862679\ACGD\ASSIGNMENT\ENGINE\SOURCE\ASPENRENDERER\AABB.H
^C:\USERS\U1862679\ACGD\ASSIGNMENT\ENGINE\SOURCE\ASPENRENDERER\MODELS\WINDOWMODEL.CPP
C:\USERS\U1862679\ACGD\ASSIGNMENT\ENGINE\X64\DEBUG\ASSIGNMENT.PCH
C:\USERS\U1862679\ACGD\ASSIGNMENT\ENGINE\SOURCE\ASPENRENDERER\MODELS\WINDOWMODEL.H
C:\USERS\U1862679\ACGD\ASSIGNMENT\ENGINE\SOURCE\ASPENRENDERER\MODELS\MODEL.H
C:\USERS\U1862679\ACGD\ASSIGNMENT\ENGINE\SOURCE\ASPENRENDERER\AABB.H
^C:\USERS\U1862679\ACGD\ASSIGNMENT\ENGINE\SOURCE\ASPENRENDERER\POINTLIGHT.CPP
C:\USERS\U1862679\ACGD\ASSIGNMENT\ENGINE\X64\DEBUG\ASSIGNMENT.PCH
C:\USERS\U1862679\ACGD\ASSIGNMENT\ENGINE\SOURCE\ASPENRENDERER\POINTLIGHT.H
^C:\USERS\U1862679\ACGD\ASSIGNMENT\ENGINE\SOURCE\ASPENRENDERER\SHADERS\DEFERREDLIGHTSHADER.CPP
C:\USERS\U1862679\ACGD\ASSIGNMENT\ENGINE\X64\DEBUG\ASSIGNMENT.PCH
C:\USERS\U1862679\ACGD\ASSIGNMENT\ENGINE\SOURCE\ASPENRENDERER\SHADERS\DEFERREDLIGHTSHADER.H
C:\USERS\U1862679\ACGD\ASSIGNMENT\ENGINE\SOURCE\ASPENRENDERER\SHADERS\SHADER.H
C:\USERS\U1862679\ACGD\ASSIGNMENT\ENGINE\SOURCE\D3DCLASS.H
C:\USERS\U1862679\ACGD\ASSIGNMENT\ENGINE\SOURCE\ASPENRENDERER\DEFERREDBUFFERS.H
C:\USERS\U1862679\ACGD\ASSIGNMENT\ENGINE\SOURCE\ASPENRENDERER\POINTLIGHT.H
^C:\USERS\U1862679\ACGD\ASSIGNMENT\ENGINE\SOURCE\ASPENRENDERER\SHADERS\FIRESHADER.CPP
C:\USERS\U1862679\ACGD\ASSIGNMENT\ENGINE\X64\DEBUG\ASSIGNMENT.PCH
C:\USERS\U1862679\ACGD\ASSIGNMENT\ENGINE\SOURCE\ASPENRENDERER\SHADERS\FIRESHADER.H
C:\USERS\U1862679\ACGD\ASSIGNMENT\ENGINE\SOURCE\ASPENRENDERER\SHADERS\SHADER.H
C:\USERS\U1862679\ACGD\ASSIGNMENT\ENGINE\SOURCE\D3DCLASS.H
^C:\USERS\U1862679\ACGD\ASSIGNMENT\ENGINE\SOURCE\ASPENRENDERER\SHADERS\MIRRORSHADER.CPP
C:\USERS\U1862679\ACGD\ASSIGNMENT\ENGINE\X64\DEBUG\ASSIGNMENT.PCH
C:\USERS\U1862679\ACGD\ASSIGNMENT\ENGINE\SOURCE\ASPENRENDERER\SHADERS\MIRRORSHADER.H
C:\USERS\U1862679\ACGD\ASSIGNMENT\ENGINE\SOURCE\ASPENRENDERER\SHADERS\SHADER.H
C:\USERS\U1862679\ACGD\ASSIGNMENT\ENGINE\SOURCE\D3DCLASS.H
^C:\USERS\U1862679\ACGD\ASSIGNMENT\ENGINE\SOURCE\ASPENRENDERER\SHADERS\SHADER.CPP
C:\USERS\U1862679\ACGD\ASSIGNMENT\ENGINE\X64\DEBUG\ASSIGNMENT.PCH
C:\USERS\U1862679\ACGD\ASSIGNMENT\ENGINE\SOURCE\ASPENRENDERER\SHADERS\SHADER.H
C:\USERS\U1862679\ACGD\ASSIGNMENT\ENGINE\SOURCE\D3DCLASS.H
^C:\USERS\U1862679\ACGD\ASSIGNMENT\ENGINE\SOURCE\INPUTCLASS.CPP
C:\USERS\U1862679\ACGD\ASSIGNMENT\ENGINE\X64\DEBUG\ASSIGNMENT.PCH
C:\USERS\U1862679\ACGD\ASSIGNMENT\ENGINE\SOURCE\INPUTCLASS.H
C:\PROGRAM FILES (X86)\WINDOWS KITS\10\INCLUDE\10.0.19041.0\UM\DINPUT.H
^C:\USERS\U1862679\ACGD\ASSIGNMENT\ENGINE\SOURCE\TIMERCLASS.CPP
C:\USERS\U1862679\ACGD\ASSIGNMENT\ENGINE\X64\DEBUG\ASSIGNMENT.PCH
C:\USERS\U1862679\ACGD\ASSIGNMENT\ENGINE\SOURCE\TIMERCLASS.H
^C:\USERS\U1862679\ACGD\ASSIGNMENT\ENGINE\SOURCE\DDSTEXTURELOADER.CPP
C:\WINDOWS\GLOBALIZATION\SORTING\SORTDEFAULT.NLS
C:\PROGRAM FILES (X86)\MICROSOFT VISUAL STUDIO\2019\ENTERPRISE\VC\TOOLS\MSVC\14.29.30037\BIN\HOSTX86\X64\1033\CLUI.DLL
C:\WINDOWS\SYSTEM32\TZRES.DLL
C:\PROGRAM FILES (X86)\WINDOWS KITS\10\INCLUDE\10.0.19041.0\UCRT\ASSERT.H
C:\PROGRAM FILES (X86)\WINDOWS KITS\10\INCLUDE\10.0.19041.0\UCRT\CORECRT.H
C:\PROGRAM FILES (X86)\MICROSOFT VISUAL STUDIO\2019\ENTERPRISE\VC\TOOLS\MSVC\14.29.30037\INCLUDE\VCRUNTIME.H
C:\PROGRAM FILES (X86)\MICROSOFT VISUAL STUDIO\2019\ENTERPRISE\VC\TOOLS\MSVC\14.29.30037\INCLUDE\SAL.H
C:\PROGRAM FILES (X86)\MICROSOFT VISUAL STUDIO\2019\ENTERPRISE\VC\TOOLS\MSVC\14.29.30037\INCLUDE\CONCURRENCYSAL.H
C:\PROGRAM FILES (X86)\MICROSOFT VISUAL STUDIO\2019\ENTERPRISE\VC\TOOLS\MSVC\14.29.30037\INCLUDE\VADEFS.H
C:\PROGRAM FILES (X86)\MICROSOFT VISUAL STUDIO\2019\ENTERPRISE\VC\TOOLS\MSVC\14.29.30037\INCLUDE\ALGORITHM
C:\PROGRAM FILES (X86)\MICROSOFT VISUAL STUDIO\2019\ENTERPRISE\VC\TOOLS\MSVC\14.29.30037\INCLUDE\YVALS_CORE.H
C:\PROGRAM FILES (X86)\MICROSOFT VISUAL STUDIO\2019\ENTERPRISE\VC\TOOLS\MSVC\14.29.30037\INCLUDE\XKEYCHECK.H
C:\PROGRAM FILES (X86)\MICROSOFT VISUAL STUDIO\2019\ENTERPRISE\VC\TOOLS\MSVC\14.29.30037\INCLUDE\XMEMORY
C:\PROGRAM FILES (X86)\MICROSOFT VISUAL STUDIO\2019\ENTERPRISE\VC\TOOLS\MSVC\14.29.30037\INCLUDE\CSTDINT
C:\PROGRAM FILES (X86)\MICROSOFT VISUAL STUDIO\2019\ENTERPRISE\VC\TOOLS\MSVC\14.29.30037\INCLUDE\STDINT.H
C:\PROGRAM FILES (X86)\MICROSOFT VISUAL STUDIO\2019\ENTERPRISE\VC\TOOLS\MSVC\14.29.30037\INCLUDE\CSTDLIB
C:\PROGRAM FILES (X86)\WINDOWS KITS\10\INCLUDE\10.0.19041.0\UCRT\MATH.H
C:\PROGRAM FILES (X86)\WINDOWS KITS\10\INCLUDE\10.0.19041.0\UCRT\CORECRT_MATH.H
C:\PROGRAM FILES (X86)\WINDOWS KITS\10\INCLUDE\10.0.19041.0\UCRT\STDLIB.H
C:\PROGRAM FILES (X86)\WINDOWS KITS\10\INCLUDE\10.0.19041.0\UCRT\CORECRT_MALLOC.H
C:\PROGRAM FILES (X86)\WINDOWS KITS\10\INCLUDE\10.0.19041.0\UCRT\CORECRT_SEARCH.H
C:\PROGRAM FILES (X86)\WINDOWS KITS\10\INCLUDE\10.0.19041.0\UCRT\STDDEF.H
C:\PROGRAM FILES (X86)\WINDOWS KITS\10\INCLUDE\10.0.19041.0\UCRT\CORECRT_WSTDLIB.H
C:\PROGRAM FILES (X86)\MICROSOFT VISUAL STUDIO\2019\ENTERPRISE\VC\TOOLS\MSVC\14.29.30037\INCLUDE\LIMITS.H
C:\PROGRAM FILES (X86)\MICROSOFT VISUAL STUDIO\2019\ENTERPRISE\VC\TOOLS\MSVC\14.29.30037\INCLUDE\LIMITS
C:\PROGRAM FILES (X86)\MICROSOFT VISUAL STUDIO\2019\ENTERPRISE\VC\TOOLS\MSVC\14.29.30037\INCLUDE\CFLOAT
C:\PROGRAM FILES (X86)\WINDOWS KITS\10\INCLUDE\10.0.19041.0\UCRT\FLOAT.H
C:\PROGRAM FILES (X86)\MICROSOFT VISUAL STUDIO\2019\ENTERPRISE\VC\TOOLS\MSVC\14.29.30037\INCLUDE\CLIMITS
C:\PROGRAM FILES (X86)\MICROSOFT VISUAL STUDIO\2019\ENTERPRISE\VC\TOOLS\MSVC\14.29.30037\INCLUDE\CWCHAR
C:\PROGRAM FILES (X86)\MICROSOFT VISUAL STUDIO\2019\ENTERPRISE\VC\TOOLS\MSVC\14.29.30037\INCLUDE\CSTDIO
C:\PROGRAM FILES (X86)\WINDOWS KITS\10\INCLUDE\10.0.19041.0\UCRT\STDIO.H
C:\PROGRAM FILES (X86)\WINDOWS KITS\10\INCLUDE\10.0.19041.0\UCRT\CORECRT_WSTDIO.H
C:\PROGRAM FILES (X86)\WINDOWS KITS\10\INCLUDE\10.0.19041.0\UCRT\CORECRT_STDIO_CONFIG.H
C:\PROGRAM FILES (X86)\WINDOWS KITS\10\INCLUDE\10.0.19041.0\UCRT\WCHAR.H
C:\PROGRAM FILES (X86)\WINDOWS KITS\10\INCLUDE\10.0.19041.0\UCRT\CORECRT_MEMCPY_S.H
C:\PROGRAM FILES (X86)\WINDOWS KITS\10\INCLUDE\10.0.19041.0\UCRT\ERRNO.H
C:\PROGRAM FILES (X86)\MICROSOFT VISUAL STUDIO\2019\ENTERPRISE\VC\TOOLS\MSVC\14.29.30037\INCLUDE\VCRUNTIME_STRING.H
C:\PROGRAM FILES (X86)\WINDOWS KITS\10\INCLUDE\10.0.19041.0\UCRT\CORECRT_WCONIO.H
C:\PROGRAM FILES (X86)\WINDOWS KITS\10\INCLUDE\10.0.19041.0\UCRT\CORECRT_WCTYPE.H
C:\PROGRAM FILES (X86)\WINDOWS KITS\10\INCLUDE\10.0.19041.0\UCRT\CORECRT_WDIRECT.H
C:\PROGRAM FILES (X86)\WINDOWS KITS\10\INCLUDE\10.0.19041.0\UCRT\CORECRT_WIO.H
C:\PROGRAM FILES (X86)\WINDOWS KITS\10\INCLUDE\10.0.19041.0\UCRT\CORECRT_SHARE.H
C:\PROGRAM FILES (X86)\WINDOWS KITS\10\INCLUDE\10.0.19041.0\UCRT\CORECRT_WPROCESS.H
C:\PROGRAM FILES (X86)\WINDOWS KITS\10\INCLUDE\10.0.19041.0\UCRT\CORECRT_WSTRING.H
C:\PROGRAM FILES (X86)\WINDOWS KITS\10\INCLUDE\10.0.19041.0\UCRT\CORECRT_WTIME.H
C:\PROGRAM FILES (X86)\WINDOWS KITS\10\INCLUDE\10.0.19041.0\UCRT\SYS\STAT.H
C:\PROGRAM FILES (X86)\WINDOWS KITS\10\INCLUDE\10.0.19041.0\UCRT\SYS\TYPES.H
C:\PROGRAM FILES (X86)\MICROSOFT VISUAL STUDIO\2019\ENTERPRISE\VC\TOOLS\MSVC\14.29.30037\INCLUDE\INTRIN0.H
C:\PROGRAM FILES (X86)\MICROSOFT VISUAL STUDIO\2019\ENTERPRISE\VC\TOOLS\MSVC\14.29.30037\INCLUDE\ISA_AVAILABILITY.H
C:\PROGRAM FILES (X86)\MICROSOFT VISUAL STUDIO\2019\ENTERPRISE\VC\TOOLS\MSVC\14.29.30037\INCLUDE\XSTDDEF
C:\PROGRAM FILES (X86)\MICROSOFT VISUAL STUDIO\2019\ENTERPRISE\VC\TOOLS\MSVC\14.29.30037\INCLUDE\CSTDDEF
C:\PROGRAM FILES (X86)\MICROSOFT VISUAL STUDIO\2019\ENTERPRISE\VC\TOOLS\MSVC\14.29.30037\INCLUDE\XTR1COMMON
C:\PROGRAM FILES (X86)\MICROSOFT VISUAL STUDIO\2019\ENTERPRISE\VC\TOOLS\MSVC\14.29.30037\INCLUDE\INITIALIZER_LIST
C:\PROGRAM FILES (X86)\MICROSOFT VISUAL STUDIO\2019\ENTERPRISE\VC\TOOLS\MSVC\14.29.30037\INCLUDE\NEW
C:\PROGRAM FILES (X86)\MICROSOFT VISUAL STUDIO\2019\ENTERPRISE\VC\TOOLS\MSVC\14.29.30037\INCLUDE\EXCEPTION
C:\PROGRAM FILES (X86)\MICROSOFT VISUAL STUDIO\2019\ENTERPRISE\VC\TOOLS\MSVC\14.29.30037\INCLUDE\YVALS.H
C:\PROGRAM FILES (X86)\WINDOWS KITS\10\INCLUDE\10.0.19041.0\UCRT\CRTDBG.H
C:\PROGRAM FILES (X86)\MICROSOFT VISUAL STUDIO\2019\ENTERPRISE\VC\TOOLS\MSVC\14.29.30037\INCLUDE\VCRUNTIME_NEW_DEBUG.H
C:\PROGRAM FILES (X86)\MICROSOFT VISUAL STUDIO\2019\ENTERPRISE\VC\TOOLS\MSVC\14.29.30037\INCLUDE\VCRUNTIME_NEW.H
C:\PROGRAM FILES (X86)\MICROSOFT VISUAL STUDIO\2019\ENTERPRISE\VC\TOOLS\MSVC\14.29.30037\INCLUDE\CRTDEFS.H
C:\PROGRAM FILES (X86)\MICROSOFT VISUAL STUDIO\2019\ENTERPRISE\VC\TOOLS\MSVC\14.29.30037\INCLUDE\USE_ANSI.H
C:\PROGRAM FILES (X86)\MICROSOFT VISUAL STUDIO\2019\ENTERPRISE\VC\TOOLS\MSVC\14.29.30037\INCLUDE\TYPE_TRAITS
C:\PROGRAM FILES (X86)\WINDOWS KITS\10\INCLUDE\10.0.19041.0\UCRT\MALLOC.H
C:\PROGRAM FILES (X86)\MICROSOFT VISUAL STUDIO\2019\ENTERPRISE\VC\TOOLS\MSVC\14.29.30037\INCLUDE\VCRUNTIME_EXCEPTION.H
C:\PROGRAM FILES (X86)\MICROSOFT VISUAL STUDIO\2019\ENTERPRISE\VC\TOOLS\MSVC\14.29.30037\INCLUDE\EH.H
C:\PROGRAM FILES (X86)\WINDOWS KITS\10\INCLUDE\10.0.19041.0\UCRT\CORECRT_TERMINATE.H
C:\PROGRAM FILES (X86)\MICROSOFT VISUAL STUDIO\2019\ENTERPRISE\VC\TOOLS\MSVC\14.29.30037\INCLUDE\XATOMIC.H
C:\PROGRAM FILES (X86)\MICROSOFT VISUAL STUDIO\2019\ENTERPRISE\VC\TOOLS\MSVC\14.29.30037\INCLUDE\XUTILITY
C:\PROGRAM FILES (X86)\MICROSOFT VISUAL STUDIO\2019\ENTERPRISE\VC\TOOLS\MSVC\14.29.30037\INCLUDE\CSTRING
C:\PROGRAM FILES (X86)\WINDOWS KITS\10\INCLUDE\10.0.19041.0\UCRT\STRING.H
C:\PROGRAM FILES (X86)\WINDOWS KITS\10\INCLUDE\10.0.19041.0\UCRT\CORECRT_MEMORY.H
C:\PROGRAM FILES (X86)\MICROSOFT VISUAL STUDIO\2019\ENTERPRISE\VC\TOOLS\MSVC\14.29.30037\INCLUDE\UTILITY
C:\PROGRAM FILES (X86)\MICROSOFT VISUAL STUDIO\2019\ENTERPRISE\VC\TOOLS\MSVC\14.29.30037\INCLUDE\MEMORY
C:\PROGRAM FILES (X86)\MICROSOFT VISUAL STUDIO\2019\ENTERPRISE\VC\TOOLS\MSVC\14.29.30037\INCLUDE\IOSFWD
C:\PROGRAM FILES (X86)\MICROSOFT VISUAL STUDIO\2019\ENTERPRISE\VC\TOOLS\MSVC\14.29.30037\INCLUDE\TYPEINFO
C:\PROGRAM FILES (X86)\MICROSOFT VISUAL STUDIO\2019\ENTERPRISE\VC\TOOLS\MSVC\14.29.30037\INCLUDE\VCRUNTIME_TYPEINFO.H
C:\USERS\U1862679\ACGD\ASSIGNMENT\ENGINE\SOURCE\DDSTEXTURELOADER.H
C:\PROGRAM FILES (X86)\WINDOWS KITS\10\INCLUDE\10.0.19041.0\UM\D3D11_1.H
C:\PROGRAM FILES (X86)\WINDOWS KITS\10\INCLUDE\10.0.19041.0\SHARED\RPC.H
C:\PROGRAM FILES (X86)\WINDOWS KITS\10\INCLUDE\10.0.19041.0\UM\WINDOWS.H
C:\PROGRAM FILES (X86)\WINDOWS KITS\10\INCLUDE\10.0.19041.0\SHARED\WINAPIFAMILY.H
C:\PROGRAM FILES (X86)\WINDOWS KITS\10\INCLUDE\10.0.19041.0\SHARED\WINPACKAGEFAMILY.H
C:\PROGRAM FILES (X86)\WINDOWS KITS\10\INCLUDE\10.0.19041.0\SHARED\SDKDDKVER.H
C:\PROGRAM FILES (X86)\MICROSOFT VISUAL STUDIO\2019\ENTERPRISE\VC\TOOLS\MSVC\14.29.30037\INCLUDE\EXCPT.H
C:\PROGRAM FILES (X86)\MICROSOFT VISUAL STUDIO\2019\ENTERPRISE\VC\TOOLS\MSVC\14.29.30037\INCLUDE\STDARG.H
C:\PROGRAM FILES (X86)\WINDOWS KITS\10\INCLUDE\10.0.19041.0\SHARED\WINDEF.H
C:\PROGRAM FILES (X86)\WINDOWS KITS\10\INCLUDE\10.0.19041.0\SHARED\MINWINDEF.H
C:\PROGRAM FILES (X86)\WINDOWS KITS\10\INCLUDE\10.0.19041.0\SHARED\SPECSTRINGS.H
C:\PROGRAM FILES (X86)\WINDOWS KITS\10\INCLUDE\10.0.19041.0\SHARED\SPECSTRINGS_STRICT.H
C:\PROGRAM FILES (X86)\WINDOWS KITS\10\INCLUDE\10.0.19041.0\SHARED\SPECSTRINGS_UNDEF.H
C:\PROGRAM FILES (X86)\WINDOWS KITS\10\INCLUDE\10.0.19041.0\SHARED\DRIVERSPECS.H
C:\PROGRAM FILES (X86)\WINDOWS KITS\10\INCLUDE\10.0.19041.0\SHARED\SDV_DRIVERSPECS.H
C:\PROGRAM FILES (X86)\WINDOWS KITS\10\INCLUDE\10.0.19041.0\UM\WINNT.H
C:\PROGRAM FILES (X86)\WINDOWS KITS\10\INCLUDE\10.0.19041.0\UCRT\CTYPE.H
C:\PROGRAM FILES (X86)\WINDOWS KITS\10\INCLUDE\10.0.19041.0\SHARED\KERNELSPECS.H
C:\PROGRAM FILES (X86)\WINDOWS KITS\10\INCLUDE\10.0.19041.0\SHARED\BASETSD.H
C:\PROGRAM FILES (X86)\WINDOWS KITS\10\INCLUDE\10.0.19041.0\SHARED\GUIDDEF.H
C:\PROGRAM FILES (X86)\WINDOWS KITS\10\INCLUDE\10.0.19041.0\SHARED\PSHPACK4.H
C:\PROGRAM FILES (X86)\WINDOWS KITS\10\INCLUDE\10.0.19041.0\SHARED\POPPACK.H
C:\PROGRAM FILES (X86)\WINDOWS KITS\10\INCLUDE\10.0.19041.0\SHARED\PSHPACK2.H
C:\PROGRAM FILES (X86)\WINDOWS KITS\10\INCLUDE\10.0.19041.0\SHARED\PSHPACK8.H
C:\PROGRAM FILES (X86)\WINDOWS KITS\10\INCLUDE\10.0.19041.0\SHARED\PSHPACK1.H
C:\PROGRAM FILES (X86)\WINDOWS KITS\10\INCLUDE\10.0.19041.0\SHARED\APISET.H
C:\PROGRAM FILES (X86)\WINDOWS KITS\10\INCLUDE\10.0.19041.0\SHARED\KTMTYPES.H
C:\PROGRAM FILES (X86)\WINDOWS KITS\10\INCLUDE\10.0.19041.0\UM\WINBASE.H
C:\PROGRAM FILES (X86)\WINDOWS KITS\10\INCLUDE\10.0.19041.0\SHARED\APISETCCONV.H
C:\PROGRAM FILES (X86)\WINDOWS KITS\10\INCLUDE\10.0.19041.0\UM\MINWINBASE.H
C:\PROGRAM FILES (X86)\WINDOWS KITS\10\INCLUDE\10.0.19041.0\UM\APIQUERY2.H
C:\PROGRAM FILES (X86)\WINDOWS KITS\10\INCLUDE\10.0.19041.0\UM\PROCESSENV.H
C:\PROGRAM FILES (X86)\WINDOWS KITS\10\INCLUDE\10.0.19041.0\UM\FILEAPIFROMAPP.H
C:\PROGRAM FILES (X86)\WINDOWS KITS\10\INCLUDE\10.0.19041.0\UM\FILEAPI.H
C:\PROGRAM FILES (X86)\WINDOWS KITS\10\INCLUDE\10.0.19041.0\UM\DEBUGAPI.H
C:\PROGRAM FILES (X86)\WINDOWS KITS\10\INCLUDE\10.0.19041.0\UM\UTILAPISET.H
C:\PROGRAM FILES (X86)\WINDOWS KITS\10\INCLUDE\10.0.19041.0\UM\HANDLEAPI.H
C:\PROGRAM FILES (X86)\WINDOWS KITS\10\INCLUDE\10.0.19041.0\UM\ERRHANDLINGAPI.H
C:\PROGRAM FILES (X86)\WINDOWS KITS\10\INCLUDE\10.0.19041.0\UM\FIBERSAPI.H
C:\PROGRAM FILES (X86)\WINDOWS KITS\10\INCLUDE\10.0.19041.0\UM\NAMEDPIPEAPI.H
C:\PROGRAM FILES (X86)\WINDOWS KITS\10\INCLUDE\10.0.19041.0\UM\PROFILEAPI.H
C:\PROGRAM FILES (X86)\WINDOWS KITS\10\INCLUDE\10.0.19041.0\UM\HEAPAPI.H
C:\PROGRAM FILES (X86)\WINDOWS KITS\10\INCLUDE\10.0.19041.0\UM\IOAPISET.H
C:\PROGRAM FILES (X86)\WINDOWS KITS\10\INCLUDE\10.0.19041.0\UM\SYNCHAPI.H
C:\PROGRAM FILES (X86)\WINDOWS KITS\10\INCLUDE\10.0.19041.0\UM\INTERLOCKEDAPI.H
C:\PROGRAM FILES (X86)\WINDOWS KITS\10\INCLUDE\10.0.19041.0\UM\PROCESSTHREADSAPI.H
C:\PROGRAM FILES (X86)\WINDOWS KITS\10\INCLUDE\10.0.19041.0\UM\SYSINFOAPI.H
C:\PROGRAM FILES (X86)\WINDOWS KITS\10\INCLUDE\10.0.19041.0\UM\MEMORYAPI.H
C:\PROGRAM FILES (X86)\WINDOWS KITS\10\INCLUDE\10.0.19041.0\UM\ENCLAVEAPI.H
C:\PROGRAM FILES (X86)\WINDOWS KITS\10\INCLUDE\10.0.19041.0\UM\THREADPOOLLEGACYAPISET.H
C:\PROGRAM FILES (X86)\WINDOWS KITS\10\INCLUDE\10.0.19041.0\UM\THREADPOOLAPISET.H
C:\PROGRAM FILES (X86)\WINDOWS KITS\10\INCLUDE\10.0.19041.0\UM\JOBAPI.H
C:\PROGRAM FILES (X86)\WINDOWS KITS\10\INCLUDE\10.0.19041.0\UM\JOBAPI2.H
C:\PROGRAM FILES (X86)\WINDOWS KITS\10\INCLUDE\10.0.19041.0\UM\WOW64APISET.H
C:\PROGRAM FILES (X86)\WINDOWS KITS\10\INCLUDE\10.0.19041.0\UM\LIBLOADERAPI.H
C:\PROGRAM FILES (X86)\WINDOWS KITS\10\INCLUDE\10.0.19041.0\UM\SECURITYBASEAPI.H
C:\PROGRAM FILES (X86)\WINDOWS KITS\10\INCLUDE\10.0.19041.0\UM\NAMESPACEAPI.H
C:\PROGRAM FILES (X86)\WINDOWS KITS\10\INCLUDE\10.0.19041.0\UM\SYSTEMTOPOLOGYAPI.H
C:\PROGRAM FILES (X86)\WINDOWS KITS\10\INCLUDE\10.0.19041.0\UM\PROCESSTOPOLOGYAPI.H
C:\PROGRAM FILES (X86)\WINDOWS KITS\10\INCLUDE\10.0.19041.0\UM\SECURITYAPPCONTAINER.H
C:\PROGRAM FILES (X86)\WINDOWS KITS\10\INCLUDE\10.0.19041.0\UM\REALTIMEAPISET.H
C:\PROGRAM FILES (X86)\WINDOWS KITS\10\INCLUDE\10.0.19041.0\SHARED\WINERROR.H
C:\PROGRAM FILES (X86)\WINDOWS KITS\10\INCLUDE\10.0.19041.0\UM\TIMEZONEAPI.H
C:\PROGRAM FILES (X86)\WINDOWS KITS\10\INCLUDE\10.0.19041.0\UM\WINGDI.H
C:\PROGRAM FILES (X86)\WINDOWS KITS\10\INCLUDE\10.0.19041.0\UM\WINUSER.H
C:\PROGRAM FILES (X86)\WINDOWS KITS\10\INCLUDE\10.0.19041.0\SHARED\TVOUT.H
C:\PROGRAM FILES (X86)\WINDOWS KITS\10\INCLUDE\10.0.19041.0\UM\WINNLS.H
C:\PROGRAM FILES (X86)\WINDOWS KITS\10\INCLUDE\10.0.19041.0\UM\DATETIMEAPI.H
C:\PROGRAM FILES (X86)\WINDOWS KITS\10\INCLUDE\10.0.19041.0\UM\STRINGAPISET.H
C:\PROGRAM FILES (X86)\WINDOWS KITS\10\INCLUDE\10.0.19041.0\UM\WINCON.H
C:\PROGRAM FILES (X86)\WINDOWS KITS\10\INCLUDE\10.0.19041.0\UM\WINCONTYPES.H
C:\PROGRAM FILES (X86)\WINDOWS KITS\10\INCLUDE\10.0.19041.0\UM\CONSOLEAPI.H
C:\PROGRAM FILES (X86)\WINDOWS KITS\10\INCLUDE\10.0.19041.0\UM\CONSOLEAPI2.H
C:\PROGRAM FILES (X86)\WINDOWS KITS\10\INCLUDE\10.0.19041.0\UM\CONSOLEAPI3.H
C:\PROGRAM FILES (X86)\WINDOWS KITS\10\INCLUDE\10.0.19041.0\UM\WINVER.H
C:\PROGRAM FILES (X86)\WINDOWS KITS\10\INCLUDE\10.0.19041.0\UM\VERRSRC.H
C:\PROGRAM FILES (X86)\WINDOWS KITS\10\INCLUDE\10.0.19041.0\UM\WINREG.H
C:\PROGRAM FILES (X86)\WINDOWS KITS\10\INCLUDE\10.0.19041.0\UM\REASON.H
C:\PROGRAM FILES (X86)\WINDOWS KITS\10\INCLUDE\10.0.19041.0\UM\WINNETWK.H
C:\PROGRAM FILES (X86)\WINDOWS KITS\10\INCLUDE\10.0.19041.0\SHARED\WNNC.H
C:\PROGRAM FILES (X86)\WINDOWS KITS\10\INCLUDE\10.0.19041.0\SHARED\CDERR.H
C:\PROGRAM FILES (X86)\WINDOWS KITS\10\INCLUDE\10.0.19041.0\UM\DDE.H
C:\PROGRAM FILES (X86)\WINDOWS KITS\10\INCLUDE\10.0.19041.0\UM\DDEML.H
C:\PROGRAM FILES (X86)\WINDOWS KITS\10\INCLUDE\10.0.19041.0\UM\DLGS.H
C:\PROGRAM FILES (X86)\WINDOWS KITS\10\INCLUDE\10.0.19041.0\UM\LZEXPAND.H
C:\PROGRAM FILES (X86)\WINDOWS KITS\10\INCLUDE\10.0.19041.0\UM\MMSYSTEM.H
C:\PROGRAM FILES (X86)\WINDOWS KITS\10\INCLUDE\10.0.19041.0\UM\MMSYSCOM.H
C:\PROGRAM FILES (X86)\WINDOWS KITS\10\INCLUDE\10.0.19041.0\UM\MCIAPI.H
C:\PROGRAM FILES (X86)\WINDOWS KITS\10\INCLUDE\10.0.19041.0\UM\MMISCAPI.H
C:\PROGRAM FILES (X86)\WINDOWS KITS\10\INCLUDE\10.0.19041.0\UM\MMISCAPI2.H
C:\PROGRAM FILES (X86)\WINDOWS KITS\10\INCLUDE\10.0.19041.0\UM\PLAYSOUNDAPI.H
C:\PROGRAM FILES (X86)\WINDOWS KITS\10\INCLUDE\10.0.19041.0\UM\MMEAPI.H
C:\PROGRAM FILES (X86)\WINDOWS KITS\10\INCLUDE\10.0.19041.0\UM\TIMEAPI.H
C:\PROGRAM FILES (X86)\WINDOWS KITS\10\INCLUDE\10.0.19041.0\UM\JOYSTICKAPI.H
C:\PROGRAM FILES (X86)\WINDOWS KITS\10\INCLUDE\10.0.19041.0\UM\NB30.H
C:\PROGRAM FILES (X86)\WINDOWS KITS\10\INCLUDE\10.0.19041.0\SHARED\RPCDCE.H
C:\PROGRAM FILES (X86)\WINDOWS KITS\10\INCLUDE\10.0.19041.0\SHARED\RPCDCEP.H
C:\PROGRAM FILES (X86)\WINDOWS KITS\10\INCLUDE\10.0.19041.0\UM\RPCNSI.H
C:\PROGRAM FILES (X86)\WINDOWS KITS\10\INCLUDE\10.0.19041.0\SHARED\RPCNTERR.H
C:\PROGRAM FILES (X86)\WINDOWS KITS\10\INCLUDE\10.0.19041.0\SHARED\RPCASYNC.H
C:\PROGRAM FILES (X86)\WINDOWS KITS\10\INCLUDE\10.0.19041.0\UM\SHELLAPI.H
C:\PROGRAM FILES (X86)\WINDOWS KITS\10\INCLUDE\10.0.19041.0\UM\WINPERF.H
C:\PROGRAM FILES (X86)\WINDOWS KITS\10\INCLUDE\10.0.19041.0\UM\WINSOCK.H
C:\PROGRAM FILES (X86)\WINDOWS KITS\10\INCLUDE\10.0.19041.0\SHARED\INADDR.H
C:\PROGRAM FILES (X86)\WINDOWS KITS\10\INCLUDE\10.0.19041.0\UM\WINCRYPT.H
C:\PROGRAM FILES (X86)\WINDOWS KITS\10\INCLUDE\10.0.19041.0\SHARED\BCRYPT.H
C:\PROGRAM FILES (X86)\WINDOWS KITS\10\INCLUDE\10.0.19041.0\UM\NCRYPT.H
C:\PROGRAM FILES (X86)\WINDOWS KITS\10\INCLUDE\10.0.19041.0\UM\DPAPI.H
C:\PROGRAM FILES (X86)\WINDOWS KITS\10\INCLUDE\10.0.19041.0\UM\WINEFS.H
C:\PROGRAM FILES (X86)\WINDOWS KITS\10\INCLUDE\10.0.19041.0\UM\WINSCARD.H
C:\PROGRAM FILES (X86)\WINDOWS KITS\10\INCLUDE\10.0.19041.0\SHARED\WTYPES.H
C:\PROGRAM FILES (X86)\WINDOWS KITS\10\INCLUDE\10.0.19041.0\SHARED\RPCNDR.H
C:\PROGRAM FILES (X86)\WINDOWS KITS\10\INCLUDE\10.0.19041.0\UM\RPCNSIP.H
C:\PROGRAM FILES (X86)\WINDOWS KITS\10\INCLUDE\10.0.19041.0\SHARED\RPCSAL.H
C:\PROGRAM FILES (X86)\WINDOWS KITS\10\INCLUDE\10.0.19041.0\SHARED\WTYPESBASE.H
C:\PROGRAM FILES (X86)\WINDOWS KITS\10\INCLUDE\10.0.19041.0\UM\WINIOCTL.H
C:\PROGRAM FILES (X86)\WINDOWS KITS\10\INCLUDE\10.0.19041.0\SHARED\WINSMCRD.H
C:\PROGRAM FILES (X86)\WINDOWS KITS\10\INCLUDE\10.0.19041.0\UM\WINSPOOL.H
C:\PROGRAM FILES (X86)\WINDOWS KITS\10\INCLUDE\10.0.19041.0\UM\PRSHT.H
C:\PROGRAM FILES (X86)\WINDOWS KITS\10\INCLUDE\10.0.19041.0\UM\OLE2.H
C:\PROGRAM FILES (X86)\WINDOWS KITS\10\INCLUDE\10.0.19041.0\UM\OBJBASE.H
C:\PROGRAM FILES (X86)\WINDOWS KITS\10\INCLUDE\10.0.19041.0\UM\COMBASEAPI.H
C:\PROGRAM FILES (X86)\WINDOWS KITS\10\INCLUDE\10.0.19041.0\UM\UNKNWNBASE.H
C:\PROGRAM FILES (X86)\WINDOWS KITS\10\INCLUDE\10.0.19041.0\UM\OBJIDLBASE.H
C:\PROGRAM FILES (X86)\WINDOWS KITS\10\INCLUDE\10.0.19041.0\UM\CGUID.H
C:\PROGRAM FILES (X86)\WINDOWS KITS\10\INCLUDE\10.0.19041.0\UM\COML2API.H
C:\PROGRAM FILES (X86)\WINDOWS KITS\10\INCLUDE\10.0.19041.0\UM\OBJIDL.H
C:\PROGRAM FILES (X86)\WINDOWS KITS\10\INCLUDE\10.0.19041.0\UM\UNKNWN.H
C:\PROGRAM FILES (X86)\WINDOWS KITS\10\INCLUDE\10.0.19041.0\UM\PROPIDLBASE.H
C:\PROGRAM FILES (X86)\WINDOWS KITS\10\INCLUDE\10.0.19041.0\UM\OAIDL.H
C:\PROGRAM FILES (X86)\WINDOWS KITS\10\INCLUDE\10.0.19041.0\UM\URLMON.H
C:\PROGRAM FILES (X86)\WINDOWS KITS\10\INCLUDE\10.0.19041.0\UM\OLEIDL.H
C:\PROGRAM FILES (X86)\WINDOWS KITS\10\INCLUDE\10.0.19041.0\UM\SERVPROV.H
C:\PROGRAM FILES (X86)\WINDOWS KITS\10\INCLUDE\10.0.19041.0\UM\MSXML.H
C:\PROGRAM FILES (X86)\WINDOWS KITS\10\INCLUDE\10.0.19041.0\UM\PROPIDL.H
C:\PROGRAM FILES (X86)\WINDOWS KITS\10\INCLUDE\10.0.19041.0\UM\OLEAUTO.H
C:\PROGRAM FILES (X86)\WINDOWS KITS\10\INCLUDE\10.0.19041.0\UM\COMMDLG.H
C:\PROGRAM FILES (X86)\WINDOWS KITS\10\INCLUDE\10.0.19041.0\SHARED\STRALIGN.H
C:\PROGRAM FILES (X86)\WINDOWS KITS\10\INCLUDE\10.0.19041.0\UM\WINSVC.H
C:\PROGRAM FILES (X86)\WINDOWS KITS\10\INCLUDE\10.0.19041.0\UM\MCX.H
C:\PROGRAM FILES (X86)\WINDOWS KITS\10\INCLUDE\10.0.19041.0\UM\IMM.H
C:\PROGRAM FILES (X86)\WINDOWS KITS\10\INCLUDE\10.0.19041.0\UM\IME_CMODES.H
C:\PROGRAM FILES (X86)\WINDOWS KITS\10\INCLUDE\10.0.19041.0\UM\OCIDL.H
C:\PROGRAM FILES (X86)\WINDOWS KITS\10\INCLUDE\10.0.19041.0\SHARED\DXGI1_2.H
C:\PROGRAM FILES (X86)\WINDOWS KITS\10\INCLUDE\10.0.19041.0\SHARED\DXGI.H
C:\PROGRAM FILES (X86)\WINDOWS KITS\10\INCLUDE\10.0.19041.0\SHARED\DXGICOMMON.H
C:\PROGRAM FILES (X86)\WINDOWS KITS\10\INCLUDE\10.0.19041.0\SHARED\DXGITYPE.H
C:\PROGRAM FILES (X86)\WINDOWS KITS\10\INCLUDE\10.0.19041.0\SHARED\DXGIFORMAT.H
C:\PROGRAM FILES (X86)\WINDOWS KITS\10\INCLUDE\10.0.19041.0\UM\D3DCOMMON.H
C:\PROGRAM FILES (X86)\WINDOWS KITS\10\INCLUDE\10.0.19041.0\UM\D3D11.H
C:\PROGRAM FILES (X86)\WINDOWS KITS\10\INCLUDE\10.0.19041.0\UM\D3D11SDKLAYERS.H
C:\PROGRAM FILES (X86)\WINDOWS KITS\10\INCLUDE\10.0.19041.0\UM\D3D10_1.H
C:\PROGRAM FILES (X86)\WINDOWS KITS\10\INCLUDE\10.0.19041.0\UM\D3D10.H
C:\PROGRAM FILES (X86)\WINDOWS KITS\10\INCLUDE\10.0.19041.0\UM\D3D10SDKLAYERS.H
C:\PROGRAM FILES (X86)\WINDOWS KITS\10\INCLUDE\10.0.19041.0\UM\D3D10MISC.H
C:\PROGRAM FILES (X86)\WINDOWS KITS\10\INCLUDE\10.0.19041.0\UM\D3D10SHADER.H
C:\PROGRAM FILES (X86)\WINDOWS KITS\10\INCLUDE\10.0.19041.0\UM\D3D10EFFECT.H
C:\PROGRAM FILES (X86)\WINDOWS KITS\10\INCLUDE\10.0.19041.0\UM\D3D10_1SHADER.H
^C:\USERS\U1862679\ACGD\ASSIGNMENT\ENGINE\SOURCE\D3DCLASS.CPP
C:\USERS\U1862679\ACGD\ASSIGNMENT\ENGINE\X64\DEBUG\ASSIGNMENT.PCH
C:\USERS\U1862679\ACGD\ASSIGNMENT\ENGINE\SOURCE\D3DCLASS.H
C:\PROGRAM FILES (X86)\MICROSOFT VISUAL STUDIO\2019\ENTERPRISE\VC\TOOLS\MSVC\14.29.30037\INCLUDE\IOSTREAM
^C:\USERS\U1862679\ACGD\ASSIGNMENT\ENGINE\SOURCE\ASPENRENDERER\CAMERA.CPP
C:\USERS\U1862679\ACGD\ASSIGNMENT\ENGINE\X64\DEBUG\ASSIGNMENT.PCH
C:\USERS\U1862679\ACGD\ASSIGNMENT\ENGINE\SOURCE\ASPENRENDERER\CAMERA.H
^C:\USERS\U1862679\ACGD\ASSIGNMENT\ENGINE\SOURCE\ASPENRENDERER\GAMEOBJECTS\GAMEOBJECTS.CPP
C:\USERS\U1862679\ACGD\ASSIGNMENT\ENGINE\X64\DEBUG\ASSIGNMENT.PCH
C:\USERS\U1862679\ACGD\ASSIGNMENT\ENGINE\SOURCE\ASPENRENDERER\GAMEOBJECTS\GAMEOBJECTS.H
C:\USERS\U1862679\ACGD\ASSIGNMENT\ENGINE\SOURCE\ASPENRENDERER\GAMEOBJECTS\MODELGAMEOBJECT.H
C:\USERS\U1862679\ACGD\ASSIGNMENT\ENGINE\SOURCE\ASPENRENDERER\GAMEOBJECTS\GAMEOBJECT.H
C:\USERS\U1862679\ACGD\ASSIGNMENT\ENGINE\SOURCE\ASPENRENDERER\RENDERMANAGER.H
C:\USERS\U1862679\ACGD\ASSIGNMENT\ENGINE\SOURCE\ASPENRENDERER\CAMERA.H
C:\USERS\U1862679\ACGD\ASSIGNMENT\ENGINE\SOURCE\D3DCLASS.H
C:\USERS\U1862679\ACGD\ASSIGNMENT\ENGINE\SOURCE\ASPENRENDERER\MODELS\FIREMODEL.H
C:\USERS\U1862679\ACGD\ASSIGNMENT\ENGINE\SOURCE\ASPENRENDERER\MODELS\MODEL.H
C:\USERS\U1862679\ACGD\ASSIGNMENT\ENGINE\SOURCE\ASPENRENDERER\AABB.H
C:\USERS\U1862679\ACGD\ASSIGNMENT\ENGINE\SOURCE\ASPENRENDERER\MODELS\WINDOWMODEL.H
C:\USERS\U1862679\ACGD\ASSIGNMENT\ENGINE\SOURCE\ASPENRENDERER\SHADERS\DEFERREDLIGHTSHADER.H
C:\USERS\U1862679\ACGD\ASSIGNMENT\ENGINE\SOURCE\ASPENRENDERER\SHADERS\SHADER.H
C:\USERS\U1862679\ACGD\ASSIGNMENT\ENGINE\SOURCE\ASPENRENDERER\DEFERREDBUFFERS.H
C:\USERS\U1862679\ACGD\ASSIGNMENT\ENGINE\SOURCE\ASPENRENDERER\POINTLIGHT.H
C:\USERS\U1862679\ACGD\ASSIGNMENT\ENGINE\SOURCE\ASPENRENDERER\SHADERS\FIRESHADER.H
C:\USERS\U1862679\ACGD\ASSIGNMENT\ENGINE\SOURCE\ASPENRENDERER\SHADERS\MIRRORSHADER.H
^C:\USERS\U1862679\ACGD\ASSIGNMENT\ENGINE\SOURCE\ASPENRENDERER\GAMEOBJECTS\MIRRORGAMEOBJECT.CPP
C:\USERS\U1862679\ACGD\ASSIGNMENT\ENGINE\X64\DEBUG\ASSIGNMENT.PCH
C:\USERS\U1862679\ACGD\ASSIGNMENT\ENGINE\SOURCE\ASPENRENDERER\GAMEOBJECTS\MIRRORGAMEOBJECT.H
C:\USERS\U1862679\ACGD\ASSIGNMENT\ENGINE\SOURCE\ASPENRENDERER\GAMEOBJECTS\GAMEOBJECTS.H
C:\USERS\U1862679\ACGD\ASSIGNMENT\ENGINE\SOURCE\ASPENRENDERER\GAMEOBJECTS\MODELGAMEOBJECT.H
C:\USERS\U1862679\ACGD\ASSIGNMENT\ENGINE\SOURCE\ASPENRENDERER\GAMEOBJECTS\GAMEOBJECT.H
C:\USERS\U1862679\ACGD\ASSIGNMENT\ENGINE\SOURCE\ASPENRENDERER\RENDERMANAGER.H
C:\USERS\U1862679\ACGD\ASSIGNMENT\ENGINE\SOURCE\ASPENRENDERER\CAMERA.H
C:\USERS\U1862679\ACGD\ASSIGNMENT\ENGINE\SOURCE\D3DCLASS.H
C:\USERS\U1862679\ACGD\ASSIGNMENT\ENGINE\SOURCE\ASPENRENDERER\MODELS\FIREMODEL.H
C:\USERS\U1862679\ACGD\ASSIGNMENT\ENGINE\SOURCE\ASPENRENDERER\MODELS\MODEL.H
C:\USERS\U1862679\ACGD\ASSIGNMENT\ENGINE\SOURCE\ASPENRENDERER\AABB.H
C:\USERS\U1862679\ACGD\ASSIGNMENT\ENGINE\SOURCE\ASPENRENDERER\MODELS\WINDOWMODEL.H
C:\USERS\U1862679\ACGD\ASSIGNMENT\ENGINE\SOURCE\ASPENRENDERER\SHADERS\DEFERREDLIGHTSHADER.H
C:\USERS\U1862679\ACGD\ASSIGNMENT\ENGINE\SOURCE\ASPENRENDERER\SHADERS\SHADER.H
C:\USERS\U1862679\ACGD\ASSIGNMENT\ENGINE\SOURCE\ASPENRENDERER\DEFERREDBUFFERS.H
C:\USERS\U1862679\ACGD\ASSIGNMENT\ENGINE\SOURCE\ASPENRENDERER\POINTLIGHT.H
C:\USERS\U1862679\ACGD\ASSIGNMENT\ENGINE\SOURCE\ASPENRENDERER\SHADERS\FIRESHADER.H
C:\USERS\U1862679\ACGD\ASSIGNMENT\ENGINE\SOURCE\ASPENRENDERER\SHADERS\MIRRORSHADER.H
^C:\USERS\U1862679\ACGD\ASSIGNMENT\ENGINE\SOURCE\ASPENRENDERER\GAMEOBJECTS\MODELGAMEOBJECT.CPP
C:\USERS\U1862679\ACGD\ASSIGNMENT\ENGINE\X64\DEBUG\ASSIGNMENT.PCH
C:\USERS\U1862679\ACGD\ASSIGNMENT\ENGINE\SOURCE\ASPENRENDERER\GAMEOBJECTS\MODELGAMEOBJECT.H
C:\USERS\U1862679\ACGD\ASSIGNMENT\ENGINE\SOURCE\ASPENRENDERER\GAMEOBJECTS\GAMEOBJECT.H
C:\USERS\U1862679\ACGD\ASSIGNMENT\ENGINE\SOURCE\ASPENRENDERER\RENDERMANAGER.H
C:\USERS\U1862679\ACGD\ASSIGNMENT\ENGINE\SOURCE\ASPENRENDERER\CAMERA.H
C:\USERS\U1862679\ACGD\ASSIGNMENT\ENGINE\SOURCE\D3DCLASS.H
C:\USERS\U1862679\ACGD\ASSIGNMENT\ENGINE\SOURCE\ASPENRENDERER\MODELS\FIREMODEL.H
C:\USERS\U1862679\ACGD\ASSIGNMENT\ENGINE\SOURCE\ASPENRENDERER\MODELS\MODEL.H
C:\USERS\U1862679\ACGD\ASSIGNMENT\ENGINE\SOURCE\ASPENRENDERER\AABB.H
C:\USERS\U1862679\ACGD\ASSIGNMENT\ENGINE\SOURCE\ASPENRENDERER\MODELS\WINDOWMODEL.H
C:\USERS\U1862679\ACGD\ASSIGNMENT\ENGINE\SOURCE\ASPENRENDERER\SHADERS\DEFERREDLIGHTSHADER.H
C:\USERS\U1862679\ACGD\ASSIGNMENT\ENGINE\SOURCE\ASPENRENDERER\SHADERS\SHADER.H
C:\USERS\U1862679\ACGD\ASSIGNMENT\ENGINE\SOURCE\ASPENRENDERER\DEFERREDBUFFERS.H
C:\USERS\U1862679\ACGD\ASSIGNMENT\ENGINE\SOURCE\ASPENRENDERER\POINTLIGHT.H
C:\USERS\U1862679\ACGD\ASSIGNMENT\ENGINE\SOURCE\ASPENRENDERER\SHADERS\FIRESHADER.H
C:\USERS\U1862679\ACGD\ASSIGNMENT\ENGINE\SOURCE\ASPENRENDERER\SHADERS\MIRRORSHADER.H
^C:\USERS\U1862679\ACGD\ASSIGNMENT\ENGINE\SOURCE\ASPENRENDERER\GAMEOBJECTS\ROOTGAMEOBJECT.CPP
C:\USERS\U1862679\ACGD\ASSIGNMENT\ENGINE\X64\DEBUG\ASSIGNMENT.PCH
C:\USERS\U1862679\ACGD\ASSIGNMENT\ENGINE\SOURCE\ASPENRENDERER\GAMEOBJECTS\ROOTGAMEOBJECT.H
C:\USERS\U1862679\ACGD\ASSIGNMENT\ENGINE\SOURCE\ASPENRENDERER\GAMEOBJECTS\GAMEOBJECT.H
C:\USERS\U1862679\ACGD\ASSIGNMENT\ENGINE\SOURCE\ASPENRENDERER\RENDERMANAGER.H
C:\USERS\U1862679\ACGD\ASSIGNMENT\ENGINE\SOURCE\ASPENRENDERER\CAMERA.H
C:\USERS\U1862679\ACGD\ASSIGNMENT\ENGINE\SOURCE\D3DCLASS.H
C:\USERS\U1862679\ACGD\ASSIGNMENT\ENGINE\SOURCE\ASPENRENDERER\MODELS\FIREMODEL.H
C:\USERS\U1862679\ACGD\ASSIGNMENT\ENGINE\SOURCE\ASPENRENDERER\MODELS\MODEL.H
C:\USERS\U1862679\ACGD\ASSIGNMENT\ENGINE\SOURCE\ASPENRENDERER\AABB.H
C:\USERS\U1862679\ACGD\ASSIGNMENT\ENGINE\SOURCE\ASPENRENDERER\MODELS\WINDOWMODEL.H
C:\USERS\U1862679\ACGD\ASSIGNMENT\ENGINE\SOURCE\ASPENRENDERER\SHADERS\DEFERREDLIGHTSHADER.H
C:\USERS\U1862679\ACGD\ASSIGNMENT\ENGINE\SOURCE\ASPENRENDERER\SHADERS\SHADER.H
C:\USERS\U1862679\ACGD\ASSIGNMENT\ENGINE\SOURCE\ASPENRENDERER\DEFERREDBUFFERS.H
C:\USERS\U1862679\ACGD\ASSIGNMENT\ENGINE\SOURCE\ASPENRENDERER\POINTLIGHT.H
C:\USERS\U1862679\ACGD\ASSIGNMENT\ENGINE\SOURCE\ASPENRENDERER\SHADERS\FIRESHADER.H
C:\USERS\U1862679\ACGD\ASSIGNMENT\ENGINE\SOURCE\ASPENRENDERER\SHADERS\MIRRORSHADER.H
C:\USERS\U1862679\ACGD\ASSIGNMENT\ENGINE\SOURCE\ASPENRENDERER\GAMEOBJECTS\MIRRORGAMEOBJECT.H
C:\USERS\U1862679\ACGD\ASSIGNMENT\ENGINE\SOURCE\ASPENRENDERER\GAMEOBJECTS\GAMEOBJECTS.H
C:\USERS\U1862679\ACGD\ASSIGNMENT\ENGINE\SOURCE\ASPENRENDERER\GAMEOBJECTS\MODELGAMEOBJECT.H
^C:\USERS\U1862679\ACGD\ASSIGNMENT\ENGINE\SOURCE\ASPENRENDERER\RENDERMANAGER.CPP
C:\USERS\U1862679\ACGD\ASSIGNMENT\ENGINE\X64\DEBUG\ASSIGNMENT.PCH
C:\USERS\U1862679\ACGD\ASSIGNMENT\ENGINE\SOURCE\ASPENRENDERER\RENDERMANAGER.H
C:\USERS\U1862679\ACGD\ASSIGNMENT\ENGINE\SOURCE\ASPENRENDERER\CAMERA.H
C:\USERS\U1862679\ACGD\ASSIGNMENT\ENGINE\SOURCE\D3DCLASS.H
C:\USERS\U1862679\ACGD\ASSIGNMENT\ENGINE\SOURCE\ASPENRENDERER\MODELS\FIREMODEL.H
C:\USERS\U1862679\ACGD\ASSIGNMENT\ENGINE\SOURCE\ASPENRENDERER\MODELS\MODEL.H
C:\USERS\U1862679\ACGD\ASSIGNMENT\ENGINE\SOURCE\ASPENRENDERER\AABB.H
C:\USERS\U1862679\ACGD\ASSIGNMENT\ENGINE\SOURCE\ASPENRENDERER\MODELS\WINDOWMODEL.H
C:\USERS\U1862679\ACGD\ASSIGNMENT\ENGINE\SOURCE\ASPENRENDERER\SHADERS\DEFERREDLIGHTSHADER.H
C:\USERS\U1862679\ACGD\ASSIGNMENT\ENGINE\SOURCE\ASPENRENDERER\SHADERS\SHADER.H
C:\USERS\U1862679\ACGD\ASSIGNMENT\ENGINE\SOURCE\ASPENRENDERER\DEFERREDBUFFERS.H
C:\USERS\U1862679\ACGD\ASSIGNMENT\ENGINE\SOURCE\ASPENRENDERER\POINTLIGHT.H
C:\USERS\U1862679\ACGD\ASSIGNMENT\ENGINE\SOURCE\ASPENRENDERER\SHADERS\FIRESHADER.H
C:\USERS\U1862679\ACGD\ASSIGNMENT\ENGINE\SOURCE\ASPENRENDERER\SHADERS\MIRRORSHADER.H
^C:\USERS\U1862679\ACGD\ASSIGNMENT\ENGINE\SOURCE\CONTROLLERINTERFACE.CPP
C:\USERS\U1862679\ACGD\ASSIGNMENT\ENGINE\X64\DEBUG\ASSIGNMENT.PCH
C:\USERS\U1862679\ACGD\ASSIGNMENT\ENGINE\SOURCE\CONTROLLERINTERFACE.H
^C:\USERS\U1862679\ACGD\ASSIGNMENT\ENGINE\SOURCE\MAIN.CPP
C:\USERS\U1862679\ACGD\ASSIGNMENT\ENGINE\X64\DEBUG\ASSIGNMENT.PCH
C:\USERS\U1862679\ACGD\ASSIGNMENT\ENGINE\SOURCE\SYSTEMCLASS.H
C:\USERS\U1862679\ACGD\ASSIGNMENT\ENGINE\SOURCE\CONTROLLERINTERFACE.H
C:\USERS\U1862679\ACGD\ASSIGNMENT\ENGINE\SOURCE\INPUTCLASS.H
C:\PROGRAM FILES (X86)\WINDOWS KITS\10\INCLUDE\10.0.19041.0\UM\DINPUT.H
C:\USERS\U1862679\ACGD\ASSIGNMENT\ENGINE\SOURCE\WEBCAMINPUT.H
C:\USERS\U1862679\ACGD\ASSIGNMENT\ENGINE\SOURCE\ASPENRENDERER\GAME.H
C:\USERS\U1862679\ACGD\ASSIGNMENT\ENGINE\SOURCE\ASPENRENDERER\CAMERA.H
C:\USERS\U1862679\ACGD\ASSIGNMENT\ENGINE\SOURCE\ASPENRENDERER\CONTROLLER.H
C:\USERS\U1862679\ACGD\ASSIGNMENT\ENGINE\SOURCE\ASPENRENDERER\GAMEOBJECTS\MODELGAMEOBJECT.H
C:\USERS\U1862679\ACGD\ASSIGNMENT\ENGINE\SOURCE\ASPENRENDERER\GAMEOBJECTS\GAMEOBJECT.H
C:\USERS\U1862679\ACGD\ASSIGNMENT\ENGINE\SOURCE\ASPENRENDERER\RENDERMANAGER.H
C:\USERS\U1862679\ACGD\ASSIGNMENT\ENGINE\SOURCE\D3DCLASS.H
C:\USERS\U1862679\ACGD\ASSIGNMENT\ENGINE\SOURCE\ASPENRENDERER\MODELS\FIREMODEL.H
C:\USERS\U1862679\ACGD\ASSIGNMENT\ENGINE\SOURCE\ASPENRENDERER\MODELS\MODEL.H
C:\USERS\U1862679\ACGD\ASSIGNMENT\ENGINE\SOURCE\ASPENRENDERER\AABB.H
C:\USERS\U1862679\ACGD\ASSIGNMENT\ENGINE\SOURCE\ASPENRENDERER\MODELS\WINDOWMODEL.H
C:\USERS\U1862679\ACGD\ASSIGNMENT\ENGINE\SOURCE\ASPENRENDERER\SHADERS\DEFERREDLIGHTSHADER.H
C:\USERS\U1862679\ACGD\ASSIGNMENT\ENGINE\SOURCE\ASPENRENDERER\SHADERS\SHADER.H
C:\USERS\U1862679\ACGD\ASSIGNMENT\ENGINE\SOURCE\ASPENRENDERER\DEFERREDBUFFERS.H
C:\USERS\U1862679\ACGD\ASSIGNMENT\ENGINE\SOURCE\ASPENRENDERER\POINTLIGHT.H
C:\USERS\U1862679\ACGD\ASSIGNMENT\ENGINE\SOURCE\ASPENRENDERER\SHADERS\FIRESHADER.H
C:\USERS\U1862679\ACGD\ASSIGNMENT\ENGINE\SOURCE\ASPENRENDERER\SHADERS\MIRRORSHADER.H
C:\USERS\U1862679\ACGD\ASSIGNMENT\ENGINE\SOURCE\ASPENRENDERER\GAMEOBJECTS\GAMEOBJECTS.H
C:\USERS\U1862679\ACGD\ASSIGNMENT\ENGINE\SOURCE\TIMERCLASS.H
^C:\USERS\U1862679\ACGD\ASSIGNMENT\ENGINE\SOURCE\SYSTEMCLASS.CPP
C:\USERS\U1862679\ACGD\ASSIGNMENT\ENGINE\X64\DEBUG\ASSIGNMENT.PCH
C:\USERS\U1862679\ACGD\ASSIGNMENT\ENGINE\SOURCE\SYSTEMCLASS.H
C:\USERS\U1862679\ACGD\ASSIGNMENT\ENGINE\SOURCE\CONTROLLERINTERFACE.H
C:\USERS\U1862679\ACGD\ASSIGNMENT\ENGINE\SOURCE\INPUTCLASS.H
C:\PROGRAM FILES (X86)\WINDOWS KITS\10\INCLUDE\10.0.19041.0\UM\DINPUT.H
C:\USERS\U1862679\ACGD\ASSIGNMENT\ENGINE\SOURCE\WEBCAMINPUT.H
C:\USERS\U1862679\ACGD\ASSIGNMENT\ENGINE\SOURCE\ASPENRENDERER\GAME.H
C:\USERS\U1862679\ACGD\ASSIGNMENT\ENGINE\SOURCE\ASPENRENDERER\CAMERA.H
C:\USERS\U1862679\ACGD\ASSIGNMENT\ENGINE\SOURCE\ASPENRENDERER\CONTROLLER.H
C:\USERS\U1862679\ACGD\ASSIGNMENT\ENGINE\SOURCE\ASPENRENDERER\GAMEOBJECTS\MODELGAMEOBJECT.H
C:\USERS\U1862679\ACGD\ASSIGNMENT\ENGINE\SOURCE\ASPENRENDERER\GAMEOBJECTS\GAMEOBJECT.H
C:\USERS\U1862679\ACGD\ASSIGNMENT\ENGINE\SOURCE\ASPENRENDERER\RENDERMANAGER.H
C:\USERS\U1862679\ACGD\ASSIGNMENT\ENGINE\SOURCE\D3DCLASS.H
C:\USERS\U1862679\ACGD\ASSIGNMENT\ENGINE\SOURCE\ASPENRENDERER\MODELS\FIREMODEL.H
C:\USERS\U1862679\ACGD\ASSIGNMENT\ENGINE\SOURCE\ASPENRENDERER\MODELS\MODEL.H
C:\USERS\U1862679\ACGD\ASSIGNMENT\ENGINE\SOURCE\ASPENRENDERER\AABB.H
C:\USERS\U1862679\ACGD\ASSIGNMENT\ENGINE\SOURCE\ASPENRENDERER\MODELS\WINDOWMODEL.H
C:\USERS\U1862679\ACGD\ASSIGNMENT\ENGINE\SOURCE\ASPENRENDERER\SHADERS\DEFERREDLIGHTSHADER.H
C:\USERS\U1862679\ACGD\ASSIGNMENT\ENGINE\SOURCE\ASPENRENDERER\SHADERS\SHADER.H
C:\USERS\U1862679\ACGD\ASSIGNMENT\ENGINE\SOURCE\ASPENRENDERER\DEFERREDBUFFERS.H
C:\USERS\U1862679\ACGD\ASSIGNMENT\ENGINE\SOURCE\ASPENRENDERER\POINTLIGHT.H
C:\USERS\U1862679\ACGD\ASSIGNMENT\ENGINE\SOURCE\ASPENRENDERER\SHADERS\FIRESHADER.H
C:\USERS\U1862679\ACGD\ASSIGNMENT\ENGINE\SOURCE\ASPENRENDERER\SHADERS\MIRRORSHADER.H
C:\USERS\U1862679\ACGD\ASSIGNMENT\ENGINE\SOURCE\ASPENRENDERER\GAMEOBJECTS\GAMEOBJECTS.H
C:\USERS\U1862679\ACGD\ASSIGNMENT\ENGINE\SOURCE\TIMERCLASS.H
^C:\USERS\U1862679\ACGD\ASSIGNMENT\ENGINE\SOURCE\ASPENRENDERER\GAME.CPP
C:\USERS\U1862679\ACGD\ASSIGNMENT\ENGINE\X64\DEBUG\ASSIGNMENT.PCH
C:\USERS\U1862679\ACGD\ASSIGNMENT\ENGINE\SOURCE\ASPENRENDERER\GAME.H
C:\USERS\U1862679\ACGD\ASSIGNMENT\ENGINE\SOURCE\ASPENRENDERER\CAMERA.H
C:\USERS\U1862679\ACGD\ASSIGNMENT\ENGINE\SOURCE\ASPENRENDERER\CONTROLLER.H
C:\USERS\U1862679\ACGD\ASSIGNMENT\ENGINE\SOURCE\ASPENRENDERER\GAMEOBJECTS\MODELGAMEOBJECT.H
C:\USERS\U1862679\ACGD\ASSIGNMENT\ENGINE\SOURCE\ASPENRENDERER\GAMEOBJECTS\GAMEOBJECT.H
C:\USERS\U1862679\ACGD\ASSIGNMENT\ENGINE\SOURCE\ASPENRENDERER\RENDERMANAGER.H
C:\USERS\U1862679\ACGD\ASSIGNMENT\ENGINE\SOURCE\D3DCLASS.H
C:\USERS\U1862679\ACGD\ASSIGNMENT\ENGINE\SOURCE\ASPENRENDERER\MODELS\FIREMODEL.H
C:\USERS\U1862679\ACGD\ASSIGNMENT\ENGINE\SOURCE\ASPENRENDERER\MODELS\MODEL.H
C:\USERS\U1862679\ACGD\ASSIGNMENT\ENGINE\SOURCE\ASPENRENDERER\AABB.H
C:\USERS\U1862679\ACGD\ASSIGNMENT\ENGINE\SOURCE\ASPENRENDERER\MODELS\WINDOWMODEL.H
C:\USERS\U1862679\ACGD\ASSIGNMENT\ENGINE\SOURCE\ASPENRENDERER\SHADERS\DEFERREDLIGHTSHADER.H
C:\USERS\U1862679\ACGD\ASSIGNMENT\ENGINE\SOURCE\ASPENRENDERER\SHADERS\SHADER.H
C:\USERS\U1862679\ACGD\ASSIGNMENT\ENGINE\SOURCE\ASPENRENDERER\DEFERREDBUFFERS.H
C:\USERS\U1862679\ACGD\ASSIGNMENT\ENGINE\SOURCE\ASPENRENDERER\POINTLIGHT.H
C:\USERS\U1862679\ACGD\ASSIGNMENT\ENGINE\SOURCE\ASPENRENDERER\SHADERS\FIRESHADER.H
C:\USERS\U1862679\ACGD\ASSIGNMENT\ENGINE\SOURCE\ASPENRENDERER\SHADERS\MIRRORSHADER.H
C:\USERS\U1862679\ACGD\ASSIGNMENT\ENGINE\SOURCE\INPUTCLASS.H
C:\PROGRAM FILES (X86)\WINDOWS KITS\10\INCLUDE\10.0.19041.0\UM\DINPUT.H
C:\USERS\U1862679\ACGD\ASSIGNMENT\ENGINE\SOURCE\CONTROLLERINTERFACE.H
C:\USERS\U1862679\ACGD\ASSIGNMENT\ENGINE\SOURCE\ASPENRENDERER\GAMEOBJECTS\GAMEOBJECTS.H
C:\USERS\U1862679\ACGD\ASSIGNMENT\ENGINE\SOURCE\TIMERCLASS.H
C:\USERS\U1862679\ACGD\ASSIGNMENT\ENGINE\SOURCE\ASPENRENDERER\GAMEOBJECTS\ROOTGAMEOBJECT.H
^C:\USERS\U1862679\ACGD\ASSIGNMENT\ENGINE\SOURCE\WEBCAMINPUT.CPP
C:\USERS\U1862679\ACGD\ASSIGNMENT\ENGINE\X64\DEBUG\ASSIGNMENT.PCH
C:\USERS\U1862679\ACGD\ASSIGNMENT\ENGINE\SOURCE\WEBCAMINPUT.H
C:\USERS\U1862679\ACGD\ASSIGNMENT\ENGINE\SOURCE\CONTROLLERINTERFACE.H
C:\USERS\U1862679\ACGD\ASSIGNMENT\ENGINE\SOURCE\SYSTEMCLASS.H
C:\USERS\U1862679\ACGD\ASSIGNMENT\ENGINE\SOURCE\INPUTCLASS.H
C:\PROGRAM FILES (X86)\WINDOWS KITS\10\INCLUDE\10.0.19041.0\UM\DINPUT.H
C:\USERS\U1862679\ACGD\ASSIGNMENT\ENGINE\SOURCE\ASPENRENDERER\GAME.H
C:\USERS\U1862679\ACGD\ASSIGNMENT\ENGINE\SOURCE\ASPENRENDERER\CAMERA.H
C:\USERS\U1862679\ACGD\ASSIGNMENT\ENGINE\SOURCE\ASPENRENDERER\CONTROLLER.H
C:\USERS\U1862679\ACGD\ASSIGNMENT\ENGINE\SOURCE\ASPENRENDERER\GAMEOBJECTS\MODELGAMEOBJECT.H
C:\USERS\U1862679\ACGD\ASSIGNMENT\ENGINE\SOURCE\ASPENRENDERER\GAMEOBJECTS\GAMEOBJECT.H
C:\USERS\U1862679\ACGD\ASSIGNMENT\ENGINE\SOURCE\ASPENRENDERER\RENDERMANAGER.H
C:\USERS\U1862679\ACGD\ASSIGNMENT\ENGINE\SOURCE\D3DCLASS.H
C:\USERS\U1862679\ACGD\ASSIGNMENT\ENGINE\SOURCE\ASPENRENDERER\MODELS\FIREMODEL.H
C:\USERS\U1862679\ACGD\ASSIGNMENT\ENGINE\SOURCE\ASPENRENDERER\MODELS\MODEL.H
C:\USERS\U1862679\ACGD\ASSIGNMENT\ENGINE\SOURCE\ASPENRENDERER\AABB.H
C:\USERS\U1862679\ACGD\ASSIGNMENT\ENGINE\SOURCE\ASPENRENDERER\MODELS\WINDOWMODEL.H
C:\USERS\U1862679\ACGD\ASSIGNMENT\ENGINE\SOURCE\ASPENRENDERER\SHADERS\DEFERREDLIGHTSHADER.H
C:\USERS\U1862679\ACGD\ASSIGNMENT\ENGINE\SOURCE\ASPENRENDERER\SHADERS\SHADER.H
C:\USERS\U1862679\ACGD\ASSIGNMENT\ENGINE\SOURCE\ASPENRENDERER\DEFERREDBUFFERS.H
C:\USERS\U1862679\ACGD\ASSIGNMENT\ENGINE\SOURCE\ASPENRENDERER\POINTLIGHT.H
C:\USERS\U1862679\ACGD\ASSIGNMENT\ENGINE\SOURCE\ASPENRENDERER\SHADERS\FIRESHADER.H
C:\USERS\U1862679\ACGD\ASSIGNMENT\ENGINE\SOURCE\ASPENRENDERER\SHADERS\MIRRORSHADER.H
C:\USERS\U1862679\ACGD\ASSIGNMENT\ENGINE\SOURCE\ASPENRENDERER\GAMEOBJECTS\GAMEOBJECTS.H
C:\USERS\U1862679\ACGD\ASSIGNMENT\ENGINE\SOURCE\TIMERCLASS.H
C:\PROGRAM FILES (X86)\MICROSOFT VISUAL STUDIO\2019\ENTERPRISE\VC\TOOLS\MSVC\14.29.30037\INCLUDE\IOSTREAM
^C:\USERS\U1862679\ACGD\ASSIGNMENT\ENGINE\SOURCE\ASPENRENDERER\CONTROLLER.CPP
C:\WINDOWS\GLOBALIZATION\SORTING\SORTDEFAULT.NLS
C:\USERS\U1862679\ACGD\ASSIGNMENT\ENGINE\X64\DEBUG\ASSIGNMENT.PCH
C:\PROGRAM FILES (X86)\MICROSOFT VISUAL STUDIO\2019\ENTERPRISE\VC\TOOLS\MSVC\14.29.30037\BIN\HOSTX86\X64\1033\CLUI.DLL
C:\WINDOWS\SYSTEM32\TZRES.DLL
C:\USERS\U1862679\ACGD\ASSIGNMENT\ENGINE\SOURCE\ASPENRENDERER\CONTROLLER.H
C:\USERS\U1862679\ACGD\ASSIGNMENT\ENGINE\SOURCE\ASPENRENDERER\CAMERA.H
C:\USERS\U1862679\ACGD\ASSIGNMENT\ENGINE\SOURCE\ASPENRENDERER\GAMEOBJECTS\MODELGAMEOBJECT.H
C:\USERS\U1862679\ACGD\ASSIGNMENT\ENGINE\SOURCE\ASPENRENDERER\GAMEOBJECTS\GAMEOBJECT.H
C:\USERS\U1862679\ACGD\ASSIGNMENT\ENGINE\SOURCE\ASPENRENDERER\RENDERMANAGER.H
C:\USERS\U1862679\ACGD\ASSIGNMENT\ENGINE\SOURCE\D3DCLASS.H
C:\USERS\U1862679\ACGD\ASSIGNMENT\ENGINE\SOURCE\ASPENRENDERER\MODELS\FIREMODEL.H
C:\USERS\U1862679\ACGD\ASSIGNMENT\ENGINE\SOURCE\ASPENRENDERER\MODELS\MODEL.H
C:\USERS\U1862679\ACGD\ASSIGNMENT\ENGINE\SOURCE\ASPENRENDERER\AABB.H
C:\USERS\U1862679\ACGD\ASSIGNMENT\ENGINE\SOURCE\ASPENRENDERER\MODELS\WINDOWMODEL.H
C:\USERS\U1862679\ACGD\ASSIGNMENT\ENGINE\SOURCE\ASPENRENDERER\SHADERS\DEFERREDLIGHTSHADER.H
C:\USERS\U1862679\ACGD\ASSIGNMENT\ENGINE\SOURCE\ASPENRENDERER\SHADERS\SHADER.H
C:\USERS\U1862679\ACGD\ASSIGNMENT\ENGINE\SOURCE\ASPENRENDERER\DEFERREDBUFFERS.H
C:\USERS\U1862679\ACGD\ASSIGNMENT\ENGINE\SOURCE\ASPENRENDERER\POINTLIGHT.H
C:\USERS\U1862679\ACGD\ASSIGNMENT\ENGINE\SOURCE\ASPENRENDERER\SHADERS\FIRESHADER.H
C:\USERS\U1862679\ACGD\ASSIGNMENT\ENGINE\SOURCE\ASPENRENDERER\SHADERS\MIRRORSHADER.H
C:\USERS\U1862679\ACGD\ASSIGNMENT\ENGINE\SOURCE\INPUTCLASS.H
C:\PROGRAM FILES (X86)\WINDOWS KITS\10\INCLUDE\10.0.19041.0\UM\DINPUT.H
C:\USERS\U1862679\ACGD\ASSIGNMENT\ENGINE\SOURCE\CONTROLLERINTERFACE.H
