^C:\PROJECTS\UNI\ACGD\ASSIGNMENT\ENGINE\SOURCE\DDSTEXTURELOADER.CPP
/c /ZI /nologo /W3 /WX- /diagnostics:column /Od /Oy- /D WIN32 /D _DEBUG /D _WINDOWS /D _WIN32_WINNT=0x0600 /D _UNICODE /D UNICODE /Gm- /EHsc /RTC1 /MDd /GS /fp:precise /Zc:wchar_t /Zc:forScope /Zc:inline /Fo"DEBUG\\" /Fd"DEBUG\VC142.PDB" /external:W3 /Gd /TP /analyze- /FC C:\PROJECTS\UNI\ACGD\ASSIGNMENT\ENGINE\SOURCE\DDSTEXTURELOADER.CPP
^C:\PROJECTS\UNI\ACGD\ASSIGNMENT\ENGINE\PCH.CPP
/c /ZI /nologo /W3 /WX- /diagnostics:column /Od /Oy- /D WIN32 /D _DEBUG /D _WINDOWS /D _WIN32_WINNT=0x0600 /D _UNICODE /D UNICODE /Gm- /EHsc /RTC1 /MDd /GS /fp:precise /Zc:wchar_t /Zc:forScope /Zc:inline /Yc"pch.h" /Fp"DEBUG\ASSIGNMENT.PCH" /Fo"DEBUG\\" /Fd"DEBUG\VC142.PDB" /external:W3 /Gd /TP /analyze- /FC C:\PROJECTS\UNI\ACGD\ASSIGNMENT\ENGINE\PCH.CPP
^C:\PROJECTS\UNI\ACGD\ASSIGNMENT\ENGINE\SOURCE\ASPENRENDERER\CAMERA.CPP
/c /ZI /nologo /W3 /WX- /diagnostics:column /Od /Oy- /D WIN32 /D _DEBUG /D _WINDOWS /D _WIN32_WINNT=0x0600 /D _UNICODE /D UNICODE /Gm- /EHsc /RTC1 /MDd /GS /fp:precise /Zc:wchar_t /Zc:forScope /Zc:inline /Yu"pch.h" /Fp"DEBUG\ASSIGNMENT.PCH" /Fo"DEBUG\\" /Fd"DEBUG\VC142.PDB" /external:W3 /Gd /TP /analyze- /FC C:\PROJECTS\UNI\ACGD\ASSIGNMENT\ENGINE\SOURCE\ASPENRENDERER\CAMERA.CPP
^C:\PROJECTS\UNI\ACGD\ASSIGNMENT\ENGINE\SOURCE\ASPENRENDERER\CONTROLLER.CPP
/c /ZI /nologo /W3 /WX- /diagnostics:column /Od /Oy- /D WIN32 /D _DEBUG /D _WINDOWS /D _WIN32_WINNT=0x0600 /D _UNICODE /D UNICODE /Gm- /EHsc /RTC1 /MDd /GS /fp:precise /Zc:wchar_t /Zc:forScope /Zc:inline /Yu"pch.h" /Fp"DEBUG\ASSIGNMENT.PCH" /Fo"DEBUG\\" /Fd"DEBUG\VC142.PDB" /external:W3 /Gd /TP /analyze- /FC C:\PROJECTS\UNI\ACGD\ASSIGNMENT\ENGINE\SOURCE\ASPENRENDERER\CONTROLLER.CPP
^C:\PROJECTS\UNI\ACGD\ASSIGNMENT\ENGINE\SOURCE\ASPENRENDERER\DEFERREDBUFFERS.CPP
/c /ZI /nologo /W3 /WX- /diagnostics:column /Od /Oy- /D WIN32 /D _DEBUG /D _WINDOWS /D _WIN32_WINNT=0x0600 /D _UNICODE /D UNICODE /Gm- /EHsc /RTC1 /MDd /GS /fp:precise /Zc:wchar_t /Zc:forScope /Zc:inline /Yu"pch.h" /Fp"DEBUG\ASSIGNMENT.PCH" /Fo"DEBUG\\" /Fd"DEBUG\VC142.PDB" /external:W3 /Gd /TP /analyze- /FC C:\PROJECTS\UNI\ACGD\ASSIGNMENT\ENGINE\SOURCE\ASPENRENDERER\DEFERREDBUFFERS.CPP
^C:\PROJECTS\UNI\ACGD\ASSIGNMENT\ENGINE\SOURCE\ASPENRENDERER\GAME.CPP
/c /ZI /nologo /W3 /WX- /diagnostics:column /Od /Oy- /D WIN32 /D _DEBUG /D _WINDOWS /D _WIN32_WINNT=0x0600 /D _UNICODE /D UNICODE /Gm- /EHsc /RTC1 /MDd /GS /fp:precise /Zc:wchar_t /Zc:forScope /Zc:inline /Yu"pch.h" /Fp"DEBUG\ASSIGNMENT.PCH" /Fo"DEBUG\\" /Fd"DEBUG\VC142.PDB" /external:W3 /Gd /TP /analyze- /FC C:\PROJECTS\UNI\ACGD\ASSIGNMENT\ENGINE\SOURCE\ASPENRENDERER\GAME.CPP
^C:\PROJECTS\UNI\ACGD\ASSIGNMENT\ENGINE\SOURCE\ASPENRENDERER\GAMEOBJECTS\GAMEOBJECT.CPP
/c /ZI /nologo /W3 /WX- /diagnostics:column /Od /Oy- /D WIN32 /D _DEBUG /D _WINDOWS /D _WIN32_WINNT=0x0600 /D _UNICODE /D UNICODE /Gm- /EHsc /RTC1 /MDd /GS /fp:precise /Zc:wchar_t /Zc:forScope /Zc:inline /Yu"pch.h" /Fp"DEBUG\ASSIGNMENT.PCH" /Fo"DEBUG\\" /Fd"DEBUG\VC142.PDB" /external:W3 /Gd /TP /analyze- /FC C:\PROJECTS\UNI\ACGD\ASSIGNMENT\ENGINE\SOURCE\ASPENRENDERER\GAMEOBJECTS\GAMEOBJECT.CPP
^C:\PROJECTS\UNI\ACGD\ASSIGNMENT\ENGINE\SOURCE\ASPENRENDERER\GAMEOBJECTS\GAMEOBJECTS.CPP
/c /ZI /nologo /W3 /WX- /diagnostics:column /Od /Oy- /D WIN32 /D _DEBUG /D _WINDOWS /D _WIN32_WINNT=0x0600 /D _UNICODE /D UNICODE /Gm- /EHsc /RTC1 /MDd /GS /fp:precise /Zc:wchar_t /Zc:forScope /Zc:inline /Yu"pch.h" /Fp"DEBUG\ASSIGNMENT.PCH" /Fo"DEBUG\\" /Fd"DEBUG\VC142.PDB" /external:W3 /Gd /TP /analyze- /FC C:\PROJECTS\UNI\ACGD\ASSIGNMENT\ENGINE\SOURCE\ASPENRENDERER\GAMEOBJECTS\GAMEOBJECTS.CPP
^C:\PROJECTS\UNI\ACGD\ASSIGNMENT\ENGINE\SOURCE\ASPENRENDERER\GAMEOBJECTS\MIRRORGAMEOBJECT.CPP
/c /ZI /nologo /W3 /WX- /diagnostics:column /Od /Oy- /D WIN32 /D _DEBUG /D _WINDOWS /D _WIN32_WINNT=0x0600 /D _UNICODE /D UNICODE /Gm- /EHsc /RTC1 /MDd /GS /fp:precise /Zc:wchar_t /Zc:forScope /Zc:inline /Yu"pch.h" /Fp"DEBUG\ASSIGNMENT.PCH" /Fo"DEBUG\\" /Fd"DEBUG\VC142.PDB" /external:W3 /Gd /TP /analyze- /FC C:\PROJECTS\UNI\ACGD\ASSIGNMENT\ENGINE\SOURCE\ASPENRENDERER\GAMEOBJECTS\MIRRORGAMEOBJECT.CPP
^C:\PROJECTS\UNI\ACGD\ASSIGNMENT\ENGINE\SOURCE\ASPENRENDERER\GAMEOBJECTS\MODELGAMEOBJECT.CPP
/c /ZI /nologo /W3 /WX- /diagnostics:column /Od /Oy- /D WIN32 /D _DEBUG /D _WINDOWS /D _WIN32_WINNT=0x0600 /D _UNICODE /D UNICODE /Gm- /EHsc /RTC1 /MDd /GS /fp:precise /Zc:wchar_t /Zc:forScope /Zc:inline /Yu"pch.h" /Fp"DEBUG\ASSIGNMENT.PCH" /Fo"DEBUG\\" /Fd"DEBUG\VC142.PDB" /external:W3 /Gd /TP /analyze- /FC C:\PROJECTS\UNI\ACGD\ASSIGNMENT\ENGINE\SOURCE\ASPENRENDERER\GAMEOBJECTS\MODELGAMEOBJECT.CPP
^C:\PROJECTS\UNI\ACGD\ASSIGNMENT\ENGINE\SOURCE\ASPENRENDERER\GAMEOBJECTS\ROOTGAMEOBJECT.CPP
/c /ZI /nologo /W3 /WX- /diagnostics:column /Od /Oy- /D WIN32 /D _DEBUG /D _WINDOWS /D _WIN32_WINNT=0x0600 /D _UNICODE /D UNICODE /Gm- /EHsc /RTC1 /MDd /GS /fp:precise /Zc:wchar_t /Zc:forScope /Zc:inline /Yu"pch.h" /Fp"DEBUG\ASSIGNMENT.PCH" /Fo"DEBUG\\" /Fd"DEBUG\VC142.PDB" /external:W3 /Gd /TP /analyze- /FC C:\PROJECTS\UNI\ACGD\ASSIGNMENT\ENGINE\SOURCE\ASPENRENDERER\GAMEOBJECTS\ROOTGAMEOBJECT.CPP
^C:\PROJECTS\UNI\ACGD\ASSIGNMENT\ENGINE\SOURCE\ASPENRENDERER\MODELS\FIREMODEL.CPP
/c /ZI /nologo /W3 /WX- /diagnostics:column /Od /Oy- /D WIN32 /D _DEBUG /D _WINDOWS /D _WIN32_WINNT=0x0600 /D _UNICODE /D UNICODE /Gm- /EHsc /RTC1 /MDd /GS /fp:precise /Zc:wchar_t /Zc:forScope /Zc:inline /Yu"pch.h" /Fp"DEBUG\ASSIGNMENT.PCH" /Fo"DEBUG\\" /Fd"DEBUG\VC142.PDB" /external:W3 /Gd /TP /analyze- /FC C:\PROJECTS\UNI\ACGD\ASSIGNMENT\ENGINE\SOURCE\ASPENRENDERER\MODELS\FIREMODEL.CPP
^C:\PROJECTS\UNI\ACGD\ASSIGNMENT\ENGINE\SOURCE\ASPENRENDERER\MODELS\MODEL.CPP
/c /ZI /nologo /W3 /WX- /diagnostics:column /Od /Oy- /D WIN32 /D _DEBUG /D _WINDOWS /D _WIN32_WINNT=0x0600 /D _UNICODE /D UNICODE /Gm- /EHsc /RTC1 /MDd /GS /fp:precise /Zc:wchar_t /Zc:forScope /Zc:inline /Yu"pch.h" /Fp"DEBUG\ASSIGNMENT.PCH" /Fo"DEBUG\\" /Fd"DEBUG\VC142.PDB" /external:W3 /Gd /TP /analyze- /FC C:\PROJECTS\UNI\ACGD\ASSIGNMENT\ENGINE\SOURCE\ASPENRENDERER\MODELS\MODEL.CPP
^C:\PROJECTS\UNI\ACGD\ASSIGNMENT\ENGINE\SOURCE\ASPENRENDERER\MODELS\WINDOWMODEL.CPP
/c /ZI /nologo /W3 /WX- /diagnostics:column /Od /Oy- /D WIN32 /D _DEBUG /D _WINDOWS /D _WIN32_WINNT=0x0600 /D _UNICODE /D UNICODE /Gm- /EHsc /RTC1 /MDd /GS /fp:precise /Zc:wchar_t /Zc:forScope /Zc:inline /Yu"pch.h" /Fp"DEBUG\ASSIGNMENT.PCH" /Fo"DEBUG\\" /Fd"DEBUG\VC142.PDB" /external:W3 /Gd /TP /analyze- /FC C:\PROJECTS\UNI\ACGD\ASSIGNMENT\ENGINE\SOURCE\ASPENRENDERER\MODELS\WINDOWMODEL.CPP
^C:\PROJECTS\UNI\ACGD\ASSIGNMENT\ENGINE\SOURCE\ASPENRENDERER\POINTLIGHT.CPP
/c /ZI /nologo /W3 /WX- /diagnostics:column /Od /Oy- /D WIN32 /D _DEBUG /D _WINDOWS /D _WIN32_WINNT=0x0600 /D _UNICODE /D UNICODE /Gm- /EHsc /RTC1 /MDd /GS /fp:precise /Zc:wchar_t /Zc:forScope /Zc:inline /Yu"pch.h" /Fp"DEBUG\ASSIGNMENT.PCH" /Fo"DEBUG\\" /Fd"DEBUG\VC142.PDB" /external:W3 /Gd /TP /analyze- /FC C:\PROJECTS\UNI\ACGD\ASSIGNMENT\ENGINE\SOURCE\ASPENRENDERER\POINTLIGHT.CPP
^C:\PROJECTS\UNI\ACGD\ASSIGNMENT\ENGINE\SOURCE\ASPENRENDERER\RENDERMANAGER.CPP
/c /ZI /nologo /W3 /WX- /diagnostics:column /Od /Oy- /D WIN32 /D _DEBUG /D _WINDOWS /D _WIN32_WINNT=0x0600 /D _UNICODE /D UNICODE /Gm- /EHsc /RTC1 /MDd /GS /fp:precise /Zc:wchar_t /Zc:forScope /Zc:inline /Yu"pch.h" /Fp"DEBUG\ASSIGNMENT.PCH" /Fo"DEBUG\\" /Fd"DEBUG\VC142.PDB" /external:W3 /Gd /TP /analyze- /FC C:\PROJECTS\UNI\ACGD\ASSIGNMENT\ENGINE\SOURCE\ASPENRENDERER\RENDERMANAGER.CPP
^C:\PROJECTS\UNI\ACGD\ASSIGNMENT\ENGINE\SOURCE\ASPENRENDERER\SHADERS\DEFERREDLIGHTSHADER.CPP
/c /ZI /nologo /W3 /WX- /diagnostics:column /Od /Oy- /D WIN32 /D _DEBUG /D _WINDOWS /D _WIN32_WINNT=0x0600 /D _UNICODE /D UNICODE /Gm- /EHsc /RTC1 /MDd /GS /fp:precise /Zc:wchar_t /Zc:forScope /Zc:inline /Yu"pch.h" /Fp"DEBUG\ASSIGNMENT.PCH" /Fo"DEBUG\\" /Fd"DEBUG\VC142.PDB" /external:W3 /Gd /TP /analyze- /FC C:\PROJECTS\UNI\ACGD\ASSIGNMENT\ENGINE\SOURCE\ASPENRENDERER\SHADERS\DEFERREDLIGHTSHADER.CPP
^C:\PROJECTS\UNI\ACGD\ASSIGNMENT\ENGINE\SOURCE\ASPENRENDERER\SHADERS\FIRESHADER.CPP
/c /ZI /nologo /W3 /WX- /diagnostics:column /Od /Oy- /D WIN32 /D _DEBUG /D _WINDOWS /D _WIN32_WINNT=0x0600 /D _UNICODE /D UNICODE /Gm- /EHsc /RTC1 /MDd /GS /fp:precise /Zc:wchar_t /Zc:forScope /Zc:inline /Yu"pch.h" /Fp"DEBUG\ASSIGNMENT.PCH" /Fo"DEBUG\\" /Fd"DEBUG\VC142.PDB" /external:W3 /Gd /TP /analyze- /FC C:\PROJECTS\UNI\ACGD\ASSIGNMENT\ENGINE\SOURCE\ASPENRENDERER\SHADERS\FIRESHADER.CPP
^C:\PROJECTS\UNI\ACGD\ASSIGNMENT\ENGINE\SOURCE\ASPENRENDERER\SHADERS\MIRRORSHADER.CPP
/c /ZI /nologo /W3 /WX- /diagnostics:column /Od /Oy- /D WIN32 /D _DEBUG /D _WINDOWS /D _WIN32_WINNT=0x0600 /D _UNICODE /D UNICODE /Gm- /EHsc /RTC1 /MDd /GS /fp:precise /Zc:wchar_t /Zc:forScope /Zc:inline /Yu"pch.h" /Fp"DEBUG\ASSIGNMENT.PCH" /Fo"DEBUG\\" /Fd"DEBUG\VC142.PDB" /external:W3 /Gd /TP /analyze- /FC C:\PROJECTS\UNI\ACGD\ASSIGNMENT\ENGINE\SOURCE\ASPENRENDERER\SHADERS\MIRRORSHADER.CPP
^C:\PROJECTS\UNI\ACGD\ASSIGNMENT\ENGINE\SOURCE\ASPENRENDERER\SHADERS\SHADER.CPP
/c /ZI /nologo /W3 /WX- /diagnostics:column /Od /Oy- /D WIN32 /D _DEBUG /D _WINDOWS /D _WIN32_WINNT=0x0600 /D _UNICODE /D UNICODE /Gm- /EHsc /RTC1 /MDd /GS /fp:precise /Zc:wchar_t /Zc:forScope /Zc:inline /Yu"pch.h" /Fp"DEBUG\ASSIGNMENT.PCH" /Fo"DEBUG\\" /Fd"DEBUG\VC142.PDB" /external:W3 /Gd /TP /analyze- /FC C:\PROJECTS\UNI\ACGD\ASSIGNMENT\ENGINE\SOURCE\ASPENRENDERER\SHADERS\SHADER.CPP
^C:\PROJECTS\UNI\ACGD\ASSIGNMENT\ENGINE\SOURCE\INPUTCLASS.CPP
/c /ZI /nologo /W3 /WX- /diagnostics:column /Od /Oy- /D WIN32 /D _DEBUG /D _WINDOWS /D _WIN32_WINNT=0x0600 /D _UNICODE /D UNICODE /Gm- /EHsc /RTC1 /MDd /GS /fp:precise /Zc:wchar_t /Zc:forScope /Zc:inline /Yu"pch.h" /Fp"DEBUG\ASSIGNMENT.PCH" /Fo"DEBUG\\" /Fd"DEBUG\VC142.PDB" /external:W3 /Gd /TP /analyze- /FC C:\PROJECTS\UNI\ACGD\ASSIGNMENT\ENGINE\SOURCE\INPUTCLASS.CPP
^C:\PROJECTS\UNI\ACGD\ASSIGNMENT\ENGINE\SOURCE\ASPENRENDERER\AABB.CPP
/c /ZI /nologo /W3 /WX- /diagnostics:column /Od /Oy- /D WIN32 /D _DEBUG /D _WINDOWS /D _WIN32_WINNT=0x0600 /D _UNICODE /D UNICODE /Gm- /EHsc /RTC1 /MDd /GS /fp:precise /Zc:wchar_t /Zc:forScope /Zc:inline /Yu"pch.h" /Fp"DEBUG\ASSIGNMENT.PCH" /Fo"DEBUG\\" /Fd"DEBUG\VC142.PDB" /external:W3 /Gd /TP /analyze- /FC C:\PROJECTS\UNI\ACGD\ASSIGNMENT\ENGINE\SOURCE\ASPENRENDERER\AABB.CPP
^C:\PROJECTS\UNI\ACGD\ASSIGNMENT\ENGINE\SOURCE\D3DCLASS.CPP
/c /ZI /nologo /W3 /WX- /diagnostics:column /Od /Oy- /D WIN32 /D _DEBUG /D _WINDOWS /D _WIN32_WINNT=0x0600 /D _UNICODE /D UNICODE /Gm- /EHsc /RTC1 /MDd /GS /fp:precise /Zc:wchar_t /Zc:forScope /Zc:inline /Yu"pch.h" /Fp"DEBUG\ASSIGNMENT.PCH" /Fo"DEBUG\\" /Fd"DEBUG\VC142.PDB" /external:W3 /Gd /TP /analyze- /FC C:\PROJECTS\UNI\ACGD\ASSIGNMENT\ENGINE\SOURCE\D3DCLASS.CPP
^C:\PROJECTS\UNI\ACGD\ASSIGNMENT\ENGINE\SOURCE\MAIN.CPP
/c /ZI /nologo /W3 /WX- /diagnostics:column /Od /Oy- /D WIN32 /D _DEBUG /D _WINDOWS /D _WIN32_WINNT=0x0600 /D _UNICODE /D UNICODE /Gm- /EHsc /RTC1 /MDd /GS /fp:precise /Zc:wchar_t /Zc:forScope /Zc:inline /Yu"pch.h" /Fp"DEBUG\ASSIGNMENT.PCH" /Fo"DEBUG\\" /Fd"DEBUG\VC142.PDB" /external:W3 /Gd /TP /analyze- /FC C:\PROJECTS\UNI\ACGD\ASSIGNMENT\ENGINE\SOURCE\MAIN.CPP
^C:\PROJECTS\UNI\ACGD\ASSIGNMENT\ENGINE\SOURCE\TIMERCLASS.CPP
/c /ZI /nologo /W3 /WX- /diagnostics:column /Od /Oy- /D WIN32 /D _DEBUG /D _WINDOWS /D _WIN32_WINNT=0x0600 /D _UNICODE /D UNICODE /Gm- /EHsc /RTC1 /MDd /GS /fp:precise /Zc:wchar_t /Zc:forScope /Zc:inline /Yu"pch.h" /Fp"DEBUG\ASSIGNMENT.PCH" /Fo"DEBUG\\" /Fd"DEBUG\VC142.PDB" /external:W3 /Gd /TP /analyze- /FC C:\PROJECTS\UNI\ACGD\ASSIGNMENT\ENGINE\SOURCE\TIMERCLASS.CPP
