^D:\U1862679\ACGD\WEEK06\X64\DEBUG\PROJECT1.OBJ
D:\U1862679\ACGD\WEEK06\X64\DEBUG\CONSOLEAPPLICATION1.EXE
D:\U1862679\ACGD\WEEK06\X64\DEBUG\CONSOLEAPPLICATION1.ILK
D:\U1862679\ACGD\WEEK06\X64\DEBUG\CONSOLEAPPLICATION1.PDB
