^E:\U1862679 ACGD\WEEK03\ACGTUT3\ACGTUT3\ACGTUT3.CPP
E:\U1862679 ACGD\WEEK03\ACGTUT3\ACGTUT3\X64\DEBUG\VC142.PDB
E:\U1862679 ACGD\WEEK03\ACGTUT3\ACGTUT3\X64\DEBUG\VC142.IDB
E:\U1862679 ACGD\WEEK03\ACGTUT3\ACGTUT3\X64\DEBUG\ACGTUT3.OBJ
