Vertex Count: 1194

Data:

-1.2 0.01 0.04 0.0203 0.1971 -0.5774 -0.5774 0.5774
1.2 0.01 0.04 0.7209 0.1971 0.5774 -0.5774 0.5774
1.2 0.03 0.04 0.721 0.2093 0.7305 0.2095 0.65
1.2 0.03 0.04 0.721 0.2093 0.7305 0.2095 0.65
-1.2 0.03 0.04 0.0204 0.2093 -0.7305 0.2095 0.65
-1.2 0.01 0.04 0.0203 0.1971 -0.5774 -0.5774 0.5774
-1.2 0.01 -0.04 0.0204 0.2916 -0.5774 -0.5774 -0.5774
-1.2 0.03 -0.04 0.0204 0.2794 -0.7305 0.2095 -0.65
1.2 0.03 -0.04 0.721 0.2794 0.7305 0.2095 -0.65
1.2 0.03 -0.04 0.721 0.2794 0.7305 0.2095 -0.65
1.2 0.01 -0.04 0.7209 0.2916 0.5774 -0.5774 -0.5774
-1.2 0.01 -0.04 0.0204 0.2916 -0.5774 -0.5774 -0.5774
-1.2 0.03 -0.04 0.0204 0.2794 -0.7305 0.2095 -0.65
-1.15 0.11 -0.04 0.035 0.256 -0.3832 0.6913 -0.6125
1.15 0.11 -0.04 0.7064 0.256 0.3832 0.6913 -0.6125
1.15 0.11 -0.04 0.7064 0.256 0.3832 0.6913 -0.6125
1.2 0.03 -0.04 0.721 0.2794 0.7305 0.2095 -0.65
-1.2 0.03 -0.04 0.0204 0.2794 -0.7305 0.2095 -0.65
-1.2 0.03 0.04 0.0204 0.2093 -0.7305 0.2095 0.65
1.2 0.03 0.04 0.721 0.2093 0.7305 0.2095 0.65
1.15 0.11 0.04 0.7064 0.2327 0.3832 0.6913 0.6125
1.15 0.11 0.04 0.7064 0.2327 0.3832 0.6913 0.6125
-1.15 0.11 0.04 0.035 0.2327 -0.3832 0.6913 0.6125
-1.2 0.03 0.04 0.0204 0.2093 -0.7305 0.2095 0.65
-1.2 0.01 0.04 0.0017 0.2327 -0.5774 -0.5774 0.5774
-1.2 0.03 0.04 0.0075 0.2327 -0.7305 0.2095 0.65
-1.2 0.03 -0.04 0.0075 0.256 -0.7305 0.2095 -0.65
-1.2 0.03 -0.04 0.0075 0.256 -0.7305 0.2095 -0.65
-1.2 0.01 -0.04 0.0017 0.256 -0.5774 -0.5774 -0.5774
-1.2 0.01 0.04 0.0017 0.2327 -0.5774 -0.5774 0.5774
1.2 0.01 0.04 0.7209 0.315 0.5774 -0.5774 0.5774
-1.2 0.01 0.04 0.0204 0.315 -0.5774 -0.5774 0.5774
-1.2 0.01 -0.04 0.0204 0.2916 -0.5774 -0.5774 -0.5774
-1.2 0.01 -0.04 0.0204 0.2916 -0.5774 -0.5774 -0.5774
1.2 0.01 -0.04 0.7209 0.2916 0.5774 -0.5774 -0.5774
1.2 0.01 0.04 0.7209 0.315 0.5774 -0.5774 0.5774
1.2 0.03 0.04 0.734 0.2327 0.7305 0.2095 0.65
1.2 0.01 0.04 0.7398 0.2327 0.5774 -0.5774 0.5774
1.2 0.01 -0.04 0.7398 0.256 0.5774 -0.5774 -0.5774
1.2 0.01 -0.04 0.7398 0.256 0.5774 -0.5774 -0.5774
1.2 0.03 -0.04 0.734 0.256 0.7305 0.2095 -0.65
1.2 0.03 0.04 0.734 0.2327 0.7305 0.2095 0.65
1.15 0.11 0.04 0.7064 0.2327 0.3832 0.6913 0.6125
1.2 0.03 0.04 0.734 0.2327 0.7305 0.2095 0.65
1.2 0.03 -0.04 0.734 0.256 0.7305 0.2095 -0.65
1.2 0.03 -0.04 0.734 0.256 0.7305 0.2095 -0.65
1.15 0.11 -0.04 0.7064 0.256 0.3832 0.6913 -0.6125
1.15 0.11 0.04 0.7064 0.2327 0.3832 0.6913 0.6125
-1.15 0.11 0.04 0.035 0.2327 -0.3832 0.6913 0.6125
1.15 0.11 0.04 0.7064 0.2327 0.3832 0.6913 0.6125
1.15 0.11 -0.04 0.7064 0.256 0.3832 0.6913 -0.6125
1.15 0.11 -0.04 0.7064 0.256 0.3832 0.6913 -0.6125
-1.15 0.11 -0.04 0.035 0.256 -0.3832 0.6913 -0.6125
-1.15 0.11 0.04 0.035 0.2327 -0.3832 0.6913 0.6125
-1.2 0.03 0.04 0.0075 0.2327 -0.7305 0.2095 0.65
-1.15 0.11 0.04 0.035 0.2327 -0.3832 0.6913 0.6125
-1.15 0.11 -0.04 0.035 0.256 -0.3832 0.6913 -0.6125
-1.15 0.11 -0.04 0.035 0.256 -0.3832 0.6913 -0.6125
-1.2 0.03 -0.04 0.0075 0.256 -0.7305 0.2095 -0.65
-1.2 0.03 0.04 0.0075 0.2327 -0.7305 0.2095 0.65
0.9 0.6502 -0.3 0.67 0.8405 -0.6549 -0.7317 -0.1889
0.9 0.6902 -0.3723 0.6444 0.8405 -0.6592 -0.5577 -0.5044
1.1 0.6902 -0.3723 0.6444 0.7786 0.6592 -0.5577 -0.5044
1.1 0.6902 -0.3723 0.6444 0.7786 0.6592 -0.5577 -0.5044
1.1 0.6502 -0.3 0.67 0.7786 0.6549 -0.7317 -0.1889
0.9 0.6502 -0.3 0.67 0.8405 -0.6549 -0.7317 -0.1889
0.9 0.7302 -0.4 0.6294 0.8405 -0.6457 -0.2277 -0.7288
0.9 0.7502 -0.4 0.6232 0.8405 -0.7071 0 -0.7071
1.1 0.7502 -0.4 0.6232 0.7786 0.7071 0 -0.7071
1.1 0.7502 -0.4 0.6232 0.7786 0.7071 0 -0.7071
1.1 0.7302 -0.4 0.6294 0.7786 0.6457 -0.2277 -0.7288
0.9 0.7302 -0.4 0.6294 0.8405 -0.6457 -0.2277 -0.7288
0.9 0.6902 -0.3723 0.6444 0.8405 -0.6592 -0.5577 -0.5044
0.9 0.7302 -0.4 0.6294 0.8405 -0.6457 -0.2277 -0.7288
1.1 0.7302 -0.4 0.6294 0.7786 0.6457 -0.2277 -0.7288
1.1 0.7302 -0.4 0.6294 0.7786 0.6457 -0.2277 -0.7288
1.1 0.6902 -0.3723 0.6444 0.7786 0.6592 -0.5577 -0.5044
0.9 0.6902 -0.3723 0.6444 0.8405 -0.6592 -0.5577 -0.5044
0.9 0.6502 0.3 0.8554 0.8405 -0.6549 -0.7317 0.1889
1.1 0.6502 0.3 0.8554 0.7786 0.6549 -0.7317 0.1889
1.1 0.6902 0.3723 0.881 0.7786 0.6592 -0.5577 0.5044
1.1 0.6902 0.3723 0.881 0.7786 0.6592 -0.5577 0.5044
0.9 0.6902 0.3723 0.881 0.8405 -0.6592 -0.5577 0.5044
0.9 0.6502 0.3 0.8554 0.8405 -0.6549 -0.7317 0.1889
0.9 0.6902 0.3723 0.881 0.8405 -0.6592 -0.5577 0.5044
1.1 0.6902 0.3723 0.881 0.7786 0.6592 -0.5577 0.5044
1.1 0.7302 0.4 0.896 0.7786 0.6457 -0.2277 0.7288
1.1 0.7302 0.4 0.896 0.7786 0.6457 -0.2277 0.7288
0.9 0.7302 0.4 0.896 0.8405 -0.6457 -0.2277 0.7288
0.9 0.6902 0.3723 0.881 0.8405 -0.6592 -0.5577 0.5044
0.9 0.7302 0.4 0.896 0.8405 -0.6457 -0.2277 0.7288
1.1 0.7302 0.4 0.896 0.7786 0.6457 -0.2277 0.7288
1.1 0.7502 0.4 0.9022 0.7786 0.7071 -0 0.7071
1.1 0.7502 0.4 0.9022 0.7786 0.7071 -0 0.7071
0.9 0.7502 0.4 0.9022 0.8405 -0.7071 -0 0.7071
0.9 0.7302 0.4 0.896 0.8405 -0.6457 -0.2277 0.7288
0.9 0.6902 0.3723 0.8778 0.8528 -0.6592 -0.5577 0.5044
0.9 0.7302 0.4 0.8863 0.8652 -0.6457 -0.2277 0.7288
0.9 0.7302 -0.4 0.6391 0.8652 -0.6457 -0.2277 -0.7288
0.9 0.7302 -0.4 0.6391 0.8652 -0.6457 -0.2277 -0.7288
0.9 0.6902 -0.3723 0.6476 0.8528 -0.6592 -0.5577 -0.5044
0.9 0.6902 0.3723 0.8778 0.8528 -0.6592 -0.5577 0.5044
0.9 0.6502 0.3 0.8554 0.8405 -0.6549 -0.7317 0.1889
0.9 0.6902 0.3723 0.8778 0.8528 -0.6592 -0.5577 0.5044
0.9 0.6902 -0.3723 0.6476 0.8528 -0.6592 -0.5577 -0.5044
0.9 0.6902 -0.3723 0.6476 0.8528 -0.6592 -0.5577 -0.5044
0.9 0.6502 -0.3 0.67 0.8405 -0.6549 -0.7317 -0.1889
0.9 0.6502 0.3 0.8554 0.8405 -0.6549 -0.7317 0.1889
1.1 0.6502 0.3 0.8554 0.7786 0.6549 -0.7317 0.1889
0.9 0.6502 0.3 0.8554 0.8405 -0.6549 -0.7317 0.1889
0.9 0.6502 -0.3 0.67 0.8405 -0.6549 -0.7317 -0.1889
0.9 0.6502 -0.3 0.67 0.8405 -0.6549 -0.7317 -0.1889
1.1 0.6502 -0.3 0.67 0.7786 0.6549 -0.7317 -0.1889
1.1 0.6502 0.3 0.8554 0.7786 0.6549 -0.7317 0.1889
1.1 0.6902 0.3723 0.8778 0.7663 0.6592 -0.5577 0.5044
1.1 0.6502 0.3 0.8554 0.7786 0.6549 -0.7317 0.1889
1.1 0.6502 -0.3 0.67 0.7786 0.6549 -0.7317 -0.1889
1.1 0.6502 -0.3 0.67 0.7786 0.6549 -0.7317 -0.1889
1.1 0.6902 -0.3723 0.6476 0.7663 0.6592 -0.5577 -0.5044
1.1 0.6902 0.3723 0.8778 0.7663 0.6592 -0.5577 0.5044
1.1 0.7302 0.4 0.8863 0.7539 0.6457 -0.2277 0.7288
1.1 0.6902 0.3723 0.8778 0.7663 0.6592 -0.5577 0.5044
1.1 0.6902 -0.3723 0.6476 0.7663 0.6592 -0.5577 -0.5044
1.1 0.6902 -0.3723 0.6476 0.7663 0.6592 -0.5577 -0.5044
1.1 0.7302 -0.4 0.6391 0.7539 0.6457 -0.2277 -0.7288
1.1 0.7302 0.4 0.8863 0.7539 0.6457 -0.2277 0.7288
1.1 0.7502 0.4 0.8863 0.7477 0.7071 -0 0.7071
1.1 0.7302 0.4 0.8863 0.7539 0.6457 -0.2277 0.7288
1.1 0.7302 -0.4 0.6391 0.7539 0.6457 -0.2277 -0.7288
1.1 0.7302 -0.4 0.6391 0.7539 0.6457 -0.2277 -0.7288
1.1 0.7502 -0.4 0.6391 0.7477 0.7071 0 -0.7071
1.1 0.7502 0.4 0.8863 0.7477 0.7071 -0 0.7071
0.9 0.7302 0.4 0.8863 0.8652 -0.6457 -0.2277 0.7288
0.9 0.7502 0.4 0.8863 0.8714 -0.7071 -0 0.7071
0.9 0.7502 -0.4 0.6391 0.8714 -0.7071 0 -0.7071
0.9 0.7502 -0.4 0.6391 0.8714 -0.7071 0 -0.7071
0.9 0.7302 -0.4 0.6391 0.8652 -0.6457 -0.2277 -0.7288
0.9 0.7302 0.4 0.8863 0.8652 -0.6457 -0.2277 0.7288
-1.0306 0.1 0.1 0.862 0.6174 -1 -0 0
-1.0306 0.2951 0.1159 0.9223 0.6125 -0.6635 0.6535 0.3642
-1.0306 0.3 0.1 0.9238 0.6174 -0.6287 0.7427 0.2304
-0.9694 0.1 0.1 0.862 0.5367 1 0 -0
-0.9694 0.2821 0.1308 0.9182 0.5462 0.6513 0.4175 0.6336
-0.9694 0.215 0.1523 0.8975 0.5529 0.7105 0.2249 0.6668
-0.9694 0.1 0.1 0.862 0.5367 1 0 -0
-0.9694 0.1564 0.1731 0.8794 0.5593 0.7616 0.3486 0.5462
-0.9694 0.13 0.2 0.8712 0.5676 0.6294 0.3011 0.7164
-0.9694 0.2821 0.1308 0.9239 0.5676 0.6513 0.4175 0.6336
-1.0306 0.2821 0.1308 0.9239 0.5865 -0.6513 0.4175 0.6336
-1.0306 0.215 0.1523 0.9021 0.5865 -0.7105 0.2249 0.6668
-1.0306 0.215 0.1523 0.9021 0.5865 -0.7105 0.2249 0.6668
-0.9694 0.215 0.1523 0.9021 0.5676 0.7105 0.2249 0.6668
-0.9694 0.2821 0.1308 0.9239 0.5676 0.6513 0.4175 0.6336
-0.9694 0.1564 0.1731 0.8829 0.5676 0.7616 0.3486 0.5462
-1.0306 0.1564 0.1731 0.8829 0.5865 -0.7616 0.3486 0.5462
-1.0306 0.13 0.2 0.8712 0.5865 -0.6294 0.3011 0.7164
-1.0306 0.13 0.2 0.8712 0.5865 -0.6294 0.3011 0.7164
-0.9694 0.13 0.2 0.8712 0.5676 0.6294 0.3011 0.7164
-0.9694 0.1564 0.1731 0.8829 0.5676 0.7616 0.3486 0.5462
-0.9694 0.1 0.1 0.862 0.5367 1 0 -0
-0.9694 0.215 0.1523 0.8975 0.5529 0.7105 0.2249 0.6668
-0.9694 0.1564 0.1731 0.8794 0.5593 0.7616 0.3486 0.5462
-0.9694 0.215 0.1523 0.9021 0.5676 0.7105 0.2249 0.6668
-1.0306 0.215 0.1523 0.9021 0.5865 -0.7105 0.2249 0.6668
-1.0306 0.1564 0.1731 0.8829 0.5865 -0.7616 0.3486 0.5462
-1.0306 0.1564 0.1731 0.8829 0.5865 -0.7616 0.3486 0.5462
-0.9694 0.1564 0.1731 0.8829 0.5676 0.7616 0.3486 0.5462
-0.9694 0.215 0.1523 0.9021 0.5676 0.7105 0.2249 0.6668
-1.0306 0.215 0.1523 0.8975 0.6012 -0.7105 0.2249 0.6668
-1.0306 0.2821 0.1308 0.9182 0.6079 -0.6513 0.4175 0.6336
-1.0306 0.1 0.1 0.862 0.6174 -1 -0 0
-1.0306 0.1564 0.1731 0.8794 0.5948 -0.7616 0.3486 0.5462
-1.0306 0.215 0.1523 0.8975 0.6012 -0.7105 0.2249 0.6668
-1.0306 0.1 0.1 0.862 0.6174 -1 -0 0
-0.9694 0.1 0.1 0.862 0.5367 1 0 -0
-0.9694 0.2951 0.1159 0.9223 0.5416 0.6635 0.6535 0.3642
-0.9694 0.2821 0.1308 0.9182 0.5462 0.6513 0.4175 0.6336
-1.0306 0.13 0.2 0.8712 0.5865 -0.6294 0.3011 0.7164
-1.0306 0.1564 0.1731 0.8794 0.5948 -0.7616 0.3486 0.5462
-1.0306 0.1 0.1 0.862 0.6174 -1 -0 0
-1.0306 0.2821 0.1308 0.9182 0.6079 -0.6513 0.4175 0.6336
-1.0306 0.2951 0.1159 0.9223 0.6125 -0.6635 0.6535 0.3642
-1.0306 0.1 0.1 0.862 0.6174 -1 -0 0
-0.9694 0.13 0.2 0.8712 0.5676 0.6294 0.3011 0.7164
-0.9694 0.1 0.2 0.862 0.5676 0.7071 -0 0.7071
-0.9694 0.1 0.1 0.862 0.5367 1 0 -0
-1.0306 0.1 0.2 0.862 0.5865 -0.7071 -0 0.7071
-0.9694 0.1 0.2 0.862 0.5676 0.7071 -0 0.7071
-0.9694 0.13 0.2 0.8712 0.5676 0.6294 0.3011 0.7164
-0.9694 0.13 0.2 0.8712 0.5676 0.6294 0.3011 0.7164
-1.0306 0.13 0.2 0.8712 0.5865 -0.6294 0.3011 0.7164
-1.0306 0.1 0.2 0.862 0.5865 -0.7071 -0 0.7071
-0.9694 0.2821 -0.1308 0.9239 0.4184 0.6513 0.4175 -0.6336
-0.9694 0.215 -0.1523 0.9021 0.4184 0.7105 0.2249 -0.6668
-1.0306 0.215 -0.1523 0.9021 0.3995 -0.7105 0.2249 -0.6668
-1.0306 0.215 -0.1523 0.9021 0.3995 -0.7105 0.2249 -0.6668
-1.0306 0.2821 -0.1308 0.9239 0.3995 -0.6513 0.4175 -0.6336
-0.9694 0.2821 -0.1308 0.9239 0.4184 0.6513 0.4175 -0.6336
-1.0306 0.3 0.1 0.9351 0.5865 -0.6287 0.7427 0.2304
-1.0306 0.2951 0.1159 0.93 0.5865 -0.6635 0.6535 0.3642
-0.9694 0.2951 0.1159 0.93 0.5676 0.6635 0.6535 0.3642
-0.9694 0.2951 0.1159 0.93 0.5676 0.6635 0.6535 0.3642
-0.9694 0.3 0.1 0.9351 0.5676 0.6287 0.7427 0.2304
-1.0306 0.3 0.1 0.9351 0.5865 -0.6287 0.7427 0.2304
-1.0306 0.1 0.1 0.862 0.6174 -1 -0 0
-1.0306 0.1 0.2 0.862 0.5865 -0.7071 -0 0.7071
-1.0306 0.13 0.2 0.8712 0.5865 -0.6294 0.3011 0.7164
-0.9694 0.215 -0.1523 0.8975 0.4332 0.7105 0.2249 -0.6668
-0.9694 0.1 -0.1 0.862 0.4493 1 -0 0
-0.9694 0.1564 -0.1731 0.8794 0.4268 0.7616 0.3486 -0.5462
-0.9694 0.1 -0.2 0.862 0.4184 0.7071 0 -0.7071
-0.9694 0.13 -0.2 0.8712 0.4184 0.6294 0.3011 -0.7164
-0.9694 0.1 -0.1 0.862 0.4493 1 -0 0
-0.9694 0.2951 0.1159 0.93 0.5676 0.6635 0.6535 0.3642
-1.0306 0.2951 0.1159 0.93 0.5865 -0.6635 0.6535 0.3642
-1.0306 0.2821 0.1308 0.9239 0.5865 -0.6513 0.4175 0.6336
-1.0306 0.2821 0.1308 0.9239 0.5865 -0.6513 0.4175 0.6336
-0.9694 0.2821 0.1308 0.9239 0.5676 0.6513 0.4175 0.6336
-0.9694 0.2951 0.1159 0.93 0.5676 0.6635 0.6535 0.3642
-0.9694 0.3 0.1 0.9238 0.5367 0.6287 0.7427 0.2304
-0.9694 0.2951 0.1159 0.9223 0.5416 0.6635 0.6535 0.3642
-0.9694 0.1 0.1 0.862 0.5367 1 0 -0
-1.0306 0.1564 -0.1731 0.8794 0.3912 -0.7616 0.3486 -0.5462
-1.0306 0.13 -0.2 0.8712 0.3995 -0.6294 0.3011 -0.7164
-1.0306 0.1 -0.1 0.862 0.3686 -1 0 -0
-0.9694 0.2951 -0.1159 0.9223 0.4444 0.6635 0.6535 -0.3642
-0.9694 0.1 -0.1 0.862 0.4493 1 -0 0
-0.9694 0.2821 -0.1308 0.9182 0.4398 0.6513 0.4175 -0.6336
-1.0306 0.215 -0.1523 0.8975 0.3848 -0.7105 0.2249 -0.6668
-1.0306 0.1564 -0.1731 0.8794 0.3912 -0.7616 0.3486 -0.5462
-1.0306 0.1 -0.1 0.862 0.3686 -1 0 -0
-0.9694 0.1564 -0.1731 0.8829 0.4184 0.7616 0.3486 -0.5462
-0.9694 0.13 -0.2 0.8712 0.4184 0.6294 0.3011 -0.7164
-1.0306 0.13 -0.2 0.8712 0.3995 -0.6294 0.3011 -0.7164
-1.0306 0.13 -0.2 0.8712 0.3995 -0.6294 0.3011 -0.7164
-1.0306 0.1564 -0.1731 0.8829 0.3995 -0.7616 0.3486 -0.5462
-0.9694 0.1564 -0.1731 0.8829 0.4184 0.7616 0.3486 -0.5462
-1.0306 0.2821 -0.1308 0.9182 0.3782 -0.6513 0.4175 -0.6336
-1.0306 0.215 -0.1523 0.8975 0.3848 -0.7105 0.2249 -0.6668
-1.0306 0.1 -0.1 0.862 0.3686 -1 0 -0
-0.9694 0.1564 -0.1731 0.8794 0.4268 0.7616 0.3486 -0.5462
-0.9694 0.1 -0.1 0.862 0.4493 1 -0 0
-0.9694 0.13 -0.2 0.8712 0.4184 0.6294 0.3011 -0.7164
-1.0306 0.2951 -0.1159 0.9223 0.3735 -0.6635 0.6535 -0.3642
-1.0306 0.1 -0.1 0.862 0.3686 -1 0 -0
-1.0306 0.3 -0.1 0.9238 0.3686 -0.6287 0.7427 -0.2304
-1.0306 0.3 -0.1 0.9351 0.3995 -0.6287 0.7427 -0.2304
-0.9694 0.3 -0.1 0.9351 0.4184 0.6287 0.7427 -0.2304
-0.9694 0.2951 -0.1159 0.93 0.4184 0.6635 0.6535 -0.3642
-0.9694 0.2951 -0.1159 0.93 0.4184 0.6635 0.6535 -0.3642
-1.0306 0.2951 -0.1159 0.93 0.3995 -0.6635 0.6535 -0.3642
-1.0306 0.3 -0.1 0.9351 0.3995 -0.6287 0.7427 -0.2304
-0.9694 0.215 -0.1523 0.9021 0.4184 0.7105 0.2249 -0.6668
-0.9694 0.1564 -0.1731 0.8829 0.4184 0.7616 0.3486 -0.5462
-1.0306 0.1564 -0.1731 0.8829 0.3995 -0.7616 0.3486 -0.5462
-1.0306 0.1564 -0.1731 0.8829 0.3995 -0.7616 0.3486 -0.5462
-1.0306 0.215 -0.1523 0.9021 0.3995 -0.7105 0.2249 -0.6668
-0.9694 0.215 -0.1523 0.9021 0.4184 0.7105 0.2249 -0.6668
-1.0306 0.1 -0.2 0.862 0.3995 -0.7071 0 -0.7071
-1.0306 0.1 -0.1 0.862 0.3686 -1 0 -0
-1.0306 0.13 -0.2 0.8712 0.3995 -0.6294 0.3011 -0.7164
-0.9694 0.2951 -0.1159 0.9223 0.4444 0.6635 0.6535 -0.3642
-0.9694 0.3 -0.1 0.9238 0.4493 0.6287 0.7427 -0.2304
-0.9694 0.1 -0.1 0.862 0.4493 1 -0 0
-0.9694 0.2821 -0.1308 0.9182 0.4398 0.6513 0.4175 -0.6336
-0.9694 0.1 -0.1 0.862 0.4493 1 -0 0
-0.9694 0.215 -0.1523 0.8975 0.4332 0.7105 0.2249 -0.6668
-1.0306 0.1 -0.2 0.862 0.3995 -0.7071 0 -0.7071
-1.0306 0.13 -0.2 0.8712 0.3995 -0.6294 0.3011 -0.7164
-0.9694 0.13 -0.2 0.8712 0.4184 0.6294 0.3011 -0.7164
-0.9694 0.13 -0.2 0.8712 0.4184 0.6294 0.3011 -0.7164
-0.9694 0.1 -0.2 0.862 0.4184 0.7071 0 -0.7071
-1.0306 0.1 -0.2 0.862 0.3995 -0.7071 0 -0.7071
-1.0306 0.2951 -0.1159 0.9223 0.3735 -0.6635 0.6535 -0.3642
-1.0306 0.2821 -0.1308 0.9182 0.3782 -0.6513 0.4175 -0.6336
-1.0306 0.1 -0.1 0.862 0.3686 -1 0 -0
-0.9694 0.2951 -0.1159 0.93 0.4184 0.6635 0.6535 -0.3642
-0.9694 0.2821 -0.1308 0.9239 0.4184 0.6513 0.4175 -0.6336
-1.0306 0.2821 -0.1308 0.9239 0.3995 -0.6513 0.4175 -0.6336
-1.0306 0.2821 -0.1308 0.9239 0.3995 -0.6513 0.4175 -0.6336
-1.0306 0.2951 -0.1159 0.93 0.3995 -0.6635 0.6535 -0.3642
-0.9694 0.2951 -0.1159 0.93 0.4184 0.6635 0.6535 -0.3642
0.9694 0.2951 -0.1159 0.9613 0.2392 -0.6635 0.6535 -0.3642
0.9694 0.1 -0.1 0.901 0.2343 -1 -0 0
0.9694 0.3 -0.1 0.9629 0.2343 -0.6287 0.7427 -0.2304
1.0306 0.1564 -0.1731 0.922 0.2841 0.7616 0.3486 -0.5462
1.0306 0.13 -0.2 0.9103 0.2841 0.6294 0.3011 -0.7164
0.9694 0.13 -0.2 0.9103 0.2652 -0.6294 0.3011 -0.7164
0.9694 0.13 -0.2 0.9103 0.2652 -0.6294 0.3011 -0.7164
0.9694 0.1564 -0.1731 0.922 0.2652 -0.7616 0.3486 -0.5462
1.0306 0.1564 -0.1731 0.922 0.2841 0.7616 0.3486 -0.5462
1.0306 0.2951 -0.1159 0.9613 0.3101 0.6635 0.6535 -0.3642
1.0306 0.1 -0.1 0.901 0.315 1 0 -0
1.0306 0.2821 -0.1308 0.9573 0.3055 0.6513 0.4175 -0.6336
0.9694 0.2821 -0.1308 0.9573 0.2438 -0.6513 0.4175 -0.6336
0.9694 0.215 -0.1523 0.9366 0.2504 -0.7105 0.2249 -0.6668
0.9694 0.1 -0.1 0.901 0.2343 -1 -0 0
1.0306 0.1564 -0.1731 0.9185 0.2924 0.7616 0.3486 -0.5462
1.0306 0.1 -0.1 0.901 0.315 1 0 -0
1.0306 0.13 -0.2 0.9103 0.2841 0.6294 0.3011 -0.7164
0.9694 0.1564 -0.1731 0.9185 0.2569 -0.7616 0.3486 -0.5462
0.9694 0.13 -0.2 0.9103 0.2652 -0.6294 0.3011 -0.7164
0.9694 0.1 -0.1 0.901 0.2343 -1 -0 0
0.9694 0.215 -0.1523 0.9366 0.2504 -0.7105 0.2249 -0.6668
0.9694 0.1564 -0.1731 0.9185 0.2569 -0.7616 0.3486 -0.5462
0.9694 0.1 -0.1 0.901 0.2343 -1 -0 0
1.0306 0.215 -0.1523 0.9412 0.2841 0.7105 0.2249 -0.6668
1.0306 0.1564 -0.1731 0.922 0.2841 0.7616 0.3486 -0.5462
0.9694 0.1564 -0.1731 0.922 0.2652 -0.7616 0.3486 -0.5462
0.9694 0.1564 -0.1731 0.922 0.2652 -0.7616 0.3486 -0.5462
0.9694 0.215 -0.1523 0.9412 0.2652 -0.7105 0.2249 -0.6668
1.0306 0.215 -0.1523 0.9412 0.2841 0.7105 0.2249 -0.6668
0.9694 0.1 -0.2 0.901 0.2652 -0.7071 0 -0.7071
0.9694 0.1 -0.1 0.901 0.2343 -1 -0 0
0.9694 0.13 -0.2 0.9103 0.2652 -0.6294 0.3011 -0.7164
1.0306 0.1 -0.2 0.901 0.2841 0.7071 0 -0.7071
1.0306 0.13 -0.2 0.9103 0.2841 0.6294 0.3011 -0.7164
1.0306 0.1 -0.1 0.901 0.315 1 0 -0
1.0306 0.2821 -0.1308 0.9573 0.3055 0.6513 0.4175 -0.6336
1.0306 0.1 -0.1 0.901 0.315 1 0 -0
1.0306 0.215 -0.1523 0.9366 0.2988 0.7105 0.2249 -0.6668
0.9694 0.3 -0.1 0.9742 0.2652 -0.6287 0.7427 -0.2304
1.0306 0.3 -0.1 0.9742 0.2841 0.6287 0.7427 -0.2304
1.0306 0.2951 -0.1159 0.9691 0.2841 0.6635 0.6535 -0.3642
1.0306 0.2951 -0.1159 0.9691 0.2841 0.6635 0.6535 -0.3642
0.9694 0.2951 -0.1159 0.9691 0.2652 -0.6635 0.6535 -0.3642
0.9694 0.3 -0.1 0.9742 0.2652 -0.6287 0.7427 -0.2304
0.9694 0.1 -0.2 0.901 0.2652 -0.7071 0 -0.7071
0.9694 0.13 -0.2 0.9103 0.2652 -0.6294 0.3011 -0.7164
1.0306 0.13 -0.2 0.9103 0.2841 0.6294 0.3011 -0.7164
1.0306 0.13 -0.2 0.9103 0.2841 0.6294 0.3011 -0.7164
1.0306 0.1 -0.2 0.901 0.2841 0.7071 0 -0.7071
0.9694 0.1 -0.2 0.901 0.2652 -0.7071 0 -0.7071
1.0306 0.2821 -0.1308 0.963 0.2841 0.6513 0.4175 -0.6336
1.0306 0.215 -0.1523 0.9412 0.2841 0.7105 0.2249 -0.6668
0.9694 0.215 -0.1523 0.9412 0.2652 -0.7105 0.2249 -0.6668
0.9694 0.215 -0.1523 0.9412 0.2652 -0.7105 0.2249 -0.6668
0.9694 0.2821 -0.1308 0.963 0.2652 -0.6513 0.4175 -0.6336
1.0306 0.2821 -0.1308 0.963 0.2841 0.6513 0.4175 -0.6336
1.0306 0.2951 -0.1159 0.9613 0.3101 0.6635 0.6535 -0.3642
1.0306 0.3 -0.1 0.9629 0.315 0.6287 0.7427 -0.2304
1.0306 0.1 -0.1 0.901 0.315 1 0 -0
1.0306 0.2951 -0.1159 0.9691 0.2841 0.6635 0.6535 -0.3642
1.0306 0.2821 -0.1308 0.963 0.2841 0.6513 0.4175 -0.6336
0.9694 0.2821 -0.1308 0.963 0.2652 -0.6513 0.4175 -0.6336
0.9694 0.2821 -0.1308 0.963 0.2652 -0.6513 0.4175 -0.6336
0.9694 0.2951 -0.1159 0.9691 0.2652 -0.6635 0.6535 -0.3642
1.0306 0.2951 -0.1159 0.9691 0.2841 0.6635 0.6535 -0.3642
1.0306 0.215 -0.1523 0.9366 0.2988 0.7105 0.2249 -0.6668
1.0306 0.1 -0.1 0.901 0.315 1 0 -0
1.0306 0.1564 -0.1731 0.9185 0.2924 0.7616 0.3486 -0.5462
0.9694 0.2951 -0.1159 0.9613 0.2392 -0.6635 0.6535 -0.3642
0.9694 0.2821 -0.1308 0.9573 0.2438 -0.6513 0.4175 -0.6336
0.9694 0.1 -0.1 0.901 0.2343 -1 -0 0
0.9694 0.1 0.1 0.862 0.5334 -1 0 -0
0.9694 0.1 0.2 0.862 0.5025 -0.7071 -0 0.7071
0.9694 0.13 0.2 0.8712 0.5025 -0.6294 0.3011 0.7164
1.0306 0.13 0.2 0.8712 0.4836 0.6294 0.3011 0.7164
1.0306 0.1 0.2 0.862 0.4836 0.7071 -0 0.7071
1.0306 0.1 0.1 0.862 0.4527 1 -0 0
0.9694 0.1 0.2 0.862 0.5025 -0.7071 -0 0.7071
1.0306 0.1 0.2 0.862 0.4836 0.7071 -0 0.7071
1.0306 0.13 0.2 0.8712 0.4836 0.6294 0.3011 0.7164
1.0306 0.13 0.2 0.8712 0.4836 0.6294 0.3011 0.7164
0.9694 0.13 0.2 0.8712 0.5025 -0.6294 0.3011 0.7164
0.9694 0.1 0.2 0.862 0.5025 -0.7071 -0 0.7071
1.0306 0.2951 0.1159 0.93 0.4836 0.6635 0.6535 0.3642
0.9694 0.2951 0.1159 0.93 0.5025 -0.6635 0.6535 0.3642
0.9694 0.2821 0.1308 0.9239 0.5025 -0.6513 0.4175 0.6336
0.9694 0.2821 0.1308 0.9239 0.5025 -0.6513 0.4175 0.6336
1.0306 0.2821 0.1308 0.9239 0.4836 0.6513 0.4175 0.6336
1.0306 0.2951 0.1159 0.93 0.4836 0.6635 0.6535 0.3642
0.9694 0.3 0.1 0.9351 0.5025 -0.6287 0.7427 0.2304
0.9694 0.2951 0.1159 0.93 0.5025 -0.6635 0.6535 0.3642
1.0306 0.2951 0.1159 0.93 0.4836 0.6635 0.6535 0.3642
1.0306 0.2951 0.1159 0.93 0.4836 0.6635 0.6535 0.3642
1.0306 0.3 0.1 0.9351 0.4836 0.6287 0.7427 0.2304
0.9694 0.3 0.1 0.9351 0.5025 -0.6287 0.7427 0.2304
1.0306 0.3 0.1 0.9238 0.4527 0.6287 0.7427 0.2304
1.0306 0.2951 0.1159 0.9223 0.4576 0.6635 0.6535 0.3642
1.0306 0.1 0.1 0.862 0.4527 1 -0 0
0.9694 0.2821 0.1308 0.9182 0.5239 -0.6513 0.4175 0.6336
0.9694 0.2951 0.1159 0.9223 0.5285 -0.6635 0.6535 0.3642
0.9694 0.1 0.1 0.862 0.5334 -1 0 -0
0.9694 0.13 0.2 0.8712 0.5025 -0.6294 0.3011 0.7164
0.9694 0.1564 0.1731 0.8794 0.5108 -0.7616 0.3486 0.5462
0.9694 0.1 0.1 0.862 0.5334 -1 0 -0
0.9694 0.1564 0.1731 0.8794 0.5108 -0.7616 0.3486 0.5462
0.9694 0.215 0.1523 0.8975 0.5172 -0.7105 0.2249 0.6668
0.9694 0.1 0.1 0.862 0.5334 -1 0 -0
0.9694 0.215 0.1523 0.8975 0.5172 -0.7105 0.2249 0.6668
0.9694 0.2821 0.1308 0.9182 0.5239 -0.6513 0.4175 0.6336
0.9694 0.1 0.1 0.862 0.5334 -1 0 -0
1.0306 0.1 0.1 0.862 0.4527 1 -0 0
1.0306 0.1564 0.1731 0.8794 0.4753 0.7616 0.3486 0.5462
1.0306 0.13 0.2 0.8712 0.4836 0.6294 0.3011 0.7164
1.0306 0.1 0.1 0.862 0.4527 1 -0 0
1.0306 0.215 0.1523 0.8975 0.4688 0.7105 0.2249 0.6668
1.0306 0.1564 0.1731 0.8794 0.4753 0.7616 0.3486 0.5462
1.0306 0.1 0.1 0.862 0.4527 1 -0 0
1.0306 0.2821 0.1308 0.9182 0.4622 0.6513 0.4175 0.6336
1.0306 0.215 0.1523 0.8975 0.4688 0.7105 0.2249 0.6668
1.0306 0.1564 0.1731 0.8829 0.4836 0.7616 0.3486 0.5462
0.9694 0.1564 0.1731 0.8829 0.5025 -0.7616 0.3486 0.5462
0.9694 0.13 0.2 0.8712 0.5025 -0.6294 0.3011 0.7164
0.9694 0.13 0.2 0.8712 0.5025 -0.6294 0.3011 0.7164
1.0306 0.13 0.2 0.8712 0.4836 0.6294 0.3011 0.7164
1.0306 0.1564 0.1731 0.8829 0.4836 0.7616 0.3486 0.5462
1.0306 0.215 0.1523 0.9021 0.4836 0.7105 0.2249 0.6668
0.9694 0.215 0.1523 0.9021 0.5025 -0.7105 0.2249 0.6668
0.9694 0.1564 0.1731 0.8829 0.5025 -0.7616 0.3486 0.5462
0.9694 0.1564 0.1731 0.8829 0.5025 -0.7616 0.3486 0.5462
1.0306 0.1564 0.1731 0.8829 0.4836 0.7616 0.3486 0.5462
1.0306 0.215 0.1523 0.9021 0.4836 0.7105 0.2249 0.6668
1.0306 0.2821 0.1308 0.9239 0.4836 0.6513 0.4175 0.6336
0.9694 0.2821 0.1308 0.9239 0.5025 -0.6513 0.4175 0.6336
0.9694 0.215 0.1523 0.9021 0.5025 -0.7105 0.2249 0.6668
0.9694 0.215 0.1523 0.9021 0.5025 -0.7105 0.2249 0.6668
1.0306 0.215 0.1523 0.9021 0.4836 0.7105 0.2249 0.6668
1.0306 0.2821 0.1308 0.9239 0.4836 0.6513 0.4175 0.6336
0.9694 0.1 0.1 0.862 0.5334 -1 0 -0
0.9694 0.2951 0.1159 0.9223 0.5285 -0.6635 0.6535 0.3642
0.9694 0.3 0.1 0.9238 0.5334 -0.6287 0.7427 0.2304
1.0306 0.1 0.1 0.862 0.4527 1 -0 0
1.0306 0.2951 0.1159 0.9223 0.4576 0.6635 0.6535 0.3642
1.0306 0.2821 0.1308 0.9182 0.4622 0.6513 0.4175 0.6336
-0.9 0.6902 0.3723 0.8778 0.8932 0.6592 -0.5577 0.5044
-0.9 0.6502 0.3 0.8554 0.9056 0.6549 -0.7317 0.1889
-0.9 0.6502 -0.3 0.67 0.9056 0.6549 -0.7317 -0.1889
-0.9 0.6502 -0.3 0.67 0.9056 0.6549 -0.7317 -0.1889
-0.9 0.6902 -0.3723 0.6476 0.8932 0.6592 -0.5577 -0.5044
-0.9 0.6902 0.3723 0.8778 0.8932 0.6592 -0.5577 0.5044
-0.9 0.7302 0.4 0.8863 0.8809 0.6457 -0.2277 0.7288
-0.9 0.6902 0.3723 0.8778 0.8932 0.6592 -0.5577 0.5044
-0.9 0.6902 -0.3723 0.6476 0.8932 0.6592 -0.5577 -0.5044
-0.9 0.6902 -0.3723 0.6476 0.8932 0.6592 -0.5577 -0.5044
-0.9 0.7302 -0.4 0.6391 0.8809 0.6457 -0.2277 -0.7288
-0.9 0.7302 0.4 0.8863 0.8809 0.6457 -0.2277 0.7288
-1.1 0.6502 0.3 0.8554 0.9674 -0.6549 -0.7317 0.1889
-1.1 0.6902 0.3723 0.8778 0.9798 -0.6592 -0.5577 0.5044
-1.1 0.6902 -0.3723 0.6476 0.9798 -0.6592 -0.5577 -0.5044
-1.1 0.6902 -0.3723 0.6476 0.9798 -0.6592 -0.5577 -0.5044
-1.1 0.6502 -0.3 0.67 0.9674 -0.6549 -0.7317 -0.1889
-1.1 0.6502 0.3 0.8554 0.9674 -0.6549 -0.7317 0.1889
-0.9 0.6502 0.3 0.8554 0.9056 0.6549 -0.7317 0.1889
-1.1 0.6502 0.3 0.8554 0.9674 -0.6549 -0.7317 0.1889
-1.1 0.6502 -0.3 0.67 0.9674 -0.6549 -0.7317 -0.1889
-1.1 0.6502 -0.3 0.67 0.9674 -0.6549 -0.7317 -0.1889
-0.9 0.6502 -0.3 0.67 0.9056 0.6549 -0.7317 -0.1889
-0.9 0.6502 0.3 0.8554 0.9056 0.6549 -0.7317 0.1889
-1.1 0.6502 -0.3 0.67 0.9674 -0.6549 -0.7317 -0.1889
-1.1 0.6902 -0.3723 0.6444 0.9674 -0.6592 -0.5577 -0.5044
-0.9 0.6902 -0.3723 0.6444 0.9056 0.6592 -0.5577 -0.5044
-0.9 0.6902 -0.3723 0.6444 0.9056 0.6592 -0.5577 -0.5044
-0.9 0.6502 -0.3 0.67 0.9056 0.6549 -0.7317 -0.1889
-1.1 0.6502 -0.3 0.67 0.9674 -0.6549 -0.7317 -0.1889
-1.1 0.7302 -0.4 0.6294 0.9674 -0.6457 -0.2277 -0.7288
-1.1 0.7502 -0.4 0.6232 0.9674 -0.7071 0 -0.7071
-0.9 0.7502 -0.4 0.6232 0.9056 0.7071 0 -0.7071
-0.9 0.7502 -0.4 0.6232 0.9056 0.7071 0 -0.7071
-0.9 0.7302 -0.4 0.6294 0.9056 0.6457 -0.2277 -0.7288
-1.1 0.7302 -0.4 0.6294 0.9674 -0.6457 -0.2277 -0.7288
-1.1 0.7302 0.4 0.8863 0.9922 -0.6457 -0.2277 0.7288
-1.1 0.7502 0.4 0.8863 0.9983 -0.7071 -0 0.7071
-1.1 0.7502 -0.4 0.6391 0.9983 -0.7071 0 -0.7071
-1.1 0.7502 -0.4 0.6391 0.9983 -0.7071 0 -0.7071
-1.1 0.7302 -0.4 0.6391 0.9922 -0.6457 -0.2277 -0.7288
-1.1 0.7302 0.4 0.8863 0.9922 -0.6457 -0.2277 0.7288
-1.1 0.6902 0.3723 0.881 0.9674 -0.6592 -0.5577 0.5044
-0.9 0.6902 0.3723 0.881 0.9056 0.6592 -0.5577 0.5044
-0.9 0.7302 0.4 0.896 0.9056 0.6457 -0.2277 0.7288
-0.9 0.7302 0.4 0.896 0.9056 0.6457 -0.2277 0.7288
-1.1 0.7302 0.4 0.896 0.9674 -0.6457 -0.2277 0.7288
-1.1 0.6902 0.3723 0.881 0.9674 -0.6592 -0.5577 0.5044
-1.1 0.6902 -0.3723 0.6444 0.9674 -0.6592 -0.5577 -0.5044
-1.1 0.7302 -0.4 0.6294 0.9674 -0.6457 -0.2277 -0.7288
-0.9 0.7302 -0.4 0.6294 0.9056 0.6457 -0.2277 -0.7288
-0.9 0.7302 -0.4 0.6294 0.9056 0.6457 -0.2277 -0.7288
-0.9 0.6902 -0.3723 0.6444 0.9056 0.6592 -0.5577 -0.5044
-1.1 0.6902 -0.3723 0.6444 0.9674 -0.6592 -0.5577 -0.5044
-1.1 0.7302 0.4 0.896 0.9674 -0.6457 -0.2277 0.7288
-0.9 0.7302 0.4 0.896 0.9056 0.6457 -0.2277 0.7288
-0.9 0.7502 0.4 0.9022 0.9056 0.7071 -0 0.7071
-0.9 0.7502 0.4 0.9022 0.9056 0.7071 -0 0.7071
-1.1 0.7502 0.4 0.9022 0.9674 -0.7071 -0 0.7071
-1.1 0.7302 0.4 0.896 0.9674 -0.6457 -0.2277 0.7288
-1.1 0.6502 0.3 0.8554 0.9674 -0.6549 -0.7317 0.1889
-0.9 0.6502 0.3 0.8554 0.9056 0.6549 -0.7317 0.1889
-0.9 0.6902 0.3723 0.881 0.9056 0.6592 -0.5577 0.5044
-0.9 0.6902 0.3723 0.881 0.9056 0.6592 -0.5577 0.5044
-1.1 0.6902 0.3723 0.881 0.9674 -0.6592 -0.5577 0.5044
-1.1 0.6502 0.3 0.8554 0.9674 -0.6549 -0.7317 0.1889
-0.9 0.7502 0.4 0.8863 0.8747 0.7071 -0 0.7071
-0.9 0.7302 0.4 0.8863 0.8809 0.6457 -0.2277 0.7288
-0.9 0.7302 -0.4 0.6391 0.8809 0.6457 -0.2277 -0.7288
-0.9 0.7302 -0.4 0.6391 0.8809 0.6457 -0.2277 -0.7288
-0.9 0.7502 -0.4 0.6391 0.8747 0.7071 0 -0.7071
-0.9 0.7502 0.4 0.8863 0.8747 0.7071 -0 0.7071
-1.1 0.6902 0.3723 0.8778 0.9798 -0.6592 -0.5577 0.5044
-1.1 0.7302 0.4 0.8863 0.9922 -0.6457 -0.2277 0.7288
-1.1 0.7302 -0.4 0.6391 0.9922 -0.6457 -0.2277 -0.7288
-1.1 0.7302 -0.4 0.6391 0.9922 -0.6457 -0.2277 -0.7288
-1.1 0.6902 -0.3723 0.6476 0.9798 -0.6592 -0.5577 -0.5044
-1.1 0.6902 0.3723 0.8778 0.9798 -0.6592 -0.5577 0.5044
-0.1 0.6502 -0.3 0.67 0.7135 -0.6549 -0.7317 -0.1889
-0.1 0.6902 -0.3723 0.6444 0.7135 -0.6592 -0.5577 -0.5044
0.1 0.6902 -0.3723 0.6444 0.6517 0.6592 -0.5577 -0.5044
0.1 0.6902 -0.3723 0.6444 0.6517 0.6592 -0.5577 -0.5044
0.1 0.6502 -0.3 0.67 0.6517 0.6549 -0.7317 -0.1889
-0.1 0.6502 -0.3 0.67 0.7135 -0.6549 -0.7317 -0.1889
-0.1 0.7302 -0.4 0.6294 0.7135 -0.6457 -0.2277 -0.7288
-0.1 0.7502 -0.4 0.6232 0.7135 -0.7071 0 -0.7071
0.1 0.7502 -0.4 0.6232 0.6517 0.7071 0 -0.7071
0.1 0.7502 -0.4 0.6232 0.6517 0.7071 0 -0.7071
0.1 0.7302 -0.4 0.6294 0.6517 0.6457 -0.2277 -0.7288
-0.1 0.7302 -0.4 0.6294 0.7135 -0.6457 -0.2277 -0.7288
-0.1 0.6902 -0.3723 0.6444 0.7135 -0.6592 -0.5577 -0.5044
-0.1 0.7302 -0.4 0.6294 0.7135 -0.6457 -0.2277 -0.7288
0.1 0.7302 -0.4 0.6294 0.6517 0.6457 -0.2277 -0.7288
0.1 0.7302 -0.4 0.6294 0.6517 0.6457 -0.2277 -0.7288
0.1 0.6902 -0.3723 0.6444 0.6517 0.6592 -0.5577 -0.5044
-0.1 0.6902 -0.3723 0.6444 0.7135 -0.6592 -0.5577 -0.5044
-0.1 0.6502 0.3 0.8554 0.7135 -0.6549 -0.7317 0.1889
0.1 0.6502 0.3 0.8554 0.6517 0.6549 -0.7317 0.1889
0.1 0.6902 0.3723 0.881 0.6517 0.6592 -0.5577 0.5044
0.1 0.6902 0.3723 0.881 0.6517 0.6592 -0.5577 0.5044
-0.1 0.6902 0.3723 0.881 0.7135 -0.6592 -0.5577 0.5044
-0.1 0.6502 0.3 0.8554 0.7135 -0.6549 -0.7317 0.1889
-0.1 0.6902 0.3723 0.881 0.7135 -0.6592 -0.5577 0.5044
0.1 0.6902 0.3723 0.881 0.6517 0.6592 -0.5577 0.5044
0.1 0.7302 0.4 0.896 0.6517 0.6457 -0.2277 0.7288
0.1 0.7302 0.4 0.896 0.6517 0.6457 -0.2277 0.7288
-0.1 0.7302 0.4 0.896 0.7135 -0.6457 -0.2277 0.7288
-0.1 0.6902 0.3723 0.881 0.7135 -0.6592 -0.5577 0.5044
-0.1 0.7302 0.4 0.896 0.7135 -0.6457 -0.2277 0.7288
0.1 0.7302 0.4 0.896 0.6517 0.6457 -0.2277 0.7288
0.1 0.7502 0.4 0.9022 0.6517 0.7071 -0 0.7071
0.1 0.7502 0.4 0.9022 0.6517 0.7071 -0 0.7071
-0.1 0.7502 0.4 0.9022 0.7135 -0.7071 -0 0.7071
-0.1 0.7302 0.4 0.896 0.7135 -0.6457 -0.2277 0.7288
-0.1 0.6902 0.3723 0.8778 0.7258 -0.6592 -0.5577 0.5044
-0.1 0.7302 0.4 0.8863 0.7382 -0.6457 -0.2277 0.7288
-0.1 0.7302 -0.4 0.6391 0.7382 -0.6457 -0.2277 -0.7288
-0.1 0.7302 -0.4 0.6391 0.7382 -0.6457 -0.2277 -0.7288
-0.1 0.6902 -0.3723 0.6476 0.7258 -0.6592 -0.5577 -0.5044
-0.1 0.6902 0.3723 0.8778 0.7258 -0.6592 -0.5577 0.5044
-0.1 0.6502 0.3 0.8554 0.7135 -0.6549 -0.7317 0.1889
-0.1 0.6902 0.3723 0.8778 0.7258 -0.6592 -0.5577 0.5044
-0.1 0.6902 -0.3723 0.6476 0.7258 -0.6592 -0.5577 -0.5044
-0.1 0.6902 -0.3723 0.6476 0.7258 -0.6592 -0.5577 -0.5044
-0.1 0.6502 -0.3 0.67 0.7135 -0.6549 -0.7317 -0.1889
-0.1 0.6502 0.3 0.8554 0.7135 -0.6549 -0.7317 0.1889
0.1 0.6502 0.3 0.8554 0.6517 0.6549 -0.7317 0.1889
-0.1 0.6502 0.3 0.8554 0.7135 -0.6549 -0.7317 0.1889
-0.1 0.6502 -0.3 0.67 0.7135 -0.6549 -0.7317 -0.1889
-0.1 0.6502 -0.3 0.67 0.7135 -0.6549 -0.7317 -0.1889
0.1 0.6502 -0.3 0.67 0.6517 0.6549 -0.7317 -0.1889
0.1 0.6502 0.3 0.8554 0.6517 0.6549 -0.7317 0.1889
0.1 0.6902 0.3723 0.8778 0.6393 0.6592 -0.5577 0.5044
0.1 0.6502 0.3 0.8554 0.6517 0.6549 -0.7317 0.1889
0.1 0.6502 -0.3 0.67 0.6517 0.6549 -0.7317 -0.1889
0.1 0.6502 -0.3 0.67 0.6517 0.6549 -0.7317 -0.1889
0.1 0.6902 -0.3723 0.6476 0.6393 0.6592 -0.5577 -0.5044
0.1 0.6902 0.3723 0.8778 0.6393 0.6592 -0.5577 0.5044
0.1 0.7302 0.4 0.8863 0.6269 0.6457 -0.2277 0.7288
0.1 0.6902 0.3723 0.8778 0.6393 0.6592 -0.5577 0.5044
0.1 0.6902 -0.3723 0.6476 0.6393 0.6592 -0.5577 -0.5044
0.1 0.6902 -0.3723 0.6476 0.6393 0.6592 -0.5577 -0.5044
0.1 0.7302 -0.4 0.6391 0.6269 0.6457 -0.2277 -0.7288
0.1 0.7302 0.4 0.8863 0.6269 0.6457 -0.2277 0.7288
0.1 0.7502 0.4 0.8863 0.6208 0.7071 -0 0.7071
0.1 0.7302 0.4 0.8863 0.6269 0.6457 -0.2277 0.7288
0.1 0.7302 -0.4 0.6391 0.6269 0.6457 -0.2277 -0.7288
0.1 0.7302 -0.4 0.6391 0.6269 0.6457 -0.2277 -0.7288
0.1 0.7502 -0.4 0.6391 0.6208 0.7071 0 -0.7071
0.1 0.7502 0.4 0.8863 0.6208 0.7071 -0 0.7071
-0.1 0.7302 0.4 0.8863 0.7382 -0.6457 -0.2277 0.7288
-0.1 0.7502 0.4 0.8863 0.7444 -0.7071 -0 0.7071
-0.1 0.7502 -0.4 0.6391 0.7444 -0.7071 0 -0.7071
-0.1 0.7502 -0.4 0.6391 0.7444 -0.7071 0 -0.7071
-0.1 0.7302 -0.4 0.6391 0.7382 -0.6457 -0.2277 -0.7288
-0.1 0.7302 0.4 0.8863 0.7382 -0.6457 -0.2277 0.7288
-1.2 0.7502 0.5 0.7159 0.1011 -0.5774 -0.5774 0.5774
-1.2 0.8502 0.5 0.7159 0.132 -0.5774 0.5774 0.5774
-1.2 0.8502 -0.5 0.4068 0.132 -0.5774 0.5774 -0.5774
-1.2 0.8502 -0.5 0.4068 0.132 -0.5774 0.5774 -0.5774
-1.2 0.7502 -0.5 0.4068 0.1011 -0.5774 -0.5774 -0.5774
-1.2 0.7502 0.5 0.7159 0.1011 -0.5774 -0.5774 0.5774
-1 0.7502 0.5 0.7159 0.0392 0 -0.7071 0.7071
-1 0.8502 0.5 0.7468 0.0392 0 0.7071 0.7071
-1.2 0.8502 0.5 0.7468 0.1011 -0.5774 0.5774 0.5774
-1.2 0.8502 0.5 0.7468 0.1011 -0.5774 0.5774 0.5774
-1.2 0.7502 0.5 0.7159 0.1011 -0.5774 -0.5774 0.5774
-1 0.7502 0.5 0.7159 0.0392 0 -0.7071 0.7071
-1.2 0.7502 -0.5 0.3759 0.132 -0.5774 -0.5774 -0.5774
-1.2 0.8502 -0.5 0.4068 0.132 -0.5774 0.5774 -0.5774
-1 0.8502 -0.5 0.4068 0.1938 0 0.7071 -0.7071
-1 0.8502 -0.5 0.4068 0.1938 0 0.7071 -0.7071
-1 0.7502 -0.5 0.3759 0.1938 0 -0.7071 -0.7071
-1.2 0.7502 -0.5 0.3759 0.132 -0.5774 -0.5774 -0.5774
-1 0.7502 0.5 0.7159 0.0392 0 -0.7071 0.7071
-1.2 0.7502 0.5 0.7159 0.1011 -0.5774 -0.5774 0.5774
-1.2 0.7502 -0.5 0.4068 0.1011 -0.5774 -0.5774 -0.5774
-1.2 0.7502 -0.5 0.4068 0.1011 -0.5774 -0.5774 -0.5774
-1 0.7502 -0.5 0.4068 0.0392 0 -0.7071 -0.7071
-1 0.7502 0.5 0.7159 0.0392 0 -0.7071 0.7071
-1.2 0.8502 0.5 0.7159 0.132 -0.5774 0.5774 0.5774
-1 0.8502 0.5 0.7159 0.1938 0 0.7071 0.7071
-1 0.8502 -0.5 0.4068 0.1938 0 0.7071 -0.7071
-1 0.8502 -0.5 0.4068 0.1938 0 0.7071 -0.7071
-1.2 0.8502 -0.5 0.4068 0.132 -0.5774 0.5774 -0.5774
-1.2 0.8502 0.5 0.7159 0.132 -0.5774 0.5774 0.5774
-1.0674 0.0775 0.2955 0.8323 0.5379 -0.6571 0.3186 0.6832
-1.0674 0.0887 0.2865 0.8295 0.5414 -0.6508 0.6188 0.4401
-1.0674 0 0 0.7409 0.514 -0.7071 -0.7071 -0
-1.0674 0.055 -0.3 0.6402 0.5449 -0.6858 0.071 -0.7243
-1.0674 0.0775 -0.2955 0.6473 0.5449 -0.6571 0.3186 -0.6832
-0.9326 0.0775 -0.2955 0.6473 0.5865 0.6571 0.3186 -0.6832
-0.9326 0.0775 -0.2955 0.6473 0.5865 0.6571 0.3186 -0.6832
-0.9326 0.055 -0.3 0.6402 0.5865 0.6858 0.071 -0.7243
-1.0674 0.055 -0.3 0.6402 0.5449 -0.6858 0.071 -0.7243
-1.0674 0.055 -0.3 0.6482 0.531 -0.6858 0.071 -0.7243
-1.0674 0 0 0.7409 0.514 -0.7071 -0.7071 -0
-1.0674 0.0775 -0.2955 0.6496 0.5379 -0.6571 0.3186 -0.6832
-1.0674 0.055 0.3 0.8336 0.531 -0.6858 0.071 0.7243
-1.0674 0.0775 0.2955 0.8323 0.5379 -0.6571 0.3186 0.6832
-1.0674 0 0 0.7409 0.514 -0.7071 -0.7071 -0
-1.0674 0 -0.3 0.6482 0.514 -0.5774 -0.5774 -0.5774
-1.0674 0 0 0.7409 0.514 -0.7071 -0.7071 -0
-1.0674 0.055 -0.3 0.6482 0.531 -0.6858 0.071 -0.7243
-1.0674 -0 0.3 0.8336 0.514 -0.5774 -0.5774 0.5774
-1.0674 0.055 0.3 0.8336 0.531 -0.6858 0.071 0.7243
-1.0674 0 0 0.7409 0.514 -0.7071 -0.7071 -0
-1.0674 0.1 0.255 0.8197 0.5449 -0.6706 0.7309 0.1266
-0.9326 0.1 0.255 0.8197 0.5865 0.6706 0.7309 0.1266
-0.9326 0.1 -0.255 0.6621 0.5865 0.6706 0.7309 -0.1266
-0.9326 0.1 -0.255 0.6621 0.5865 0.6706 0.7309 -0.1266
-1.0674 0.1 -0.255 0.6621 0.5449 -0.6706 0.7309 -0.1266
-1.0674 0.1 0.255 0.8197 0.5449 -0.6706 0.7309 0.1266
-0.9326 -0 0.3 0.8336 0.6174 0.5774 -0.5774 0.5774
-0.9326 0 0 0.7409 0.6174 0.7071 -0.7071 -0
-0.9326 0.055 0.3 0.8336 0.6004 0.6858 0.071 0.7243
-0.9326 0.055 -0.3 0.6482 0.6004 0.6858 0.071 -0.7243
-0.9326 0.0775 -0.2955 0.6496 0.5935 0.6571 0.3186 -0.6832
-0.9326 0 0 0.7409 0.6174 0.7071 -0.7071 -0
-0.9326 0.055 0.3 0.8336 0.6004 0.6858 0.071 0.7243
-0.9326 0 0 0.7409 0.6174 0.7071 -0.7071 -0
-0.9326 0.0775 0.2955 0.8323 0.5935 0.6571 0.3186 0.6832
-0.9326 0 0 0.7409 0.4723 0.7071 -0.7071 -0
-1.0674 0 0 0.7409 0.514 -0.7071 -0.7071 -0
-1.0674 0 -0.3 0.6482 0.514 -0.5774 -0.5774 -0.5774
-1.0674 0 -0.3 0.6482 0.514 -0.5774 -0.5774 -0.5774
-0.9326 0 -0.3 0.6482 0.4723 0.5774 -0.5774 -0.5774
-0.9326 0 0 0.7409 0.4723 0.7071 -0.7071 -0
-0.9326 0.055 0.3 0.8416 0.5865 0.6858 0.071 0.7243
-0.9326 0.0775 0.2955 0.8345 0.5865 0.6571 0.3186 0.6832
-1.0674 0.0775 0.2955 0.8345 0.5449 -0.6571 0.3186 0.6832
-1.0674 0.0775 0.2955 0.8345 0.5449 -0.6571 0.3186 0.6832
-1.0674 0.055 0.3 0.8416 0.5449 -0.6858 0.071 0.7243
-0.9326 0.055 0.3 0.8416 0.5865 0.6858 0.071 0.7243
1.0674 -0 0.3 0.8336 0.3239 0.5774 -0.5774 0.5774
0.9326 -0 0.3 0.8336 0.3655 -0.5774 -0.5774 0.5774
0.9326 0 0 0.7409 0.3655 -0.7071 -0.7071 -0
0.9326 0 0 0.7409 0.3655 -0.7071 -0.7071 -0
1.0674 0 0 0.7409 0.3239 0.7071 -0.7071 -0
1.0674 -0 0.3 0.8336 0.3239 0.5774 -0.5774 0.5774
0.9326 0 -0.3 0.6232 0.3964 -0.5774 -0.5774 -0.5774
0.9326 0.055 -0.3 0.6402 0.3964 -0.6858 0.071 -0.7243
1.0674 0.055 -0.3 0.6402 0.4381 0.6858 0.071 -0.7243
1.0674 0.055 -0.3 0.6402 0.4381 0.6858 0.071 -0.7243
1.0674 0 -0.3 0.6232 0.4381 0.5774 -0.5774 -0.5774
0.9326 0 -0.3 0.6232 0.3964 -0.5774 -0.5774 -0.5774
1.0674 0 -0.3 0.6482 0.469 0.5774 -0.5774 -0.5774
1.0674 0.055 -0.3 0.6482 0.452 0.6858 0.071 -0.7243
1.0674 0 0 0.7409 0.469 0.7071 -0.7071 -0
-0.9326 0 -0.3 0.6482 0.6174 0.5774 -0.5774 -0.5774
-0.9326 0.055 -0.3 0.6482 0.6004 0.6858 0.071 -0.7243
-0.9326 0 0 0.7409 0.6174 0.7071 -0.7071 -0
-1.0674 0 -0.3 0.6232 0.5449 -0.5774 -0.5774 -0.5774
-1.0674 0.055 -0.3 0.6402 0.5449 -0.6858 0.071 -0.7243
-0.9326 0.055 -0.3 0.6402 0.5865 0.6858 0.071 -0.7243
-0.9326 0.055 -0.3 0.6402 0.5865 0.6858 0.071 -0.7243
-0.9326 0 -0.3 0.6232 0.5865 0.5774 -0.5774 -0.5774
-1.0674 0 -0.3 0.6232 0.5449 -0.5774 -0.5774 -0.5774
1.0674 -0 0.3 0.8586 0.4381 0.5774 -0.5774 0.5774
1.0674 0.055 0.3 0.8416 0.4381 0.6858 0.071 0.7243
0.9326 0.055 0.3 0.8416 0.3964 -0.6858 0.071 0.7243
0.9326 0.055 0.3 0.8416 0.3964 -0.6858 0.071 0.7243
0.9326 -0 0.3 0.8586 0.3964 -0.5774 -0.5774 0.5774
1.0674 -0 0.3 0.8586 0.4381 0.5774 -0.5774 0.5774
-0.9326 -0 0.3 0.8336 0.4723 0.5774 -0.5774 0.5774
-1.0674 -0 0.3 0.8336 0.514 -0.5774 -0.5774 0.5774
-1.0674 0 0 0.7409 0.514 -0.7071 -0.7071 -0
-1.0674 0 0 0.7409 0.514 -0.7071 -0.7071 -0
-0.9326 0 0 0.7409 0.4723 0.7071 -0.7071 -0
-0.9326 -0 0.3 0.8336 0.4723 0.5774 -0.5774 0.5774
-0.9326 -0 0.3 0.8586 0.5865 0.5774 -0.5774 0.5774
-0.9326 0.055 0.3 0.8416 0.5865 0.6858 0.071 0.7243
-1.0674 0.055 0.3 0.8416 0.5449 -0.6858 0.071 0.7243
-1.0674 0.055 0.3 0.8416 0.5449 -0.6858 0.071 0.7243
-1.0674 -0 0.3 0.8586 0.5449 -0.5774 -0.5774 0.5774
-0.9326 -0 0.3 0.8586 0.5865 0.5774 -0.5774 0.5774
0.9326 -0 0.3 0.8336 0.3655 -0.5774 -0.5774 0.5774
0.9326 0.055 0.3 0.8336 0.3825 -0.6858 0.071 0.7243
0.9326 0 0 0.7409 0.3655 -0.7071 -0.7071 -0
0.9326 0.1 0.255 0.8197 0.3964 -0.6706 0.7309 0.1266
1.0674 0.1 0.255 0.8197 0.4381 0.6706 0.7309 0.1266
1.0674 0.1 -0.255 0.6621 0.4381 0.6706 0.7309 -0.1266
1.0674 0.1 -0.255 0.6621 0.4381 0.6706 0.7309 -0.1266
0.9326 0.1 -0.255 0.6621 0.3964 -0.6706 0.7309 -0.1266
0.9326 0.1 0.255 0.8197 0.3964 -0.6706 0.7309 0.1266
1.0674 -0 0.3 0.8336 0.469 0.5774 -0.5774 0.5774
1.0674 0 0 0.7409 0.469 0.7071 -0.7071 -0
1.0674 0.055 0.3 0.8336 0.452 0.6858 0.071 0.7243
0.9326 0 -0.3 0.6482 0.3655 -0.5774 -0.5774 -0.5774
0.9326 0 0 0.7409 0.3655 -0.7071 -0.7071 -0
0.9326 0.055 -0.3 0.6482 0.3825 -0.6858 0.071 -0.7243
1.0674 0 0 0.7409 0.3239 0.7071 -0.7071 -0
0.9326 0 0 0.7409 0.3655 -0.7071 -0.7071 -0
0.9326 0 -0.3 0.6482 0.3655 -0.5774 -0.5774 -0.5774
0.9326 0 -0.3 0.6482 0.3655 -0.5774 -0.5774 -0.5774
1.0674 0 -0.3 0.6482 0.3239 0.5774 -0.5774 -0.5774
1.0674 0 0 0.7409 0.3239 0.7071 -0.7071 -0
0.9326 0.055 -0.3 0.6482 0.3825 -0.6858 0.071 -0.7243
0.9326 0 0 0.7409 0.3655 -0.7071 -0.7071 -0
0.9326 0.0775 -0.2955 0.6496 0.3895 -0.6571 0.3186 -0.6832
1.0674 0.055 0.3 0.8336 0.452 0.6858 0.071 0.7243
1.0674 0 0 0.7409 0.469 0.7071 -0.7071 -0
1.0674 0.0775 0.2955 0.8323 0.445 0.6571 0.3186 0.6832
0.9326 0.055 -0.3 0.6402 0.3964 -0.6858 0.071 -0.7243
0.9326 0.0775 -0.2955 0.6473 0.3964 -0.6571 0.3186 -0.6832
1.0674 0.0775 -0.2955 0.6473 0.4381 0.6571 0.3186 -0.6832
1.0674 0.0775 -0.2955 0.6473 0.4381 0.6571 0.3186 -0.6832
1.0674 0.055 -0.3 0.6402 0.4381 0.6858 0.071 -0.7243
0.9326 0.055 -0.3 0.6402 0.3964 -0.6858 0.071 -0.7243
1.0674 0.055 -0.3 0.6482 0.452 0.6858 0.071 -0.7243
1.0674 0.0775 -0.2955 0.6496 0.445 0.6571 0.3186 -0.6832
1.0674 0 0 0.7409 0.469 0.7071 -0.7071 -0
1.0674 0.055 0.3 0.8416 0.4381 0.6858 0.071 0.7243
1.0674 0.0775 0.2955 0.8345 0.4381 0.6571 0.3186 0.6832
0.9326 0.0775 0.2955 0.8345 0.3964 -0.6571 0.3186 0.6832
0.9326 0.0775 0.2955 0.8345 0.3964 -0.6571 0.3186 0.6832
0.9326 0.055 0.3 0.8416 0.3964 -0.6858 0.071 0.7243
1.0674 0.055 0.3 0.8416 0.4381 0.6858 0.071 0.7243
0.9326 0.055 0.3 0.8336 0.3825 -0.6858 0.071 0.7243
0.9326 0.0775 0.2955 0.8323 0.3895 -0.6571 0.3186 0.6832
0.9326 0 0 0.7409 0.3655 -0.7071 -0.7071 -0
0.9326 0.0775 0.2955 0.8323 0.3895 -0.6571 0.3186 0.6832
0.9326 0.0887 0.2865 0.8295 0.3929 -0.6508 0.6188 0.4401
0.9326 0 0 0.7409 0.3655 -0.7071 -0.7071 -0
1.0674 0.0775 0.2955 0.8345 0.4381 0.6571 0.3186 0.6832
1.0674 0.0887 0.2865 0.8301 0.4381 0.6508 0.6188 0.4401
0.9326 0.0887 0.2865 0.8301 0.3964 -0.6508 0.6188 0.4401
0.9326 0.0887 0.2865 0.8301 0.3964 -0.6508 0.6188 0.4401
0.9326 0.0775 0.2955 0.8345 0.3964 -0.6571 0.3186 0.6832
1.0674 0.0775 0.2955 0.8345 0.4381 0.6571 0.3186 0.6832
1.0674 0.0775 -0.2955 0.6496 0.445 0.6571 0.3186 -0.6832
1.0674 0.0888 -0.2865 0.6524 0.4416 0.6508 0.6188 -0.4401
1.0674 0 0 0.7409 0.469 0.7071 -0.7071 -0
0.9326 0.0775 -0.2955 0.6473 0.3964 -0.6571 0.3186 -0.6832
0.9326 0.0888 -0.2865 0.6518 0.3964 -0.6508 0.6188 -0.4401
1.0674 0.0888 -0.2865 0.6518 0.4381 0.6508 0.6188 -0.4401
1.0674 0.0888 -0.2865 0.6518 0.4381 0.6508 0.6188 -0.4401
1.0674 0.0775 -0.2955 0.6473 0.4381 0.6571 0.3186 -0.6832
0.9326 0.0775 -0.2955 0.6473 0.3964 -0.6571 0.3186 -0.6832
1.0674 0.0775 0.2955 0.8323 0.445 0.6571 0.3186 0.6832
1.0674 0 0 0.7409 0.469 0.7071 -0.7071 -0
1.0674 0.0887 0.2865 0.8295 0.4416 0.6508 0.6188 0.4401
0.9326 0.0775 -0.2955 0.6496 0.3895 -0.6571 0.3186 -0.6832
0.9326 0 0 0.7409 0.3655 -0.7071 -0.7071 -0
0.9326 0.0888 -0.2865 0.6524 0.3929 -0.6508 0.6188 -0.4401
1.0674 0 0 0.7409 0.469 0.7071 -0.7071 -0
1.0674 0.1 -0.255 0.6621 0.4381 0.6706 0.7309 -0.1266
1.0674 0.1 0.255 0.8197 0.4381 0.6706 0.7309 0.1266
0.9326 0.0888 -0.2865 0.6524 0.3929 -0.6508 0.6188 -0.4401
0.9326 0 0 0.7409 0.3655 -0.7071 -0.7071 -0
0.9326 0.1 -0.255 0.6621 0.3964 -0.6706 0.7309 -0.1266
1.0674 0.0887 0.2865 0.8295 0.4416 0.6508 0.6188 0.4401
1.0674 0 0 0.7409 0.469 0.7071 -0.7071 -0
1.0674 0.1 0.255 0.8197 0.4381 0.6706 0.7309 0.1266
0.9326 0 0 0.7409 0.3655 -0.7071 -0.7071 -0
0.9326 0.1 0.255 0.8197 0.3964 -0.6706 0.7309 0.1266
0.9326 0.1 -0.255 0.6621 0.3964 -0.6706 0.7309 -0.1266
0.9326 0.0888 -0.2865 0.6518 0.3964 -0.6508 0.6188 -0.4401
0.9326 0.1 -0.255 0.6621 0.3964 -0.6706 0.7309 -0.1266
1.0674 0.1 -0.255 0.6621 0.4381 0.6706 0.7309 -0.1266
1.0674 0.1 -0.255 0.6621 0.4381 0.6706 0.7309 -0.1266
1.0674 0.0888 -0.2865 0.6518 0.4381 0.6508 0.6188 -0.4401
0.9326 0.0888 -0.2865 0.6518 0.3964 -0.6508 0.6188 -0.4401
1.0674 0 0 0.7409 0.469 0.7071 -0.7071 -0
1.0674 0.0888 -0.2865 0.6524 0.4416 0.6508 0.6188 -0.4401
1.0674 0.1 -0.255 0.6621 0.4381 0.6706 0.7309 -0.1266
1.0674 0.0887 0.2865 0.8301 0.4381 0.6508 0.6188 0.4401
1.0674 0.1 0.255 0.8197 0.4381 0.6706 0.7309 0.1266
0.9326 0.1 0.255 0.8197 0.3964 -0.6706 0.7309 0.1266
0.9326 0.1 0.255 0.8197 0.3964 -0.6706 0.7309 0.1266
0.9326 0.0887 0.2865 0.8301 0.3964 -0.6508 0.6188 0.4401
1.0674 0.0887 0.2865 0.8301 0.4381 0.6508 0.6188 0.4401
0.9326 0 0 0.7409 0.3655 -0.7071 -0.7071 -0
0.9326 0.0887 0.2865 0.8295 0.3929 -0.6508 0.6188 0.4401
0.9326 0.1 0.255 0.8197 0.3964 -0.6706 0.7309 0.1266
-0.9326 0.0775 0.2955 0.8345 0.5865 0.6571 0.3186 0.6832
-0.9326 0.0887 0.2865 0.8301 0.5865 0.6508 0.6188 0.4401
-1.0674 0.0887 0.2865 0.8301 0.5449 -0.6508 0.6188 0.4401
-1.0674 0.0887 0.2865 0.8301 0.5449 -0.6508 0.6188 0.4401
-1.0674 0.0775 0.2955 0.8345 0.5449 -0.6571 0.3186 0.6832
-0.9326 0.0775 0.2955 0.8345 0.5865 0.6571 0.3186 0.6832
-0.9326 0.0775 -0.2955 0.6496 0.5935 0.6571 0.3186 -0.6832
-0.9326 0.0888 -0.2865 0.6524 0.59 0.6508 0.6188 -0.4401
-0.9326 0 0 0.7409 0.6174 0.7071 -0.7071 -0
-1.0674 0.0775 -0.2955 0.6473 0.5449 -0.6571 0.3186 -0.6832
-1.0674 0.0888 -0.2865 0.6518 0.5449 -0.6508 0.6188 -0.4401
-0.9326 0.0888 -0.2865 0.6518 0.5865 0.6508 0.6188 -0.4401
-0.9326 0.0888 -0.2865 0.6518 0.5865 0.6508 0.6188 -0.4401
-0.9326 0.0775 -0.2955 0.6473 0.5865 0.6571 0.3186 -0.6832
-1.0674 0.0775 -0.2955 0.6473 0.5449 -0.6571 0.3186 -0.6832
-0.9326 0.0775 0.2955 0.8323 0.5935 0.6571 0.3186 0.6832
-0.9326 0 0 0.7409 0.6174 0.7071 -0.7071 -0
-0.9326 0.0887 0.2865 0.8295 0.59 0.6508 0.6188 0.4401
-1.0674 0.0775 -0.2955 0.6496 0.5379 -0.6571 0.3186 -0.6832
-1.0674 0 0 0.7409 0.514 -0.7071 -0.7071 -0
-1.0674 0.0888 -0.2865 0.6524 0.5414 -0.6508 0.6188 -0.4401
-0.9326 0 0 0.7409 0.6174 0.7071 -0.7071 -0
-0.9326 0.1 -0.255 0.6621 0.5865 0.6706 0.7309 -0.1266
-0.9326 0.1 0.255 0.8197 0.5865 0.6706 0.7309 0.1266
-1.0674 0.0888 -0.2865 0.6524 0.5414 -0.6508 0.6188 -0.4401
-1.0674 0 0 0.7409 0.514 -0.7071 -0.7071 -0
-1.0674 0.1 -0.255 0.6621 0.5449 -0.6706 0.7309 -0.1266
-0.9326 0.0887 0.2865 0.8295 0.59 0.6508 0.6188 0.4401
-0.9326 0 0 0.7409 0.6174 0.7071 -0.7071 -0
-0.9326 0.1 0.255 0.8197 0.5865 0.6706 0.7309 0.1266
-1.0674 0 0 0.7409 0.514 -0.7071 -0.7071 -0
-1.0674 0.1 0.255 0.8197 0.5449 -0.6706 0.7309 0.1266
-1.0674 0.1 -0.255 0.6621 0.5449 -0.6706 0.7309 -0.1266
-1.0674 0.0888 -0.2865 0.6518 0.5449 -0.6508 0.6188 -0.4401
-1.0674 0.1 -0.255 0.6621 0.5449 -0.6706 0.7309 -0.1266
-0.9326 0.1 -0.255 0.6621 0.5865 0.6706 0.7309 -0.1266
-0.9326 0.1 -0.255 0.6621 0.5865 0.6706 0.7309 -0.1266
-0.9326 0.0888 -0.2865 0.6518 0.5865 0.6508 0.6188 -0.4401
-1.0674 0.0888 -0.2865 0.6518 0.5449 -0.6508 0.6188 -0.4401
-0.9326 0 0 0.7409 0.6174 0.7071 -0.7071 -0
-0.9326 0.0888 -0.2865 0.6524 0.59 0.6508 0.6188 -0.4401
-0.9326 0.1 -0.255 0.6621 0.5865 0.6706 0.7309 -0.1266
-0.9326 0.0887 0.2865 0.8301 0.5865 0.6508 0.6188 0.4401
-0.9326 0.1 0.255 0.8197 0.5865 0.6706 0.7309 0.1266
-1.0674 0.1 0.255 0.8197 0.5449 -0.6706 0.7309 0.1266
-1.0674 0.1 0.255 0.8197 0.5449 -0.6706 0.7309 0.1266
-1.0674 0.0887 0.2865 0.8301 0.5449 -0.6508 0.6188 0.4401
-0.9326 0.0887 0.2865 0.8301 0.5865 0.6508 0.6188 0.4401
-1.0674 0 0 0.7409 0.514 -0.7071 -0.7071 -0
-1.0674 0.0887 0.2865 0.8295 0.5414 -0.6508 0.6188 0.4401
-1.0674 0.1 0.255 0.8197 0.5449 -0.6706 0.7309 0.1266
1.2 0.7502 0.5 0.3726 0.1011 0.5774 -0.5774 0.5774
1.2 0.8502 0.5 0.3417 0.1011 0.5774 0.5774 0.5774
1 0.8502 0.5 0.3417 0.0392 0 0.7071 0.7071
1 0.8502 0.5 0.3417 0.0392 0 0.7071 0.7071
1 0.7502 0.5 0.3726 0.0392 0 -0.7071 0.7071
1.2 0.7502 0.5 0.3726 0.1011 0.5774 -0.5774 0.5774
1.2 0.7502 -0.5 0.0326 0.132 0.5774 -0.5774 -0.5774
1.2 0.8502 -0.5 0.0326 0.1011 0.5774 0.5774 -0.5774
1.2 0.8502 0.5 0.3417 0.1011 0.5774 0.5774 0.5774
1.2 0.8502 0.5 0.3417 0.1011 0.5774 0.5774 0.5774
1.2 0.7502 0.5 0.3417 0.132 0.5774 -0.5774 0.5774
1.2 0.7502 -0.5 0.0326 0.132 0.5774 -0.5774 -0.5774
1 0.7502 -0.5 0.0326 0.1938 0 -0.7071 -0.7071
1 0.8502 -0.5 0.0017 0.1938 0 0.7071 -0.7071
1.2 0.8502 -0.5 0.0017 0.132 0.5774 0.5774 -0.5774
1.2 0.8502 -0.5 0.0017 0.132 0.5774 0.5774 -0.5774
1.2 0.7502 -0.5 0.0326 0.132 0.5774 -0.5774 -0.5774
1 0.7502 -0.5 0.0326 0.1938 0 -0.7071 -0.7071
1.2 0.7502 0.5 0.3417 0.132 0.5774 -0.5774 0.5774
1 0.7502 0.5 0.3417 0.1938 0 -0.7071 0.7071
1 0.7502 -0.5 0.0326 0.1938 0 -0.7071 -0.7071
1 0.7502 -0.5 0.0326 0.1938 0 -0.7071 -0.7071
1.2 0.7502 -0.5 0.0326 0.132 0.5774 -0.5774 -0.5774
1.2 0.7502 0.5 0.3417 0.132 0.5774 -0.5774 0.5774
1 0.8502 0.5 0.3417 0.0392 0 0.7071 0.7071
1.2 0.8502 0.5 0.3417 0.1011 0.5774 0.5774 0.5774
1.2 0.8502 -0.5 0.0326 0.1011 0.5774 0.5774 -0.5774
1.2 0.8502 -0.5 0.0326 0.1011 0.5774 0.5774 -0.5774
1 0.8502 -0.5 0.0326 0.0392 0 0.7071 -0.7071
1 0.8502 0.5 0.3417 0.0392 0 0.7071 0.7071
1 0.7502 0.5 0.6012 0.3388 0 -0.7071 0.7071
1 0.8502 0.5 0.6012 0.3679 0 0.7071 0.7071
-1 0.8502 0.5 0.0203 0.3679 0 0.7071 0.7071
-1 0.8502 0.5 0.0203 0.3679 0 0.7071 0.7071
-1 0.7502 0.5 0.0203 0.3388 0 -0.7071 0.7071
1 0.7502 0.5 0.6012 0.3388 0 -0.7071 0.7071
-1 0.7502 -0.5 0.0203 0.6874 0 -0.7071 -0.7071
-1 0.8502 -0.5 0.0203 0.6583 0 0.7071 -0.7071
1 0.8502 -0.5 0.6012 0.6583 0 0.7071 -0.7071
1 0.8502 -0.5 0.6012 0.6583 0 0.7071 -0.7071
1 0.7502 -0.5 0.6012 0.6874 0 -0.7071 -0.7071
-1 0.7502 -0.5 0.0203 0.6874 0 -0.7071 -0.7071
1 0.7502 0.5 0.6012 0.9778 0 -0.7071 0.7071
-1 0.7502 0.5 0.0203 0.9778 0 -0.7071 0.7071
-1 0.7502 -0.5 0.0203 0.6874 0 -0.7071 -0.7071
-1 0.7502 -0.5 0.0203 0.6874 0 -0.7071 -0.7071
1 0.7502 -0.5 0.6012 0.6874 0 -0.7071 -0.7071
1 0.7502 0.5 0.6012 0.9778 0 -0.7071 0.7071
-1 0.8502 0.5 0.0203 0.3679 0 0.7071 0.7071
1 0.8502 0.5 0.6012 0.3679 0 0.7071 0.7071
1 0.8502 -0.5 0.6012 0.6583 0 0.7071 -0.7071
1 0.8502 -0.5 0.6012 0.6583 0 0.7071 -0.7071
-1 0.8502 -0.5 0.0203 0.6583 0 0.7071 -0.7071
-1 0.8502 0.5 0.0203 0.3679 0 0.7071 0.7071
0.95 0.1 0.1 0.7502 0.132 -0.7071 -0 0.7071
0.95 0.425 0.1 0.8274 0.132 -0.6515 0.2034 0.7309
0.95 0.425 -0.1 0.8274 0.1938 -0.6515 0.2034 -0.7309
0.95 0.425 -0.1 0.8274 0.1938 -0.6515 0.2034 -0.7309
0.95 0.1 -0.1 0.7502 0.1938 -0.7071 0 -0.7071
0.95 0.1 0.1 0.7502 0.132 -0.7071 -0 0.7071
1.05 0.1 0.1 0.0017 0.005 0.7071 -0 0.7071
1.05 0.425 0.1 0.0789 0.005 0.6515 0.2034 0.7309
0.95 0.425 0.1 0.0789 0.0359 -0.6515 0.2034 0.7309
0.95 0.425 0.1 0.0789 0.0359 -0.6515 0.2034 0.7309
0.95 0.1 0.1 0.0017 0.0359 -0.7071 -0 0.7071
1.05 0.1 0.1 0.0017 0.005 0.7071 -0 0.7071
1.05 0.1 -0.1 0.7502 0.0668 0.7071 0 -0.7071
1.05 0.425 -0.1 0.8274 0.0668 0.6515 0.2034 -0.7309
1.05 0.425 0.1 0.8274 0.1286 0.6515 0.2034 0.7309
1.05 0.425 0.1 0.8274 0.1286 0.6515 0.2034 0.7309
1.05 0.1 0.1 0.7502 0.1286 0.7071 -0 0.7071
1.05 0.1 -0.1 0.7502 0.0668 0.7071 0 -0.7071
0.95 0.1 -0.1 0.7431 0.1971 -0.7071 0 -0.7071
0.95 0.425 -0.1 0.8204 0.1971 -0.6515 0.2034 -0.7309
1.05 0.425 -0.1 0.8204 0.228 0.6515 0.2034 -0.7309
1.05 0.425 -0.1 0.8204 0.228 0.6515 0.2034 -0.7309
1.05 0.1 -0.1 0.7431 0.228 0.7071 0 -0.7071
0.95 0.1 -0.1 0.7431 0.1971 -0.7071 0 -0.7071
0.95 0.425 -0.1 0.8204 0.1971 -0.6515 0.2034 -0.7309
0.95 0.452 -0.0837 0.8286 0.1971 -0.7525 0.2266 -0.6183
1.05 0.452 -0.0837 0.8286 0.228 0.7525 0.2266 -0.6183
1.05 0.452 -0.0837 0.8286 0.228 0.7525 0.2266 -0.6183
1.05 0.425 -0.1 0.8204 0.228 0.6515 0.2034 -0.7309
0.95 0.425 -0.1 0.8204 0.1971 -0.6515 0.2034 -0.7309
1.05 0.425 -0.1 0.8274 0.0668 0.6515 0.2034 -0.7309
1.05 0.452 -0.0837 0.8339 0.0718 0.7525 0.2266 -0.6183
1.05 0.452 0.0837 0.8339 0.1236 0.7525 0.2266 0.6183
1.05 0.452 0.0837 0.8339 0.1236 0.7525 0.2266 0.6183
1.05 0.425 0.1 0.8274 0.1286 0.6515 0.2034 0.7309
1.05 0.425 -0.1 0.8274 0.0668 0.6515 0.2034 -0.7309
1.05 0.425 0.1 0.0789 0.005 0.6515 0.2034 0.7309
1.05 0.452 0.0837 0.0871 0.005 0.7525 0.2266 0.6183
0.95 0.452 0.0837 0.0871 0.0359 -0.7525 0.2266 0.6183
0.95 0.452 0.0837 0.0871 0.0359 -0.7525 0.2266 0.6183
0.95 0.425 0.1 0.0789 0.0359 -0.6515 0.2034 0.7309
1.05 0.425 0.1 0.0789 0.005 0.6515 0.2034 0.7309
0.95 0.425 0.1 0.8274 0.132 -0.6515 0.2034 0.7309
0.95 0.452 0.0837 0.8339 0.137 -0.7525 0.2266 0.6183
0.95 0.452 -0.0837 0.8339 0.1888 -0.7525 0.2266 -0.6183
0.95 0.452 -0.0837 0.8339 0.1888 -0.7525 0.2266 -0.6183
0.95 0.425 -0.1 0.8274 0.1938 -0.6515 0.2034 -0.7309
0.95 0.425 0.1 0.8274 0.132 -0.6515 0.2034 0.7309
0.95 0.5875 0.1 0.8661 0.132 -0.6515 -0.2034 0.7309
0.95 0.75 0.1 0.9047 0.132 -0.7071 -0 0.7071
0.95 0.75 -0.1 0.9047 0.1938 -0.7071 0 -0.7071
0.95 0.75 -0.1 0.9047 0.1938 -0.7071 0 -0.7071
0.95 0.5875 -0.1 0.8661 0.1938 -0.6515 -0.2034 -0.7309
0.95 0.5875 0.1 0.8661 0.132 -0.6515 -0.2034 0.7309
1.05 0.5875 0.1 0.1216 0.005 0.6515 -0.2034 0.7309
1.05 0.75 0.1 0.1602 0.005 0.7071 -0 0.7071
0.95 0.75 0.1 0.1602 0.0359 -0.7071 -0 0.7071
0.95 0.75 0.1 0.1602 0.0359 -0.7071 -0 0.7071
0.95 0.5875 0.1 0.1216 0.0359 -0.6515 -0.2034 0.7309
1.05 0.5875 0.1 0.1216 0.005 0.6515 -0.2034 0.7309
1.05 0.5875 -0.1 0.8661 0.0668 0.6515 -0.2034 -0.7309
1.05 0.75 -0.1 0.9047 0.0668 0.7071 0 -0.7071
1.05 0.75 0.1 0.9047 0.1286 0.7071 -0 0.7071
1.05 0.75 0.1 0.9047 0.1286 0.7071 -0 0.7071
1.05 0.5875 0.1 0.8661 0.1286 0.6515 -0.2034 0.7309
1.05 0.5875 -0.1 0.8661 0.0668 0.6515 -0.2034 -0.7309
0.95 0.5875 -0.1 0.8631 0.1971 -0.6515 -0.2034 -0.7309
0.95 0.75 -0.1 0.9017 0.1971 -0.7071 0 -0.7071
1.05 0.75 -0.1 0.9017 0.228 0.7071 0 -0.7071
1.05 0.75 -0.1 0.9017 0.228 0.7071 0 -0.7071
1.05 0.5875 -0.1 0.8631 0.228 0.6515 -0.2034 -0.7309
0.95 0.5875 -0.1 0.8631 0.1971 -0.6515 -0.2034 -0.7309
0.95 0.5605 0.0837 0.8597 0.137 -0.7525 -0.2266 0.6183
0.95 0.5875 0.1 0.8661 0.132 -0.6515 -0.2034 0.7309
0.95 0.5875 -0.1 0.8661 0.1938 -0.6515 -0.2034 -0.7309
0.95 0.5875 -0.1 0.8661 0.1938 -0.6515 -0.2034 -0.7309
0.95 0.5605 -0.0837 0.8597 0.1888 -0.7525 -0.2266 -0.6183
0.95 0.5605 0.0837 0.8597 0.137 -0.7525 -0.2266 0.6183
0.95 0.5062 0.075 0.8468 0.1397 -0.7448 -0 0.6673
0.95 0.5605 0.0837 0.8597 0.137 -0.7525 -0.2266 0.6183
0.95 0.5605 -0.0837 0.8597 0.1888 -0.7525 -0.2266 -0.6183
0.95 0.5605 -0.0837 0.8597 0.1888 -0.7525 -0.2266 -0.6183
0.95 0.5062 -0.075 0.8468 0.1861 -0.7448 0 -0.6673
0.95 0.5062 0.075 0.8468 0.1397 -0.7448 -0 0.6673
0.95 0.452 0.0837 0.8339 0.137 -0.7525 0.2266 0.6183
0.95 0.5062 0.075 0.8468 0.1397 -0.7448 -0 0.6673
0.95 0.5062 -0.075 0.8468 0.1861 -0.7448 0 -0.6673
0.95 0.5062 -0.075 0.8468 0.1861 -0.7448 0 -0.6673
0.95 0.452 -0.0837 0.8339 0.1888 -0.7525 0.2266 -0.6183
0.95 0.452 0.0837 0.8339 0.137 -0.7525 0.2266 0.6183
1.05 0.5605 0.0837 0.1135 0.005 0.7525 -0.2266 0.6183
1.05 0.5875 0.1 0.1216 0.005 0.6515 -0.2034 0.7309
0.95 0.5875 0.1 0.1216 0.0359 -0.6515 -0.2034 0.7309
0.95 0.5875 0.1 0.1216 0.0359 -0.6515 -0.2034 0.7309
0.95 0.5605 0.0837 0.1135 0.0359 -0.7525 -0.2266 0.6183
1.05 0.5605 0.0837 0.1135 0.005 0.7525 -0.2266 0.6183
1.05 0.5062 0.075 0.1003 0.005 0.7448 -0 0.6673
1.05 0.5605 0.0837 0.1135 0.005 0.7525 -0.2266 0.6183
0.95 0.5605 0.0837 0.1135 0.0359 -0.7525 -0.2266 0.6183
0.95 0.5605 0.0837 0.1135 0.0359 -0.7525 -0.2266 0.6183
0.95 0.5062 0.075 0.1003 0.0359 -0.7448 -0 0.6673
1.05 0.5062 0.075 0.1003 0.005 0.7448 -0 0.6673
1.05 0.452 0.0837 0.0871 0.005 0.7525 0.2266 0.6183
1.05 0.5062 0.075 0.1003 0.005 0.7448 -0 0.6673
0.95 0.5062 0.075 0.1003 0.0359 -0.7448 -0 0.6673
0.95 0.5062 0.075 0.1003 0.0359 -0.7448 -0 0.6673
0.95 0.452 0.0837 0.0871 0.0359 -0.7525 0.2266 0.6183
1.05 0.452 0.0837 0.0871 0.005 0.7525 0.2266 0.6183
1.05 0.5605 -0.0837 0.8597 0.0718 0.7525 -0.2266 -0.6183
1.05 0.5875 -0.1 0.8661 0.0668 0.6515 -0.2034 -0.7309
1.05 0.5875 0.1 0.8661 0.1286 0.6515 -0.2034 0.7309
1.05 0.5875 0.1 0.8661 0.1286 0.6515 -0.2034 0.7309
1.05 0.5605 0.0837 0.8597 0.1236 0.7525 -0.2266 0.6183
1.05 0.5605 -0.0837 0.8597 0.0718 0.7525 -0.2266 -0.6183
1.05 0.5062 -0.075 0.8468 0.0745 0.7448 0 -0.6673
1.05 0.5605 -0.0837 0.8597 0.0718 0.7525 -0.2266 -0.6183
1.05 0.5605 0.0837 0.8597 0.1236 0.7525 -0.2266 0.6183
1.05 0.5605 0.0837 0.8597 0.1236 0.7525 -0.2266 0.6183
1.05 0.5062 0.075 0.8468 0.1209 0.7448 -0 0.6673
1.05 0.5062 -0.075 0.8468 0.0745 0.7448 0 -0.6673
1.05 0.452 -0.0837 0.8339 0.0718 0.7525 0.2266 -0.6183
1.05 0.5062 -0.075 0.8468 0.0745 0.7448 0 -0.6673
1.05 0.5062 0.075 0.8468 0.1209 0.7448 -0 0.6673
1.05 0.5062 0.075 0.8468 0.1209 0.7448 -0 0.6673
1.05 0.452 0.0837 0.8339 0.1236 0.7525 0.2266 0.6183
1.05 0.452 -0.0837 0.8339 0.0718 0.7525 0.2266 -0.6183
0.95 0.5605 -0.0837 0.8549 0.1971 -0.7525 -0.2266 -0.6183
0.95 0.5875 -0.1 0.8631 0.1971 -0.6515 -0.2034 -0.7309
1.05 0.5875 -0.1 0.8631 0.228 0.6515 -0.2034 -0.7309
1.05 0.5875 -0.1 0.8631 0.228 0.6515 -0.2034 -0.7309
1.05 0.5605 -0.0837 0.8549 0.228 0.7525 -0.2266 -0.6183
0.95 0.5605 -0.0837 0.8549 0.1971 -0.7525 -0.2266 -0.6183
0.95 0.5062 -0.075 0.8418 0.1971 -0.7448 0 -0.6673
0.95 0.5605 -0.0837 0.8549 0.1971 -0.7525 -0.2266 -0.6183
1.05 0.5605 -0.0837 0.8549 0.228 0.7525 -0.2266 -0.6183
1.05 0.5605 -0.0837 0.8549 0.228 0.7525 -0.2266 -0.6183
1.05 0.5062 -0.075 0.8418 0.228 0.7448 0 -0.6673
0.95 0.5062 -0.075 0.8418 0.1971 -0.7448 0 -0.6673
0.95 0.452 -0.0837 0.8286 0.1971 -0.7525 0.2266 -0.6183
0.95 0.5062 -0.075 0.8418 0.1971 -0.7448 0 -0.6673
1.05 0.5062 -0.075 0.8418 0.228 0.7448 0 -0.6673
1.05 0.5062 -0.075 0.8418 0.228 0.7448 0 -0.6673
1.05 0.452 -0.0837 0.8286 0.228 0.7525 0.2266 -0.6183
0.95 0.452 -0.0837 0.8286 0.1971 -0.7525 0.2266 -0.6183
-1.05 0.452 -0.0837 0.249 0.005 -0.7525 0.2266 -0.6183
-1.05 0.5062 -0.075 0.2622 0.005 -0.7448 0 -0.6673
-0.95 0.5062 -0.075 0.2622 0.0359 0.7448 0 -0.6673
-0.95 0.5062 -0.075 0.2622 0.0359 0.7448 0 -0.6673
-0.95 0.452 -0.0837 0.249 0.0359 0.7525 0.2266 -0.6183
-1.05 0.452 -0.0837 0.249 0.005 -0.7525 0.2266 -0.6183
-1.05 0.5605 -0.0837 0.2754 0.005 -0.7525 -0.2266 -0.6183
-1.05 0.5875 -0.1 0.2835 0.005 -0.6515 -0.2034 -0.7309
-0.95 0.5875 -0.1 0.2835 0.0359 0.6515 -0.2034 -0.7309
-0.95 0.5875 -0.1 0.2835 0.0359 0.6515 -0.2034 -0.7309
-0.95 0.5605 -0.0837 0.2754 0.0359 0.7525 -0.2266 -0.6183
-1.05 0.5605 -0.0837 0.2754 0.005 -0.7525 -0.2266 -0.6183
-0.95 0.5605 -0.0837 0.8526 0.2581 0.7525 -0.2266 -0.6183
-0.95 0.5875 -0.1 0.8591 0.2531 0.6515 -0.2034 -0.7309
-0.95 0.5875 0.1 0.8591 0.3149 0.6515 -0.2034 0.7309
-0.95 0.5875 0.1 0.8591 0.3149 0.6515 -0.2034 0.7309
-0.95 0.5605 0.0837 0.8527 0.3099 0.7525 -0.2266 0.6183
-0.95 0.5605 -0.0837 0.8526 0.2581 0.7525 -0.2266 -0.6183
-1.05 0.5062 -0.075 0.2622 0.005 -0.7448 0 -0.6673
-1.05 0.5605 -0.0837 0.2754 0.005 -0.7525 -0.2266 -0.6183
-0.95 0.5605 -0.0837 0.2754 0.0359 0.7525 -0.2266 -0.6183
-0.95 0.5605 -0.0837 0.2754 0.0359 0.7525 -0.2266 -0.6183
-0.95 0.5062 -0.075 0.2622 0.0359 0.7448 0 -0.6673
-1.05 0.5062 -0.075 0.2622 0.005 -0.7448 0 -0.6673
-1.05 0.452 0.0837 0.8339 0.00669998 -0.7525 0.2266 0.6183
-1.05 0.5062 0.075 0.8468 0.00940001 -0.7448 -0 0.6673
-1.05 0.5062 -0.075 0.8468 0.0558 -0.7448 0 -0.6673
-1.05 0.5062 -0.075 0.8468 0.0558 -0.7448 0 -0.6673
-1.05 0.452 -0.0837 0.8339 0.0585 -0.7525 0.2266 -0.6183
-1.05 0.452 0.0837 0.8339 0.00669998 -0.7525 0.2266 0.6183
-0.95 0.5605 0.0837 0.4373 0.005 0.7525 -0.2266 0.6183
-0.95 0.5875 0.1 0.4454 0.005 0.6515 -0.2034 0.7309
-1.05 0.5875 0.1 0.4454 0.0359 -0.6515 -0.2034 0.7309
-1.05 0.5875 0.1 0.4454 0.0359 -0.6515 -0.2034 0.7309
-1.05 0.5605 0.0837 0.4373 0.0359 -0.7525 -0.2266 0.6183
-0.95 0.5605 0.0837 0.4373 0.005 0.7525 -0.2266 0.6183
-1.05 0.5605 0.0837 0.8597 0.00669998 -0.7525 -0.2266 0.6183
-1.05 0.5875 0.1 0.8661 0.00169998 -0.6515 -0.2034 0.7309
-1.05 0.5875 -0.1 0.8661 0.0635 -0.6515 -0.2034 -0.7309
-1.05 0.5875 -0.1 0.8661 0.0635 -0.6515 -0.2034 -0.7309
-1.05 0.5605 -0.0837 0.8597 0.0585 -0.7525 -0.2266 -0.6183
-1.05 0.5605 0.0837 0.8597 0.00669998 -0.7525 -0.2266 0.6183
-1.05 0.5062 0.075 0.8468 0.00940001 -0.7448 -0 0.6673
-1.05 0.5605 0.0837 0.8597 0.00669998 -0.7525 -0.2266 0.6183
-1.05 0.5605 -0.0837 0.8597 0.0585 -0.7525 -0.2266 -0.6183
-1.05 0.5605 -0.0837 0.8597 0.0585 -0.7525 -0.2266 -0.6183
-1.05 0.5062 -0.075 0.8468 0.0558 -0.7448 0 -0.6673
-1.05 0.5062 0.075 0.8468 0.00940001 -0.7448 -0 0.6673
-0.95 0.5062 -0.075 0.8397 0.2609 0.7448 0 -0.6673
-0.95 0.5605 -0.0837 0.8526 0.2581 0.7525 -0.2266 -0.6183
-0.95 0.5605 0.0837 0.8527 0.3099 0.7525 -0.2266 0.6183
-0.95 0.5605 0.0837 0.8527 0.3099 0.7525 -0.2266 0.6183
-0.95 0.5062 0.075 0.8398 0.3072 0.7448 -0 0.6673
-0.95 0.5062 -0.075 0.8397 0.2609 0.7448 0 -0.6673
-0.95 0.425 -0.1 0.8204 0.2531 0.6515 0.2034 -0.7309
-0.95 0.452 -0.0837 0.8268 0.2582 0.7525 0.2266 -0.6183
-0.95 0.452 0.0837 0.8268 0.3099 0.7525 0.2266 0.6183
-0.95 0.452 0.0837 0.8268 0.3099 0.7525 0.2266 0.6183
-0.95 0.425 0.1 0.8204 0.315 0.6515 0.2034 0.7309
-0.95 0.425 -0.1 0.8204 0.2531 0.6515 0.2034 -0.7309
-0.95 0.425 0.1 0.4028 0.005 0.6515 0.2034 0.7309
-0.95 0.452 0.0837 0.4109 0.005 0.7525 0.2266 0.6183
-1.05 0.452 0.0837 0.4109 0.0359 -0.7525 0.2266 0.6183
-1.05 0.452 0.0837 0.4109 0.0359 -0.7525 0.2266 0.6183
-1.05 0.425 0.1 0.4028 0.0359 -0.6515 0.2034 0.7309
-0.95 0.425 0.1 0.4028 0.005 0.6515 0.2034 0.7309
-0.95 0.452 0.0837 0.4109 0.005 0.7525 0.2266 0.6183
-0.95 0.5062 0.075 0.4241 0.005 0.7448 -0 0.6673
-1.05 0.5062 0.075 0.4241 0.0359 -0.7448 -0 0.6673
-1.05 0.5062 0.075 0.4241 0.0359 -0.7448 -0 0.6673
-1.05 0.452 0.0837 0.4109 0.0359 -0.7525 0.2266 0.6183
-0.95 0.452 0.0837 0.4109 0.005 0.7525 0.2266 0.6183
-0.95 0.5875 0.1 0.4454 0.005 0.6515 -0.2034 0.7309
-0.95 0.75 0.1 0.4841 0.005 0.7071 -0 0.7071
-1.05 0.75 0.1 0.4841 0.0359 -0.7071 -0 0.7071
-1.05 0.75 0.1 0.4841 0.0359 -0.7071 -0 0.7071
-1.05 0.5875 0.1 0.4454 0.0359 -0.6515 -0.2034 0.7309
-0.95 0.5875 0.1 0.4454 0.005 0.6515 -0.2034 0.7309
-1.05 0.425 0.1 0.8274 0.00169998 -0.6515 0.2034 0.7309
-1.05 0.452 0.0837 0.8339 0.00669998 -0.7525 0.2266 0.6183
-1.05 0.452 -0.0837 0.8339 0.0585 -0.7525 0.2266 -0.6183
-1.05 0.452 -0.0837 0.8339 0.0585 -0.7525 0.2266 -0.6183
-1.05 0.425 -0.1 0.8274 0.0635 -0.6515 0.2034 -0.7309
-1.05 0.425 0.1 0.8274 0.00169998 -0.6515 0.2034 0.7309
-0.95 0.452 -0.0837 0.8268 0.2582 0.7525 0.2266 -0.6183
-0.95 0.5062 -0.075 0.8397 0.2609 0.7448 0 -0.6673
-0.95 0.5062 0.075 0.8398 0.3072 0.7448 -0 0.6673
-0.95 0.5062 0.075 0.8398 0.3072 0.7448 -0 0.6673
-0.95 0.452 0.0837 0.8268 0.3099 0.7525 0.2266 0.6183
-0.95 0.452 -0.0837 0.8268 0.2582 0.7525 0.2266 -0.6183
-0.95 0.5875 -0.1 0.8591 0.2531 0.6515 -0.2034 -0.7309
-0.95 0.75 -0.1 0.8977 0.2531 0.7071 0 -0.7071
-0.95 0.75 0.1 0.8977 0.3149 0.7071 -0 0.7071
-0.95 0.75 0.1 0.8977 0.3149 0.7071 -0 0.7071
-0.95 0.5875 0.1 0.8591 0.3149 0.6515 -0.2034 0.7309
-0.95 0.5875 -0.1 0.8591 0.2531 0.6515 -0.2034 -0.7309
-1.05 0.5875 0.1 0.8661 0.00169998 -0.6515 -0.2034 0.7309
-1.05 0.75 0.1 0.9047 0.00169998 -0.7071 -0 0.7071
-1.05 0.75 -0.1 0.9047 0.0635 -0.7071 0 -0.7071
-1.05 0.75 -0.1 0.9047 0.0635 -0.7071 0 -0.7071
-1.05 0.5875 -0.1 0.8661 0.0635 -0.6515 -0.2034 -0.7309
-1.05 0.5875 0.1 0.8661 0.00169998 -0.6515 -0.2034 0.7309
-0.95 0.5062 0.075 0.4241 0.005 0.7448 -0 0.6673
-0.95 0.5605 0.0837 0.4373 0.005 0.7525 -0.2266 0.6183
-1.05 0.5605 0.0837 0.4373 0.0359 -0.7525 -0.2266 0.6183
-1.05 0.5605 0.0837 0.4373 0.0359 -0.7525 -0.2266 0.6183
-1.05 0.5062 0.075 0.4241 0.0359 -0.7448 -0 0.6673
-0.95 0.5062 0.075 0.4241 0.005 0.7448 -0 0.6673
-1.05 0.5875 -0.1 0.2835 0.005 -0.6515 -0.2034 -0.7309
-1.05 0.75 -0.1 0.3222 0.005 -0.7071 0 -0.7071
-0.95 0.75 -0.1 0.3222 0.0359 0.7071 0 -0.7071
-0.95 0.75 -0.1 0.3222 0.0359 0.7071 0 -0.7071
-0.95 0.5875 -0.1 0.2835 0.0359 0.6515 -0.2034 -0.7309
-1.05 0.5875 -0.1 0.2835 0.005 -0.6515 -0.2034 -0.7309
-1.05 0.1 -0.1 0.1636 0.005 -0.7071 0 -0.7071
-1.05 0.425 -0.1 0.2409 0.005 -0.6515 0.2034 -0.7309
-0.95 0.425 -0.1 0.2409 0.0359 0.6515 0.2034 -0.7309
-0.95 0.425 -0.1 0.2409 0.0359 0.6515 0.2034 -0.7309
-0.95 0.1 -0.1 0.1636 0.0359 0.7071 0 -0.7071
-1.05 0.1 -0.1 0.1636 0.005 -0.7071 0 -0.7071
-1.05 0.1 0.1 0.7502 0.00169998 -0.7071 -0 0.7071
-1.05 0.425 0.1 0.8274 0.00169998 -0.6515 0.2034 0.7309
-1.05 0.425 -0.1 0.8274 0.0635 -0.6515 0.2034 -0.7309
-1.05 0.425 -0.1 0.8274 0.0635 -0.6515 0.2034 -0.7309
-1.05 0.1 -0.1 0.7502 0.0635 -0.7071 0 -0.7071
-1.05 0.1 0.1 0.7502 0.00169998 -0.7071 -0 0.7071
-1.05 0.425 -0.1 0.2409 0.005 -0.6515 0.2034 -0.7309
-1.05 0.452 -0.0837 0.249 0.005 -0.7525 0.2266 -0.6183
-0.95 0.452 -0.0837 0.249 0.0359 0.7525 0.2266 -0.6183
-0.95 0.452 -0.0837 0.249 0.0359 0.7525 0.2266 -0.6183
-0.95 0.425 -0.1 0.2409 0.0359 0.6515 0.2034 -0.7309
-1.05 0.425 -0.1 0.2409 0.005 -0.6515 0.2034 -0.7309
-0.95 0.1 0.1 0.3255 0.005 0.7071 -0 0.7071
-0.95 0.425 0.1 0.4028 0.005 0.6515 0.2034 0.7309
-1.05 0.425 0.1 0.4028 0.0359 -0.6515 0.2034 0.7309
-1.05 0.425 0.1 0.4028 0.0359 -0.6515 0.2034 0.7309
-1.05 0.1 0.1 0.3255 0.0359 -0.7071 -0 0.7071
-0.95 0.1 0.1 0.3255 0.005 0.7071 -0 0.7071
-0.95 0.1 -0.1 0.7431 0.2532 0.7071 0 -0.7071
-0.95 0.425 -0.1 0.8204 0.2531 0.6515 0.2034 -0.7309
-0.95 0.425 0.1 0.8204 0.315 0.6515 0.2034 0.7309
-0.95 0.425 0.1 0.8204 0.315 0.6515 0.2034 0.7309
-0.95 0.1 0.1 0.7432 0.315 0.7071 -0 0.7071
-0.95 0.1 -0.1 0.7431 0.2532 0.7071 0 -0.7071
